%TGIF 4.1.43-QPL
state(0,37,100.000,0,0,1,4,0,9,2,2,0,1,1,0,1,0,'Times-Italic',2,103680,0,0,0,10,0,1,1,1,0,16,0,0,1,1,1,1,1088,1408,1,0,2880,0).
%
% @(#)$Header$
% %W%
%
unit("1 pixel/pixel").
color_info(11,65535,0,[
	"magenta", 65535, 0, 65535, 65535, 0, 65535, 1,
	"red", 65535, 0, 0, 65535, 0, 0, 1,
	"green", 0, 65535, 0, 0, 65535, 0, 1,
	"blue", 0, 0, 65535, 0, 0, 65535, 1,
	"yellow", 65535, 65535, 0, 65535, 65535, 0, 1,
	"pink", 65535, 49931, 50971, 65535, 49344, 52171, 1,
	"cyan", 0, 65535, 65535, 0, 65535, 65535, 1,
	"CadetBlue", 22885, 40569, 40569, 24415, 40606, 41120, 1,
	"white", 65535, 65535, 65535, 65535, 65535, 65535, 1,
	"black", 0, 0, 0, 0, 0, 0, 1,
	"DarkSlateGray", 10402, 19764, 18724, 12079, 20303, 20303, 1
]).
script_frac("0.6").
fg_bg_colors('black','white').
dont_reencode("FFDingbests:ZapfDingbats").
page(1,"",1,'').
text('black',564,339,1,0,1,82,22,1065,17,5,0,0,0,0,2,82,22,0,1,"",0,0,0,0,356,'',[
minilines(82,22,0,1,0,0,0,[
mini_line(82,17,5,0,1,0,[
str_block(0,82,17,5,0,1,0,0,0,[
str_seg('black','Times-Italic',2,103680,82,17,5,0,1,0,0,0,0,0,
	"Parent_list")])
])
])]).
poly('black','',2,[
	608,440,608,1028],1,1,1,1075,1,0,0,0,0,0,0,'1',0,0,
    "0","",[
    0,8,3,0,'8','3','0'],[0,8,3,0,'8','3','0'],[
]).
poly('black','',2,[
	640,484,640,896],1,1,1,1089,1,0,0,0,0,0,0,'1',0,0,
    "0","",[
    0,8,3,0,'8','3','0'],[0,8,3,0,'8','3','0'],[
]).
arc('black','',0,1,1,0,608,468,624,484,624,468,640,484,1,32,32,5760,-5760,1116,0,0,8,3,0,0,0,'1','8','3',0,[
]).
poly('black','',2,[
	765,520,821,520],1,1,1,1124,1,0,0,0,0,0,0,'1',0,0,
    "0","",[
    0,8,3,0,'8','3','0'],[0,8,3,0,'8','3','0'],[
]).
arc('black','',0,1,1,0,640,488,656,504,656,520,640,504,1,32,32,-5760,-5760,1125,0,0,8,3,0,0,0,'1','8','3',0,[
]).
poly('black','',2,[
	792,584,656,584],1,1,1,1127,1,0,0,0,0,0,0,'1',0,0,
    "0","",[
    0,8,3,0,'8','3','0'],[0,8,3,0,'8','3','0'],[
]).
arc('black','',0,1,1,0,964,552,980,568,980,584,996,568,0,32,32,-5760,5760,1129,0,0,8,3,0,0,0,'1','8','3',0,[
]).
poly('black','',2,[
	984,584,956,584],1,1,1,1130,1,0,0,0,0,0,0,'1',0,0,
    "0","",[
    0,8,3,0,'8','3','0'],[0,8,3,0,'8','3','0'],[
]).
arc('black','',0,1,1,0,640,584,656,600,656,584,640,600,0,32,32,5760,5760,1131,0,0,8,3,0,0,0,'1','8','3',0,[
]).
arc('black','',0,1,1,0,608,436,624,452,624,468,608,452,1,32,32,-5760,-5760,1217,0,0,8,3,0,0,0,'1','8','3',0,[
]).
arc('black','',0,1,1,0,781,520,797,536,797,520,781,536,0,32,32,5760,5760,1218,0,0,8,3,0,0,0,'1','8','3',0,[
]).
poly('black','',2,[
	608,360,608,412],1,1,1,1225,1,0,0,0,0,0,0,'1',0,0,
    "0","",[
    0,8,3,0,'8','3','0'],[0,8,3,0,'8','3','0'],[
]).
text('black',996,544,1,1,1,18,16,1273,12,4,0,0,0,0,2,18,16,0,0,"",0,0,0,0,556,'',[
minilines(18,16,0,0,1,0,0,[
mini_line(18,12,4,0,0,0,[
str_block(0,18,12,4,0,-1,0,0,0,[
str_seg('black','Courier-Bold',1,80640,18,12,4,0,-1,0,0,0,0,0,
	"as")])
])
])]).
rcbox('black','',972,536,1020,568,0,1,1,0,16,1274,0,0,0,0,'1',0,[
]).
text('black',888,508,1,1,1,109,22,1122,17,5,0,0,0,0,2,109,22,0,0,"",0,0,0,0,525,'',[
minilines(109,22,0,0,1,0,0,[
mini_line(109,17,5,0,0,0,[
str_block(0,109,17,5,0,0,0,0,0,[
str_seg('black','Times-Italic',2,103680,109,17,5,0,0,0,0,0,0,0,
	"Feature_name")])
])
])]).
box('black','',821,507,956,531,0,1,1,1123,0,0,0,0,0,'1',0,[
]).
text('black',888,572,1,1,1,109,22,1290,17,5,0,0,0,0,2,109,22,0,0,"",0,0,0,0,589,'',[
minilines(109,22,0,0,1,0,0,[
mini_line(109,17,5,0,0,0,[
str_block(0,109,17,5,0,0,0,0,0,[
str_seg('black','Times-Italic',2,103680,109,17,5,0,0,0,0,0,0,0,
	"Feature_name")])
])
])]).
box('black','',821,571,956,595,0,1,1,1289,0,0,0,0,0,'1',0,[
]).
arc('black','',0,1,1,0,964,520,980,536,980,520,996,536,1,32,32,5760,-5760,1294,0,0,8,3,0,0,0,'1','8','3',0,[
]).
text('black',781,544,1,1,1,9,16,1305,12,4,0,0,0,0,2,9,16,0,0,"",0,0,0,0,556,'',[
minilines(9,16,0,0,1,0,0,[
mini_line(9,12,4,0,0,0,[
str_block(0,9,12,4,0,-4,0,0,0,[
str_seg('black','Courier-Bold',1,80640,9,12,4,0,-4,0,0,0,0,0,
	",")])
])
])]).
rcbox('black','',761,536,801,568,0,1,1,0,16,1304,0,0,0,0,'1',0,[
]).
arc('black','',0,1,1,0,781,552,797,568,797,584,781,568,1,32,32,-5760,-5760,1316,0,0,8,3,0,0,0,'1','8','3',0,[
]).
arc('black','',0,1,1,0,640,584,656,600,656,616,640,600,1,32,32,-5760,-5760,1363,0,0,8,3,0,0,0,'1','8','3',0,[
]).
poly('black','',2,[
	848,680,656,680],1,1,1,1365,1,0,0,0,0,0,0,'1',0,0,
    "0","",[
    0,8,3,0,'8','3','0'],[0,8,3,0,'8','3','0'],[
]).
arc('black','',0,1,1,0,999,648,1015,664,1015,680,1031,664,0,32,32,-5760,5760,1366,0,0,8,3,0,0,0,'1','8','3',0,[
]).
poly('black','',2,[
	1016,680,809,680],1,1,1,1367,1,0,0,0,0,0,0,'1',0,0,
    "0","",[
    0,8,3,0,'8','3','0'],[0,8,3,0,'8','3','0'],[
]).
arc('black','',0,1,1,0,640,680,656,696,656,680,640,696,0,32,32,5760,5760,1368,0,0,8,3,0,0,0,'1','8','3',0,[
]).
arc('black','',0,1,1,0,793,616,809,632,809,616,793,632,0,32,32,5760,5760,1369,0,0,8,3,0,0,0,'1','8','3',0,[
]).
arc('black','',0,1,1,0,999,616,1015,632,1015,616,1031,632,1,32,32,5760,-5760,1379,0,0,8,3,0,0,0,'1','8','3',0,[
]).
arc('black','',0,1,1,0,793,648,809,664,809,680,793,664,1,32,32,-5760,-5760,1384,0,0,8,3,0,0,0,'1','8','3',0,[
]).
text('black',793,640,1,1,1,9,16,1398,12,4,0,0,0,0,2,9,16,0,0,"",0,0,0,0,652,'',[
minilines(9,16,0,0,1,0,0,[
mini_line(9,12,4,0,0,0,[
str_block(0,9,12,4,0,-4,0,0,0,[
str_seg('black','Courier-Bold',1,80640,9,12,4,0,-4,0,0,0,0,0,
	";")])
])
])]).
rcbox('black','',773,632,813,664,0,1,1,0,16,1399,0,0,0,0,'1',0,[
]).
poly('black','',2,[
	1031,632,1031,664],1,1,1,1408,1,0,0,0,0,0,0,'1',0,0,
    "0","",[
    0,8,3,0,'8','3','0'],[0,8,3,0,'8','3','0'],[
]).
arc('black','',0,1,1,0,640,680,656,696,656,712,640,696,1,32,32,-5760,-5760,1535,0,0,8,3,0,0,0,'1','8','3',0,[
]).
poly('black','',2,[
	848,776,656,776],1,1,1,1537,1,0,0,0,0,0,0,'1',0,0,
    "0","",[
    0,8,3,0,'8','3','0'],[0,8,3,0,'8','3','0'],[
]).
arc('black','',0,1,1,0,994,744,1010,760,1010,776,1026,760,0,32,32,-5760,5760,1538,0,0,8,3,0,0,0,'1','8','3',0,[
]).
poly('black','',2,[
	1010,776,828,776],1,1,1,1539,1,0,0,0,0,0,0,'1',0,0,
    "0","",[
    0,8,3,0,'8','3','0'],[0,8,3,0,'8','3','0'],[
]).
arc('black','',0,1,1,0,640,776,656,792,656,776,640,792,0,32,32,5760,5760,1540,0,0,8,3,0,0,0,'1','8','3',0,[
]).
arc('black','',0,1,1,0,816,712,832,728,832,712,816,728,0,32,32,5760,5760,1541,0,0,8,3,0,0,0,'1','8','3',0,[
]).
arc('black','',0,1,1,0,994,712,1010,728,1010,712,1026,728,1,32,32,5760,-5760,1544,0,0,8,3,0,0,0,'1','8','3',0,[
]).
arc('black','',0,1,1,0,816,744,832,760,832,776,816,760,1,32,32,-5760,-5760,1546,0,0,8,3,0,0,0,'1','8','3',0,[
]).
poly('black','',2,[
	1026,728,1026,760],1,1,1,1549,1,0,0,0,0,0,0,'1',0,0,
    "0","",[
    0,8,3,0,'8','3','0'],[0,8,3,0,'8','3','0'],[
]).
text('black',916,700,1,1,1,109,22,1560,17,5,0,0,0,0,2,109,22,0,0,"",0,0,0,0,717,'',[
minilines(109,22,0,0,1,0,0,[
mini_line(109,17,5,0,0,0,[
str_block(0,109,17,5,0,0,0,0,0,[
str_seg('black','Times-Italic',2,103680,109,17,5,0,0,0,0,0,0,0,
	"Feature_name")])
])
])]).
box('black','',848,699,985,723,0,1,1,1559,0,0,0,0,0,'1',0,[
]).
arc('black','',0,1,1,0,640,776,656,792,656,808,640,792,1,32,32,-5760,-5760,1585,0,0,8,3,0,0,0,'1','8','3',0,[
]).
poly('black','',2,[
	820,872,656,872],1,1,1,1587,1,0,0,0,0,0,0,'1',0,0,
    "0","",[
    0,8,3,0,'8','3','0'],[0,8,3,0,'8','3','0'],[
]).
arc('black','',0,1,1,0,986,840,1002,856,1002,872,1018,856,0,32,32,-5760,5760,1588,0,0,8,3,0,0,0,'1','8','3',0,[
]).
poly('black','',2,[
	1002,872,819,872],1,1,1,1589,1,0,0,0,0,0,0,'1',0,0,
    "0","",[
    0,8,3,0,'8','3','0'],[0,8,3,0,'8','3','0'],[
]).
arc('black','',0,1,1,0,640,872,656,888,656,872,640,888,0,32,32,5760,5760,1590,0,0,8,3,0,0,0,'1','8','3',0,[
]).
arc('black','',0,1,1,0,807,808,823,824,823,808,807,824,0,32,32,5760,5760,1591,0,0,8,3,0,0,0,'1','8','3',0,[
]).
arc('black','',0,1,1,0,986,808,1002,824,1002,808,1018,824,1,32,32,5760,-5760,1592,0,0,8,3,0,0,0,'1','8','3',0,[
]).
arc('black','',0,1,1,0,807,840,823,856,823,872,807,856,1,32,32,-5760,-5760,1594,0,0,8,3,0,0,0,'1','8','3',0,[
]).
text('black',807,832,1,1,1,9,16,1595,12,4,0,0,0,0,2,9,16,0,0,"",0,0,0,0,844,'',[
minilines(9,16,0,0,1,0,0,[
mini_line(9,12,4,0,0,0,[
str_block(0,9,12,4,0,-4,0,0,0,[
str_seg('black','Courier-Bold',1,80640,9,12,4,0,-4,0,0,0,0,0,
	",")])
])
])]).
rcbox('black','',787,824,827,856,0,1,1,0,16,1596,0,0,0,0,'1',0,[
]).
poly('black','',2,[
	1018,824,1018,856],1,1,1,1597,1,0,0,0,0,0,0,'1',0,0,
    "0","",[
    0,8,3,0,'8','3','0'],[0,8,3,0,'8','3','0'],[
]).
text('black',906,796,1,1,1,109,22,1600,17,5,0,0,0,0,2,109,22,0,0,"",0,0,0,0,813,'',[
minilines(109,22,0,0,1,0,0,[
mini_line(109,17,5,0,0,0,[
str_block(0,109,17,5,0,0,0,0,0,[
str_seg('black','Times-Italic',2,103680,109,17,5,0,0,0,0,0,0,0,
	"Feature_name")])
])
])]).
box('black','',839,795,974,819,0,1,1,1599,0,0,0,0,0,'1',0,[
]).
text('black',650,904,1,1,1,27,16,1668,12,4,0,0,0,0,2,27,16,0,0,"",0,0,0,0,916,'',[
minilines(27,16,0,0,1,0,0,[
mini_line(27,12,4,0,0,0,[
str_block(0,27,12,4,0,0,0,0,0,[
str_seg('black','Courier-Bold',1,80640,27,12,4,0,0,0,0,0,0,0,
	"end")])
])
])]).
rcbox('black','',620,896,681,928,0,1,1,0,16,1669,0,0,0,0,'1',0,[
]).
arc('black','',0,1,1,0,608,968,624,984,624,968,608,984,0,32,32,5760,5760,1670,0,0,8,3,0,0,0,'1','8','3',0,[
]).
poly('black','',2,[
	640,928,640,952],1,1,1,1671,1,0,0,0,0,0,0,'1',0,0,
    "0","",[
    0,8,3,0,'8','3','0'],[0,8,3,0,'8','3','0'],[
]).
arc('black','',0,1,1,0,608,936,624,952,624,968,640,952,0,32,32,-5760,5760,1676,0,0,8,3,0,0,0,'1','8','3',0,[
]).
arc('black','',0,1,1,0,576,968,592,984,592,1000,608,984,0,32,32,-5760,5760,1680,0,0,8,3,0,0,0,'1','8','3',0,[
]).
arc('black','',0,1,1,0,548,968,564,984,564,1000,548,984,1,32,32,-5760,-5760,1682,0,0,8,3,0,0,0,'1','8','3',0,[
]).
poly('black','',2,[
	548,672,548,388],1,1,1,1683,1,0,0,0,0,0,0,'1',0,0,
    "0","",[
    0,8,3,0,'8','3','0'],[0,8,3,0,'8','3','0'],[
]).
text('black',548,680,1,1,1,9,16,1688,12,4,0,0,0,0,2,9,16,0,0,"",0,0,0,0,692,'',[
minilines(9,16,0,0,1,0,0,[
mini_line(9,12,4,0,0,0,[
str_block(0,9,12,4,0,-4,0,0,0,[
str_seg('black','Courier-Bold',1,80640,9,12,4,0,-4,0,0,0,0,0,
	";")])
])
])]).
rcbox('black','',528,672,568,704,0,1,1,0,16,1689,0,0,0,0,'1',0,[
]).
arc('black','',0,1,1,0,548,372,564,388,564,372,548,388,0,32,32,5760,5760,1691,0,0,8,3,0,0,0,'1','8','3',0,[
]).
arc('black','',0,1,1,0,576,372,592,388,592,372,608,388,1,32,32,5760,-5760,1693,0,0,8,3,0,0,0,'1','8','3',0,[
]).
poly('black','',2,[
	548,984,548,704],1,1,1,1697,1,0,0,0,0,0,0,'1',0,0,
    "0","",[
    0,8,3,0,'8','3','0'],[0,8,3,0,'8','3','0'],[
]).
poly('black','',2,[
	592,1000,564,1000],1,1,1,1701,1,0,0,0,0,0,0,'1',0,0,
    "0","",[
    0,8,3,0,'8','3','0'],[0,8,3,0,'8','3','0'],[
]).
poly('black','',2,[
	656,520,684,520],1,1,1,3769,1,0,0,0,0,0,0,'1',0,0,
    "0","",[
    0,8,3,0,'8','3','0'],[0,8,3,0,'8','3','0'],[
]).
poly('black','',2,[
	564,372,592,372],1,1,1,3773,1,0,0,0,0,0,0,'1',0,0,
    "0","",[
    0,8,3,0,'8','3','0'],[0,8,3,0,'8','3','0'],[
]).
text('black',616,412,1,1,1,89,22,1076,17,5,0,0,0,0,2,89,22,0,0,"",0,0,0,0,429,'',[
minilines(89,22,0,0,1,0,0,[
mini_line(89,17,5,0,0,0,[
str_block(0,89,17,5,0,0,0,0,0,[
str_seg('black','Times-Italic',2,103680,89,17,5,0,0,0,0,0,0,0,
	"Parent_type")])
])
])]).
box('black','',560,411,673,435,0,1,1,1077,0,0,0,0,0,'1',0,[
]).
text('black',724,512,1,1,1,54,16,1121,12,4,0,0,0,0,2,54,16,0,0,"",0,0,0,0,524,'',[
minilines(54,16,0,0,1,0,0,[
mini_line(54,12,4,0,0,0,[
str_block(0,54,12,4,0,-1,0,0,0,[
str_seg('black','Courier-Bold',1,80640,54,12,4,0,-1,0,0,0,0,0,
	"rename")])
])
])]).
rcbox('black','',684,504,765,536,0,1,1,0,16,1120,0,0,0,0,'1',0,[
]).
poly('black','',2,[
	956,520,984,520],1,1,1,3784,1,0,0,0,0,0,0,'1',0,0,
    "0","",[
    0,8,3,0,'8','3','0'],[0,8,3,0,'8','3','0'],[
]).
poly('black','',2,[
	821,584,793,584],1,1,1,3789,1,0,0,0,0,0,0,'1',0,0,
    "0","",[
    0,8,3,0,'8','3','0'],[0,8,3,0,'8','3','0'],[
]).
poly('black','',2,[
	773,616,829,616],1,1,1,3798,1,0,0,0,0,0,0,'1',0,0,
    "0","",[
    0,8,3,0,'8','3','0'],[0,8,3,0,'8','3','0'],[
]).
poly('black','',2,[
	656,616,684,616],1,1,1,3800,1,0,0,0,0,0,0,'1',0,0,
    "0","",[
    0,8,3,0,'8','3','0'],[0,8,3,0,'8','3','0'],[
]).
poly('black','',2,[
	991,616,1019,616],1,1,1,3801,1,0,0,0,0,0,0,'1',0,0,
    "0","",[
    0,8,3,0,'8','3','0'],[0,8,3,0,'8','3','0'],[
]).
text('black',728,608,1,1,1,54,16,1360,12,4,0,0,0,0,2,54,16,0,0,"",0,0,0,0,620,'',[
minilines(54,16,0,0,1,0,0,[
mini_line(54,12,4,0,0,0,[
str_block(0,54,12,4,0,-1,0,0,0,[
str_seg('black','Courier-Bold',1,80640,54,12,4,0,-1,0,0,0,0,0,
	"export")])
])
])]).
rcbox('black','',684,600,772,632,0,1,1,0,16,1361,0,0,0,0,'1',0,[
]).
text('black',909,604,1,1,1,129,22,1375,17,5,0,0,0,0,2,129,22,0,0,"",0,0,0,0,621,'',[
minilines(129,22,0,0,1,0,0,[
mini_line(129,17,5,0,0,0,[
str_block(0,129,17,5,0,0,0,0,0,[
str_seg('black','Times-Italic',2,103680,129,17,5,0,0,0,0,0,0,0,
	"New_export_item")])
])
])]).
box('black','',828,603,990,627,0,1,1,1374,0,0,0,0,0,'1',0,[
]).
poly('black','',2,[
	656,712,684,712],1,1,1,3812,1,0,0,0,0,0,0,'1',0,0,
    "0","",[
    0,8,3,0,'8','3','0'],[0,8,3,0,'8','3','0'],[
]).
poly('black','',2,[
	985,712,1013,712],1,1,1,3813,1,0,0,0,0,0,0,'1',0,0,
    "0","",[
    0,8,3,0,'8','3','0'],[0,8,3,0,'8','3','0'],[
]).
poly('black','',2,[
	792,712,848,712],1,1,1,3815,1,0,0,0,0,0,0,'1',0,0,
    "0","",[
    0,8,3,0,'8','3','0'],[0,8,3,0,'8','3','0'],[
]).
text('black',738,704,1,1,1,72,16,1532,12,4,0,0,0,0,2,72,16,0,0,"",0,0,0,0,716,'',[
minilines(72,16,0,0,1,0,0,[
mini_line(72,12,4,0,0,0,[
str_block(0,72,12,4,0,-1,0,0,0,[
str_seg('black','Courier-Bold',1,80640,72,12,4,0,-1,0,0,0,0,0,
	"undefine")])
])
])]).
rcbox('black','',684,696,792,728,0,1,1,0,16,1533,0,0,0,0,'1',0,[
]).
text('black',816,736,1,1,1,9,16,1547,12,4,0,0,0,0,2,9,16,0,0,"",0,0,0,0,748,'',[
minilines(9,16,0,0,1,0,0,[
mini_line(9,12,4,0,0,0,[
str_block(0,9,12,4,0,-4,0,0,0,[
str_seg('black','Courier-Bold',1,80640,9,12,4,0,-4,0,0,0,0,0,
	",")])
])
])]).
rcbox('black','',796,728,836,760,0,1,1,0,16,1548,0,0,0,0,'1',0,[
]).
poly('black','',2,[
	783,808,839,808],1,1,1,3828,1,0,0,0,0,0,0,'1',0,0,
    "0","",[
    0,8,3,0,'8','3','0'],[0,8,3,0,'8','3','0'],[
]).
poly('black','',2,[
	656,808,684,808],1,1,1,3830,1,0,0,0,0,0,0,'1',0,0,
    "0","",[
    0,8,3,0,'8','3','0'],[0,8,3,0,'8','3','0'],[
]).
poly('black','',2,[
	974,808,1002,808],1,1,1,3831,1,0,0,0,0,0,0,'1',0,0,
    "0","",[
    0,8,3,0,'8','3','0'],[0,8,3,0,'8','3','0'],[
]).
text('black',733,800,1,1,1,72,16,1582,12,4,0,0,0,0,2,72,16,0,0,"",0,0,0,0,812,'',[
minilines(72,16,0,0,1,0,0,[
mini_line(72,12,4,0,0,0,[
str_block(0,72,12,4,0,-1,0,0,0,[
str_seg('black','Courier-Bold',1,80640,72,12,4,0,-1,0,0,0,0,0,
	"redefine")])
])
])]).
rcbox('black','',684,792,783,824,0,1,1,0,16,1583,0,0,0,0,'1',0,[
]).
text('black',612,88,1,1,1,74,22,1738,17,5,0,0,0,0,2,74,22,0,1,"",0,0,0,0,105,'',[
minilines(74,22,0,1,1,0,0,[
mini_line(74,17,5,0,1,0,[
str_block(0,74,17,5,0,1,0,0,0,[
str_seg('black','Times-Italic',2,103680,74,17,5,0,1,0,0,0,0,0,
	"Index_list")])
])
])]).
poly('black','',2,[
	608,116,608,168],1,1,1,1742,1,0,0,0,0,0,0,'1',0,0,
    "0","",[
    0,8,3,0,'8','3','0'],[0,8,3,0,'8','3','0'],[
]).
text('black',612,169,1,1,1,68,22,1745,17,5,0,0,0,0,2,68,22,0,1,"",0,0,0,0,186,'',[
minilines(68,22,0,1,1,0,0,[
mini_line(68,17,5,0,1,0,[
str_block(0,68,17,5,0,1,0,0,0,[
str_seg('black','Times-Italic',2,103680,68,17,5,0,1,0,0,0,0,0,
	"Identifier")])
])
])]).
box('black','',560,168,664,192,0,1,1,1746,0,0,0,0,0,'1',0,[
]).
text('black',858,169,1,1,1,118,22,1750,17,5,0,0,0,0,2,118,22,0,1,"",0,0,0,0,186,'',[
minilines(118,22,0,1,1,0,0,[
mini_line(118,17,5,0,1,0,[
str_block(0,118,17,5,0,1,0,0,0,[
str_seg('black','Times-Italic',2,103680,118,17,5,0,1,0,0,0,0,0,
	"Manifest_string")])
])
])]).
box('black','',784,168,932,192,0,1,1,1751,0,0,0,0,0,'1',0,[
]).
poly('black','',2,[
	732,180,784,180],1,1,1,1768,1,0,0,0,0,0,0,'1',0,0,
    "0","",[
    0,8,3,0,'8','3','0'],[0,8,3,0,'8','3','0'],[
]).
arc('black','',0,1,1,0,940,212,956,228,956,244,972,228,0,32,32,-5760,5760,1776,0,0,8,3,0,0,0,'1','8','3',0,[
]).
poly('black','',2,[
	956,244,764,244],1,1,1,1777,1,0,0,0,0,0,0,'1',0,0,
    "0","",[
    0,8,3,0,'8','3','0'],[0,8,3,0,'8','3','0'],[
]).
arc('black','',0,1,1,0,748,180,764,196,764,180,748,196,0,32,32,5760,5760,1778,0,0,8,3,0,0,0,'1','8','3',0,[
]).
arc('black','',0,1,1,0,940,180,956,196,956,180,972,196,1,32,32,5760,-5760,1779,0,0,8,3,0,0,0,'1','8','3',0,[
]).
arc('black','',0,1,1,0,748,212,764,228,764,244,748,228,1,32,32,-5760,-5760,1781,0,0,8,3,0,0,0,'1','8','3',0,[
]).
poly('black','',2,[
	972,196,972,228],1,1,1,1782,1,0,0,0,0,0,0,'1',0,0,
    "0","",[
    0,8,3,0,'8','3','0'],[0,8,3,0,'8','3','0'],[
]).
arc('black','',0,1,1,0,516,180,532,196,532,180,516,196,0,32,32,5760,5760,1786,0,0,8,3,0,0,0,'1','8','3',0,[
]).
poly('black','',2,[
	776,244,624,244],1,1,1,1790,1,0,0,0,0,0,0,'1',0,0,
    "0","",[
    0,8,3,0,'8','3','0'],[0,8,3,0,'8','3','0'],[
]).
poly('black','',2,[
	608,260,608,312],1,1,1,1792,1,0,0,0,0,0,0,'1',0,0,
    "0","",[
    0,8,3,0,'8','3','0'],[0,8,3,0,'8','3','0'],[
]).
arc('black','',0,1,1,0,608,244,624,260,624,244,608,260,0,32,32,5760,5760,1795,0,0,8,3,0,0,0,'1','8','3',0,[
]).
poly('black','',2,[
	628,244,532,244],1,1,1,1798,1,0,0,0,0,0,0,'1',0,0,
    "0","",[
    0,8,3,0,'8','3','0'],[0,8,3,0,'8','3','0'],[
]).
arc('black','',0,1,1,0,516,212,532,228,532,244,516,228,1,32,32,-5760,-5760,1801,0,0,8,3,0,0,0,'1','8','3',0,[
]).
poly('black','',2,[
	664,180,692,180],1,1,1,3749,1,0,0,0,0,0,0,'1',0,0,
    "0","",[
    0,8,3,0,'8','3','0'],[0,8,3,0,'8','3','0'],[
]).
poly('black','',2,[
	932,180,960,180],1,1,1,3754,1,0,0,0,0,0,0,'1',0,0,
    "0","",[
    0,8,3,0,'8','3','0'],[0,8,3,0,'8','3','0'],[
]).
poly('black','',2,[
	532,180,560,180],1,1,1,3756,1,0,0,0,0,0,0,'1',0,0,
    "0","",[
    0,8,3,0,'8','3','0'],[0,8,3,0,'8','3','0'],[
]).
text('black',516,204,1,1,1,9,16,1763,12,4,0,0,0,0,2,9,16,0,0,"",0,0,0,0,216,'',[
minilines(9,16,0,0,1,0,0,[
mini_line(9,12,4,0,0,0,[
str_block(0,9,12,4,0,-4,0,0,0,[
str_seg('black','Courier-Bold',1,80640,9,12,4,0,-4,0,0,0,0,0,
	";")])
])
])]).
rcbox('black','',496,196,536,228,0,1,1,0,16,1764,0,0,0,0,'1',0,[
]).
text('black',712,172,1,1,1,9,16,1754,12,4,0,0,0,0,2,9,16,0,0,"",0,0,0,0,184,'',[
minilines(9,16,0,0,1,0,0,[
mini_line(9,12,4,0,0,0,[
str_block(0,9,12,4,0,-4,0,0,0,[
str_seg('black','Courier-Bold',1,80640,9,12,4,0,-4,0,0,0,0,0,
	":")])
])
])]).
rcbox('black','',692,164,732,196,0,1,1,0,16,1755,0,0,0,0,'1',0,[
]).
text('black',748,204,1,1,1,9,16,1759,12,4,0,0,0,0,2,9,16,0,0,"",0,0,0,0,216,'',[
minilines(9,16,0,0,1,0,0,[
mini_line(9,12,4,0,0,0,[
str_block(0,9,12,4,0,-4,0,0,0,[
str_seg('black','Courier-Bold',1,80640,9,12,4,0,-4,0,0,0,0,0,
	",")])
])
])]).
rcbox('black','',728,196,768,228,0,1,1,0,16,1760,0,0,0,0,'1',0,[
]).
text('black',20,104,1,0,1,138,22,0,17,5,0,0,0,0,2,138,22,0,0,"",0,0,0,0,121,'',[
minilines(138,22,0,0,0,0,0,[
mini_line(138,17,5,0,0,0,[
str_block(0,138,17,5,0,0,0,0,0,[
str_seg('black','Times-Italic',2,103680,138,17,5,0,0,0,0,0,0,0,
	"Class_declaration")])
])
])]).
text('black',184,248,1,1,1,72,16,42,12,4,0,0,0,0,2,72,16,0,0,"",0,0,0,0,260,'',[
minilines(72,16,0,0,1,0,0,[
mini_line(72,12,4,0,0,0,[
str_block(0,72,12,4,0,0,0,0,0,[
str_seg('black','Courier-Bold',1,80640,72,12,4,0,0,0,0,0,0,0,
	"deferred")])
])
])]).
rcbox('black','',132,240,236,272,0,1,1,0,16,41,0,0,0,0,'1',0,[
]).
text('black',184,312,1,1,1,72,16,51,12,4,0,0,0,0,2,72,16,0,0,"",0,0,0,0,324,'',[
minilines(72,16,0,0,1,0,0,[
mini_line(72,12,4,0,0,0,[
str_block(0,72,12,4,0,0,0,0,0,[
str_seg('black','Courier-Bold',1,80640,72,12,4,0,0,0,0,0,0,0,
	"expanded")])
])
])]).
rcbox('black','',132,304,236,336,0,1,1,0,16,50,0,0,0,0,'1',0,[
]).
text('black',68,392,1,1,1,45,16,97,12,4,0,0,0,0,2,45,16,0,0,"",0,0,0,0,404,'',[
minilines(45,16,0,0,1,0,0,[
mini_line(45,12,4,0,0,0,[
str_block(0,45,12,4,0,-1,0,0,0,[
str_seg('black','Courier-Bold',1,80640,45,12,4,0,-1,0,0,0,0,0,
	"class")])
])
])]).
rcbox('black','',32,384,104,416,0,1,1,0,16,96,0,0,0,0,'1',0,[
]).
poly('black','',2,[
	64,132,64,384],1,1,1,113,1,0,0,0,0,0,0,'1',0,0,
    "0","",[
    0,8,3,0,'8','3','0'],[0,8,3,0,'8','3','0'],[
]).
text('black',192,388,1,1,1,95,22,218,17,5,0,0,0,0,2,95,22,0,0,"",0,0,0,0,405,'',[
minilines(95,22,0,0,1,0,0,[
mini_line(95,17,5,0,0,0,[
str_block(0,95,17,5,0,0,0,0,0,[
str_seg('black','Times-Italic',2,103680,95,17,5,0,0,0,0,0,0,0,
	"Class_name")])
])
])]).
box('black','',132,387,252,411,0,1,1,219,0,0,0,0,0,'1',0,[
]).
text('black',406,456,1,1,1,9,16,239,12,4,0,0,0,0,2,9,16,0,0,"",0,0,0,0,468,'',[
minilines(9,16,0,0,1,0,0,[
mini_line(9,12,4,0,0,0,[
str_block(0,9,12,4,0,-3,0,0,0,[
str_seg('black','Courier-Bold',1,80640,9,12,4,0,-3,0,0,0,0,0,
	"]")])
])
])]).
rcbox('black','',388,448,424,480,0,1,1,0,16,240,0,0,0,0,'1',0,[
]).
text('black',266,452,1,1,1,150,22,253,17,5,0,0,0,0,2,150,22,0,1,"",0,0,0,0,469,'',[
minilines(150,22,0,1,1,0,0,[
mini_line(150,17,5,0,1,0,[
str_block(0,150,17,5,0,1,0,0,0,[
str_seg('black','Times-Italic',2,103680,150,17,5,0,1,0,0,0,0,0,
	"Formal_generic_list")])
])
])]).
box('black','',172,451,360,475,0,1,1,252,0,0,0,0,0,'1',0,[
]).
poly('black','',2,[
	320,348,80,348],1,1,1,352,1,0,0,0,0,0,0,'1',0,0,
    "0","",[
    0,8,3,0,'8','3','0'],[0,8,3,0,'8','3','0'],[
]).
poly('black','',2,[
	64,444,64,924],1,1,1,379,1,0,0,0,0,0,0,'1',0,0,
    "0","",[
    0,8,3,0,'8','3','0'],[0,8,3,0,'8','3','0'],[
]).
poly('black','',2,[
	108,256,132,256],1,1,1,416,1,0,0,0,0,0,0,'1',0,0,
    "0","",[
    0,8,3,0,'8','3','0'],[0,8,3,0,'8','3','0'],[
]).
poly('black','',2,[
	108,320,132,320],1,1,1,419,1,0,0,0,0,0,0,'1',0,0,
    "0","",[
    0,8,3,0,'8','3','0'],[0,8,3,0,'8','3','0'],[
]).
poly('black','',2,[
	236,256,264,256],1,1,1,429,1,0,0,0,0,0,0,'1',0,0,
    "0","",[
    0,8,3,0,'8','3','0'],[0,8,3,0,'8','3','0'],[
]).
poly('black','',2,[
	236,320,264,320],1,1,1,430,1,0,0,0,0,0,0,'1',0,0,
    "0","",[
    0,8,3,0,'8','3','0'],[0,8,3,0,'8','3','0'],[
]).
poly('black','',2,[
	296,288,324,288],1,1,1,433,1,0,0,0,0,0,0,'1',0,0,
    "0","",[
    0,8,3,0,'8','3','0'],[0,8,3,0,'8','3','0'],[
]).
arc('black','',0,1,1,0,308,288,322,302,320,288,336,304,1,28,28,6272,-6784,435,0,0,8,3,0,0,0,'1','8','3',0,[
]).
poly('black','',2,[
	336,304,336,336],1,1,1,437,1,0,0,0,0,0,0,'1',0,0,
    "0","",[
    0,8,3,0,'8','3','0'],[0,8,3,0,'8','3','0'],[
]).
arc('black','',0,1,1,0,308,320,322,334,320,348,336,332,0,28,28,-6272,6784,441,0,0,8,3,0,0,0,'1','8','3',0,[
]).
arc('black','',0,1,1,0,64,348,78,362,80,348,64,364,0,28,28,5248,6784,445,0,0,8,3,0,0,0,'1','8','3',0,[
]).
arc('black','',0,1,1,0,64,256,80,272,80,288,64,272,1,32,32,-5760,-5760,521,0,0,8,3,0,0,0,'1','8','3',0,[
]).
arc('black','',0,1,1,0,248,256,264,272,264,256,280,272,1,32,32,5760,-5760,525,0,0,8,3,0,0,0,'1','8','3',0,[
]).
arc('black','',0,1,1,0,280,256,296,272,296,288,280,272,1,32,32,-5760,-5760,527,0,0,8,3,0,0,0,'1','8','3',0,[
]).
arc('black','',0,1,1,0,92,288,108,304,108,320,92,304,1,32,32,-5760,-5760,534,0,0,8,3,0,0,0,'1','8','3',0,[
]).
arc('black','',0,1,1,0,60,288,76,304,76,288,92,304,1,32,32,5760,-5760,536,0,0,8,3,0,0,0,'1','8','3',0,[
]).
arc('black','',0,1,1,0,60,256,76,272,76,288,92,272,0,32,32,-5760,5760,540,0,0,8,3,0,0,0,'1','8','3',0,[
]).
arc('black','',0,1,1,0,92,256,108,272,108,256,92,272,0,32,32,5760,5760,542,0,0,8,3,0,0,0,'1','8','3',0,[
]).
arc('black','',0,1,1,0,248,288,264,304,264,320,280,304,0,32,32,-5760,5760,545,0,0,8,3,0,0,0,'1','8','3',0,[
]).
arc('black','',0,1,1,0,280,288,296,304,296,288,280,304,0,32,32,5760,5760,547,0,0,8,3,0,0,0,'1','8','3',0,[
]).
poly('black','',2,[
	280,432,80,432],1,1,1,579,1,0,0,0,0,0,0,'1',0,0,
    "0","",[
    0,8,3,0,'8','3','0'],[0,8,3,0,'8','3','0'],[
]).
arc('black','',0,1,1,0,264,400,280,416,280,400,296,416,1,32,32,5760,-5760,580,0,0,8,3,0,0,0,'1','8','3',0,[
]).
arc('black','',0,1,1,0,264,400,280,416,280,432,296,416,0,32,32,-5760,5760,581,0,0,8,3,0,0,0,'1','8','3',0,[
]).
arc('black','',0,1,1,0,64,432,80,448,80,432,64,448,0,32,32,5760,5760,583,0,0,8,3,0,0,0,'1','8','3',0,[
]).
poly('black','',2,[
	452,496,76,496],1,1,1,594,1,0,0,0,0,0,0,'1',0,0,
    "0","",[
    0,8,3,0,'8','3','0'],[0,8,3,0,'8','3','0'],[
]).
arc('black','',0,1,1,0,436,464,452,480,452,464,468,480,1,32,32,5760,-5760,595,0,0,8,3,0,0,0,'1','8','3',0,[
]).
arc('black','',0,1,1,0,436,464,452,480,452,496,468,480,0,32,32,-5760,5760,596,0,0,8,3,0,0,0,'1','8','3',0,[
]).
text('black',158,520,1,1,1,72,16,606,12,4,0,0,0,0,2,72,16,0,0,"",0,0,0,0,532,'',[
minilines(72,16,0,0,1,0,0,[
mini_line(72,12,4,0,0,0,[
str_block(0,72,12,4,0,-1,0,0,0,[
str_seg('black','Courier-Bold',1,80640,72,12,4,0,-1,0,0,0,0,0,
	"obsolete")])
])
])]).
rcbox('black','',108,512,208,544,0,1,1,0,16,605,0,0,0,0,'1',0,[
]).
arc('black','',0,1,1,0,64,496,80,512,80,528,64,512,1,32,32,-5760,-5760,634,0,0,8,3,0,0,0,'1','8','3',0,[
]).
poly('black','',2,[
	416,560,80,560],1,1,1,641,1,0,0,0,0,0,0,'1',0,0,
    "0","",[
    0,8,3,0,'8','3','0'],[0,8,3,0,'8','3','0'],[
]).
arc('black','',0,1,1,0,400,528,416,544,416,528,432,544,1,32,32,5760,-5760,642,0,0,8,3,0,0,0,'1','8','3',0,[
]).
arc('black','',0,1,1,0,400,528,416,544,416,560,432,544,0,32,32,-5760,5760,643,0,0,8,3,0,0,0,'1','8','3',0,[
]).
arc('black','',0,1,1,0,64,560,80,576,80,560,64,576,0,32,32,5760,5760,646,0,0,8,3,0,0,0,'1','8','3',0,[
]).
arc('black','',0,1,1,0,64,560,80,576,80,592,64,576,1,32,32,-5760,-5760,670,0,0,8,3,0,0,0,'1','8','3',0,[
]).
poly('black','',2,[
	364,624,80,624],1,1,1,672,1,0,0,0,0,0,0,'1',0,0,
    "0","",[
    0,8,3,0,'8','3','0'],[0,8,3,0,'8','3','0'],[
]).
arc('black','',0,1,1,0,348,592,364,608,364,592,380,608,1,32,32,5760,-5760,673,0,0,8,3,0,0,0,'1','8','3',0,[
]).
arc('black','',0,1,1,0,348,592,364,608,364,624,380,608,0,32,32,-5760,5760,674,0,0,8,3,0,0,0,'1','8','3',0,[
]).
arc('black','',0,1,1,0,64,624,80,640,80,624,64,640,0,32,32,5760,5760,676,0,0,8,3,0,0,0,'1','8','3',0,[
]).
arc('black','',0,1,1,0,64,624,80,640,80,656,64,640,1,32,32,-5760,-5760,705,0,0,8,3,0,0,0,'1','8','3',0,[
]).
poly('black','',2,[
	352,688,80,688],1,1,1,707,1,0,0,0,0,0,0,'1',0,0,
    "0","",[
    0,8,3,0,'8','3','0'],[0,8,3,0,'8','3','0'],[
]).
arc('black','',0,1,1,0,336,656,352,672,352,656,368,672,1,32,32,5760,-5760,708,0,0,8,3,0,0,0,'1','8','3',0,[
]).
arc('black','',0,1,1,0,336,656,352,672,352,688,368,672,0,32,32,-5760,5760,709,0,0,8,3,0,0,0,'1','8','3',0,[
]).
arc('black','',0,1,1,0,64,688,80,704,80,688,64,704,0,32,32,5760,5760,711,0,0,8,3,0,0,0,'1','8','3',0,[
]).
text('black',282,581,1,1,1,82,22,667,17,5,0,0,0,0,2,82,22,0,1,"",0,0,0,0,598,'',[
minilines(82,22,0,1,1,0,0,[
mini_line(82,17,5,0,1,0,[
str_block(0,82,17,5,0,1,0,0,0,[
str_seg('black','Times-Italic',2,103680,82,17,5,0,1,0,0,0,0,0,
	"Parent_list")])
])
])]).
box('black','',228,580,336,604,0,1,1,668,0,0,0,0,0,'1',0,[
]).
arc('black','',0,1,1,0,64,688,80,704,80,720,64,704,1,32,32,-5760,-5760,736,0,0,8,3,0,0,0,'1','8','3',0,[
]).
poly('black','',2,[
	80,720,132,720],1,1,1,737,1,0,0,0,0,0,0,'1',0,0,
    "0","",[
    0,8,3,0,'8','3','0'],[0,8,3,0,'8','3','0'],[
]).
poly('black','',2,[
	416,760,116,760],1,1,1,738,1,0,0,0,0,0,0,'1',0,0,
    "0","",[
    0,8,3,0,'8','3','0'],[0,8,3,0,'8','3','0'],[
]).
arc('black','',0,1,1,0,64,760,80,776,80,760,64,776,0,32,32,5760,5760,742,0,0,8,3,0,0,0,'1','8','3',0,[
]).
poly('black','',2,[
	116,728,132,728],1,1,1,750,1,0,0,0,0,0,0,'1',0,0,
    "0","",[
    0,8,3,0,'8','3','0'],[0,8,3,0,'8','3','0'],[
]).
arc('black','',0,1,1,0,100,728,116,744,116,728,100,744,0,32,32,5760,5760,752,0,0,8,3,0,0,0,'1','8','3',0,[
]).
arc('black','',0,1,1,0,100,728,116,744,116,760,100,744,1,32,32,-5760,-5760,756,0,0,8,3,0,0,0,'1','8','3',0,[
]).
poly('black','',2,[
	112,760,80,760],1,1,1,758,1,0,0,0,0,0,0,'1',0,0,
    "0","",[
    0,8,3,0,'8','3','0'],[0,8,3,0,'8','3','0'],[
]).
poly('black','',2,[
	80,792,132,792],1,1,1,786,1,0,0,0,0,0,0,'1',0,0,
    "0","",[
    0,8,3,0,'8','3','0'],[0,8,3,0,'8','3','0'],[
]).
poly('black','',2,[
	411,832,116,832],1,1,1,787,1,0,0,0,0,0,0,'1',0,0,
    "0","",[
    0,8,3,0,'8','3','0'],[0,8,3,0,'8','3','0'],[
]).
arc('black','',0,1,1,0,395,800,411,816,411,800,427,816,1,32,32,5760,-5760,788,0,0,8,3,0,0,0,'1','8','3',0,[
]).
arc('black','',0,1,1,0,395,800,411,816,411,832,427,816,0,32,32,-5760,5760,789,0,0,8,3,0,0,0,'1','8','3',0,[
]).
arc('black','',0,1,1,0,64,832,80,848,80,832,64,848,0,32,32,5760,5760,791,0,0,8,3,0,0,0,'1','8','3',0,[
]).
poly('black','',2,[
	116,800,132,800],1,1,1,792,1,0,0,0,0,0,0,'1',0,0,
    "0","",[
    0,8,3,0,'8','3','0'],[0,8,3,0,'8','3','0'],[
]).
arc('black','',0,1,1,0,100,800,116,816,116,800,100,816,0,32,32,5760,5760,793,0,0,8,3,0,0,0,'1','8','3',0,[
]).
arc('black','',0,1,1,0,100,800,116,816,116,832,100,816,1,32,32,-5760,-5760,794,0,0,8,3,0,0,0,'1','8','3',0,[
]).
poly('black','',2,[
	112,832,80,832],1,1,1,795,1,0,0,0,0,0,0,'1',0,0,
    "0","",[
    0,8,3,0,'8','3','0'],[0,8,3,0,'8','3','0'],[
]).
arc('black','',0,1,1,0,64,760,80,776,80,792,64,776,1,32,32,-5760,-5760,798,0,0,8,3,0,0,0,'1','8','3',0,[
]).
arc('black','',0,1,1,0,64,832,80,848,80,864,64,848,1,32,32,-5760,-5760,821,0,0,8,3,0,0,0,'1','8','3',0,[
]).
poly('black','',2,[
	364,896,80,896],1,1,1,823,1,0,0,0,0,0,0,'1',0,0,
    "0","",[
    0,8,3,0,'8','3','0'],[0,8,3,0,'8','3','0'],[
]).
arc('black','',0,1,1,0,348,864,364,880,364,864,380,880,1,32,32,5760,-5760,824,0,0,8,3,0,0,0,'1','8','3',0,[
]).
arc('black','',0,1,1,0,348,864,364,880,364,896,380,880,0,32,32,-5760,5760,825,0,0,8,3,0,0,0,'1','8','3',0,[
]).
arc('black','',0,1,1,0,64,896,80,912,80,896,64,912,0,32,32,5760,5760,841,0,0,8,3,0,0,0,'1','8','3',0,[
]).
text('black',64,932,1,1,1,27,16,847,12,4,0,0,0,0,2,27,16,0,0,"",0,0,0,0,944,'',[
minilines(27,16,0,0,1,0,0,[
mini_line(27,12,4,0,0,0,[
str_block(0,27,12,4,0,0,0,0,0,[
str_seg('black','Courier-Bold',1,80640,27,12,4,0,0,0,0,0,0,0,
	"end")])
])
])]).
rcbox('black','',36,924,92,956,0,1,1,0,16,846,0,0,0,0,'1',0,[
]).
text('black',148,932,1,1,1,18,16,857,12,4,0,0,0,0,2,18,16,0,0,"",0,0,0,0,944,'',[
minilines(18,16,0,0,1,0,0,[
mini_line(18,12,4,0,0,0,[
str_block(0,18,12,4,0,-2,0,0,0,[
str_seg('black','Courier-Bold',1,80640,18,12,4,0,-2,0,0,0,0,0,
	"--")])
])
])]).
rcbox('black','',120,924,176,956,0,1,1,0,16,858,0,0,0,0,'1',0,[
]).
poly('black','',2,[
	343,972,80,972],1,1,1,873,1,0,0,0,0,0,0,'1',0,0,
    "0","",[
    0,8,3,0,'8','3','0'],[0,8,3,0,'8','3','0'],[
]).
arc('black','',0,1,1,0,327,940,343,956,343,940,359,956,1,32,32,5760,-5760,874,0,0,8,3,0,0,0,'1','8','3',0,[
]).
arc('black','',0,1,1,0,327,940,343,956,343,972,359,956,0,32,32,-5760,5760,875,0,0,8,3,0,0,0,'1','8','3',0,[
]).
arc('black','',0,1,1,0,64,972,80,988,80,972,64,988,0,32,32,5760,5760,877,0,0,8,3,0,0,0,'1','8','3',0,[
]).
poly('black','',2,[
	64,956,64,1000],1,1,1,879,1,0,0,0,0,0,0,'1',0,0,
    "0","",[
    0,8,3,0,'8','3','0'],[0,8,3,0,'8','3','0'],[
]).
arc('black','',0,1,1,0,64,432,80,448,80,464,64,448,1,32,32,-5760,-5760,893,0,0,8,3,0,0,0,'1','8','3',0,[
]).
arc('black','',0,1,1,0,64,496,80,512,80,496,64,512,0,32,32,5760,5760,895,0,0,8,3,0,0,0,'1','8','3',0,[
]).
text('black',156,184,1,1,1,72,16,1709,12,4,0,0,0,0,2,72,16,0,0,"",0,0,0,0,196,'',[
minilines(72,16,0,0,1,0,0,[
mini_line(72,12,4,0,0,0,[
str_block(0,72,12,4,0,0,0,0,0,[
str_seg('black','Courier-Bold',1,80640,72,12,4,0,0,0,0,0,0,0,
	"indexing")])
])
])]).
rcbox('black','',104,176,208,208,0,1,1,0,16,1708,0,0,0,0,'1',0,[
]).
text('black',288,181,1,1,1,74,22,1717,17,5,0,0,0,0,2,74,22,0,1,"",0,0,0,0,198,'',[
minilines(74,22,0,1,1,0,0,[
mini_line(74,17,5,0,1,0,[
str_block(0,74,17,5,0,1,0,0,0,[
str_seg('black','Times-Italic',2,103680,74,17,5,0,1,0,0,0,0,0,
	"Index_list")])
])
])]).
box('black','',236,180,340,204,0,1,1,1718,0,0,0,0,0,'1',0,[
]).
poly('black','',2,[
	76,192,104,192],1,1,1,1722,1,0,0,0,0,0,0,'1',0,0,
    "0","",[
    0,8,3,0,'8','3','0'],[0,8,3,0,'8','3','0'],[
]).
arc('black','',0,1,1,0,64,160,80,176,80,192,64,176,1,32,32,-5760,-5760,1723,0,0,8,3,0,0,0,'1','8','3',0,[
]).
poly('black','',2,[
	364,224,76,224],1,1,1,1729,1,0,0,0,0,0,0,'1',0,0,
    "0","",[
    0,8,3,0,'8','3','0'],[0,8,3,0,'8','3','0'],[
]).
arc('black','',0,1,1,0,348,192,364,208,364,192,380,208,1,32,32,5760,-5760,1730,0,0,8,3,0,0,0,'1','8','3',0,[
]).
arc('black','',0,1,1,0,348,192,364,208,364,224,380,208,0,32,32,-5760,5760,1731,0,0,8,3,0,0,0,'1','8','3',0,[
]).
arc('black','',0,1,1,0,64,224,80,240,80,224,64,240,0,32,32,5760,5760,1733,0,0,8,3,0,0,0,'1','8','3',0,[
]).
poly('black','',2,[
	208,192,236,192],1,1,1,3620,1,0,0,0,0,0,0,'1',0,0,
    "0","",[
    0,8,3,0,'8','3','0'],[0,8,3,0,'8','3','0'],[
]).
poly('black','',2,[
	340,192,368,192],1,1,1,3626,1,0,0,0,0,0,0,'1',0,0,
    "0","",[
    0,8,3,0,'8','3','0'],[0,8,3,0,'8','3','0'],[
]).
poly('black','',2,[
	104,400,132,400],1,1,1,3632,1,0,0,0,0,0,0,'1',0,0,
    "0","",[
    0,8,3,0,'8','3','0'],[0,8,3,0,'8','3','0'],[
]).
poly('black','',2,[
	252,400,280,400],1,1,1,3637,1,0,0,0,0,0,0,'1',0,0,
    "0","",[
    0,8,3,0,'8','3','0'],[0,8,3,0,'8','3','0'],[
]).
poly('black','',2,[
	80,464,108,464],1,1,1,3647,1,0,0,0,0,0,0,'1',0,0,
    "0","",[
    0,8,3,0,'8','3','0'],[0,8,3,0,'8','3','0'],[
]).
poly('black','',2,[
	144,464,172,464],1,1,1,3648,1,0,0,0,0,0,0,'1',0,0,
    "0","",[
    0,8,3,0,'8','3','0'],[0,8,3,0,'8','3','0'],[
]).
poly('black','',2,[
	360,464,388,464],1,1,1,3649,1,0,0,0,0,0,0,'1',0,0,
    "0","",[
    0,8,3,0,'8','3','0'],[0,8,3,0,'8','3','0'],[
]).
poly('black','',2,[
	424,464,452,464],1,1,1,3650,1,0,0,0,0,0,0,'1',0,0,
    "0","",[
    0,8,3,0,'8','3','0'],[0,8,3,0,'8','3','0'],[
]).
text('black',126,456,1,1,1,9,16,230,12,4,0,0,0,0,2,9,16,0,0,"",0,0,0,0,468,'',[
minilines(9,16,0,0,1,0,0,[
mini_line(9,12,4,0,0,0,[
str_block(0,9,12,4,0,-2,0,0,0,[
str_seg('black','Courier-Bold',1,80640,9,12,4,0,-2,0,0,0,0,0,
	"[")])
])
])]).
rcbox('black','',108,448,144,480,0,1,1,0,16,229,0,0,0,0,'1',0,[
]).
poly('black','',2,[
	80,528,108,528],1,1,1,3658,1,0,0,0,0,0,0,'1',0,0,
    "0","",[
    0,8,3,0,'8','3','0'],[0,8,3,0,'8','3','0'],[
]).
poly('black','',2,[
	208,528,236,528],1,1,1,3659,1,0,0,0,0,0,0,'1',0,0,
    "0","",[
    0,8,3,0,'8','3','0'],[0,8,3,0,'8','3','0'],[
]).
poly('black','',2,[
	388,528,416,528],1,1,1,3660,1,0,0,0,0,0,0,'1',0,0,
    "0","",[
    0,8,3,0,'8','3','0'],[0,8,3,0,'8','3','0'],[
]).
text('black',312,516,1,1,1,118,22,620,17,5,0,0,0,0,2,118,22,0,1,"",0,0,0,0,533,'',[
minilines(118,22,0,1,1,0,0,[
mini_line(118,17,5,0,1,0,[
str_block(0,118,17,5,0,1,0,0,0,[
str_seg('black','Times-Italic',2,103680,118,17,5,0,1,0,0,0,0,0,
	"Manifest_string")])
])
])]).
box('black','',236,515,388,539,0,1,1,619,0,0,0,0,0,'1',0,[
]).
poly('black','',2,[
	80,592,108,592],1,1,1,3669,1,0,0,0,0,0,0,'1',0,0,
    "0","",[
    0,8,3,0,'8','3','0'],[0,8,3,0,'8','3','0'],[
]).
poly('black','',2,[
	200,592,228,592],1,1,1,3670,1,0,0,0,0,0,0,'1',0,0,
    "0","",[
    0,8,3,0,'8','3','0'],[0,8,3,0,'8','3','0'],[
]).
poly('black','',2,[
	336,592,364,592],1,1,1,3671,1,0,0,0,0,0,0,'1',0,0,
    "0","",[
    0,8,3,0,'8','3','0'],[0,8,3,0,'8','3','0'],[
]).
text('black',154,584,1,1,1,63,16,666,12,4,0,0,0,0,2,63,16,0,0,"",0,0,0,0,596,'',[
minilines(63,16,0,0,1,0,0,[
mini_line(63,12,4,0,0,0,[
str_block(0,63,12,4,0,-1,0,0,0,[
str_seg('black','Courier-Bold',1,80640,63,12,4,0,-1,0,0,0,0,0,
	"inherit")])
])
])]).
rcbox('black','',108,576,200,608,0,1,1,0,16,665,0,0,0,0,'1',0,[
]).
text('black',148,648,1,1,1,54,16,700,12,4,0,0,0,0,2,54,16,0,0,"",0,0,0,0,660,'',[
minilines(54,16,0,0,1,0,0,[
mini_line(54,12,4,0,0,0,[
str_block(0,54,12,4,0,-1,0,0,0,[
str_seg('black','Courier-Bold',1,80640,54,12,4,0,-1,0,0,0,0,0,
	"insert")])
])
])]).
rcbox('black','',108,640,188,672,0,1,1,0,16,701,0,0,0,0,'1',0,[
]).
text('black',270,645,1,1,1,82,22,702,17,5,0,0,0,0,2,82,22,0,1,"",0,0,0,0,662,'',[
minilines(82,22,0,1,1,0,0,[
mini_line(82,17,5,0,1,0,[
str_block(0,82,17,5,0,1,0,0,0,[
str_seg('black','Times-Italic',2,103680,82,17,5,0,1,0,0,0,0,0,
	"Parent_list")])
])
])]).
box('black','',216,644,324,668,0,1,1,703,0,0,0,0,0,'1',0,[
]).
poly('black','',2,[
	80,656,108,656],1,1,1,3686,1,0,0,0,0,0,0,'1',0,0,
    "0","",[
    0,8,3,0,'8','3','0'],[0,8,3,0,'8','3','0'],[
]).
poly('black','',2,[
	188,656,216,656],1,1,1,3687,1,0,0,0,0,0,0,'1',0,0,
    "0","",[
    0,8,3,0,'8','3','0'],[0,8,3,0,'8','3','0'],[
]).
poly('black','',2,[
	324,656,353,656],1,1,1,3688,1,0,0,0,0,0,0,'1',0,0,
    "0","",[
    0,8,3,0,'8','3','0'],[0,8,3,0,'8','3','0'],[
]).
poly('black','',2,[
	212,728,240,728],1,1,1,3693,1,0,0,0,0,0,0,'1',0,0,
    "0","",[
    0,8,3,0,'8','3','0'],[0,8,3,0,'8','3','0'],[
]).
poly('black','',2,[
	391,728,419,728],1,1,1,3694,1,0,0,0,0,0,0,'1',0,0,
    "0","",[
    0,8,3,0,'8','3','0'],[0,8,3,0,'8','3','0'],[
]).
text('black',172,720,1,1,1,54,16,731,12,4,0,0,0,0,2,54,16,0,0,"",0,0,0,0,732,'',[
minilines(54,16,0,0,1,0,0,[
mini_line(54,12,4,0,0,0,[
str_block(0,54,12,4,0,-1,0,0,0,[
str_seg('black','Courier-Bold',1,80640,54,12,4,0,-1,0,0,0,0,0,
	"create")])
])
])]).
rcbox('black','',132,712,212,744,0,1,1,0,16,732,0,0,0,0,'1',0,[
]).
text('black',315,716,1,1,1,122,22,733,17,5,0,0,0,0,2,122,22,0,0,"",0,0,0,0,733,'',[
minilines(122,22,0,0,1,0,0,[
mini_line(122,17,5,0,0,0,[
str_block(0,122,17,5,0,0,0,0,0,[
str_seg('black','Times-Italic',2,103680,122,17,5,0,0,0,0,0,0,0,
	"Creation_clause")])
])
])]).
box('black','',239,715,391,739,0,1,1,734,0,0,0,0,0,'1',0,[
]).
arc('black','',0,1,1,0,400,728,416,744,416,728,432,744,1,32,32,5760,-5760,3706,0,0,8,3,0,0,0,'1','8','3',0,[
]).
arc('black','',0,1,1,0,400,728,416,744,416,760,432,744,0,32,32,-5760,5760,3707,0,0,8,3,0,0,0,'1','8','3',0,[
]).
poly('black','',2,[
	217,800,245,800],1,1,1,3713,1,0,0,0,0,0,0,'1',0,0,
    "0","",[
    0,8,3,0,'8','3','0'],[0,8,3,0,'8','3','0'],[
]).
poly('black','',2,[
	384,800,412,800],1,1,1,3714,1,0,0,0,0,0,0,'1',0,0,
    "0","",[
    0,8,3,0,'8','3','0'],[0,8,3,0,'8','3','0'],[
]).
text('black',174,792,1,1,1,63,16,781,12,4,0,0,0,0,2,63,16,0,0,"",0,0,0,0,804,'',[
minilines(63,16,0,0,1,0,0,[
mini_line(63,12,4,0,0,0,[
str_block(0,63,12,4,0,-1,0,0,0,[
str_seg('black','Courier-Bold',1,80640,63,12,4,0,-1,0,0,0,0,0,
	"feature")])
])
])]).
rcbox('black','',132,784,217,816,0,1,1,0,16,782,0,0,0,0,'1',0,[
]).
text('black',314,788,1,1,1,114,22,783,17,5,0,0,0,0,2,114,22,0,0,"",0,0,0,0,805,'',[
minilines(114,22,0,0,1,0,0,[
mini_line(114,17,5,0,0,0,[
str_block(0,114,17,5,0,0,0,0,0,[
str_seg('black','Times-Italic',2,103680,114,17,5,0,0,0,0,0,0,0,
	"Feature_clause")])
])
])]).
box('black','',244,787,384,811,0,1,1,784,0,0,0,0,0,'1',0,[
]).
poly('black','',2,[
	80,864,108,864],1,1,1,3726,1,0,0,0,0,0,0,'1',0,0,
    "0","",[
    0,8,3,0,'8','3','0'],[0,8,3,0,'8','3','0'],[
]).
poly('black','',2,[
	217,864,245,864],1,1,1,3727,1,0,0,0,0,0,0,'1',0,0,
    "0","",[
    0,8,3,0,'8','3','0'],[0,8,3,0,'8','3','0'],[
]).
poly('black','',2,[
	336,864,364,864],1,1,1,3728,1,0,0,0,0,0,0,'1',0,0,
    "0","",[
    0,8,3,0,'8','3','0'],[0,8,3,0,'8','3','0'],[
]).
text('black',162,856,1,1,1,81,16,818,12,4,0,0,0,0,2,81,16,0,0,"",0,0,0,0,868,'',[
minilines(81,16,0,0,1,0,0,[
mini_line(81,12,4,0,0,0,[
str_block(0,81,12,4,0,-1,0,0,0,[
str_seg('black','Courier-Bold',1,80640,81,12,4,0,-1,0,0,0,0,0,
	"invariant")])
])
])]).
rcbox('black','',108,848,217,880,0,1,1,0,16,819,0,0,0,0,'1',0,[
]).
text('black',290,853,1,1,1,70,22,829,17,5,0,0,0,0,2,70,22,0,0,"",0,0,0,0,870,'',[
minilines(70,22,0,0,1,0,0,[
mini_line(70,17,5,0,0,0,[
str_block(0,70,17,5,0,0,0,0,0,[
str_seg('black','Times-Italic',2,103680,70,17,5,0,0,0,0,0,0,0,
	"Assertion")])
])
])]).
box('black','',245,852,335,876,0,1,1,828,0,0,0,0,0,'1',0,[
]).
poly('black','',2,[
	92,940,120,940],1,1,1,3741,1,0,0,0,0,0,0,'1',0,0,
    "0","",[
    0,8,3,0,'8','3','0'],[0,8,3,0,'8','3','0'],[
]).
poly('black','',2,[
	176,940,204,940],1,1,1,3742,1,0,0,0,0,0,0,'1',0,0,
    "0","",[
    0,8,3,0,'8','3','0'],[0,8,3,0,'8','3','0'],[
]).
poly('black','',2,[
	315,940,343,940],1,1,1,3743,1,0,0,0,0,0,0,'1',0,0,
    "0","",[
    0,8,3,0,'8','3','0'],[0,8,3,0,'8','3','0'],[
]).
text('black',259,928,1,1,1,95,22,862,17,5,0,0,0,0,2,95,22,0,0,"",0,0,0,0,945,'',[
minilines(95,22,0,0,1,0,0,[
mini_line(95,17,5,0,0,0,[
str_block(0,95,17,5,0,0,0,0,0,[
str_seg('black','Times-Italic',2,103680,95,17,5,0,0,0,0,0,0,0,
	"Class_name")])
])
])]).
box('black','',204,927,315,951,0,1,1,863,0,0,0,0,0,'1',0,[
]).
