%TGIF 4.1.43-QPL
state(0,37,100.000,0,20,1,4,1,9,2,2,0,0,0,0,1,0,'Courier-Oblique',2,69120,0,0,0,10,0,1,1,1,0,16,0,0,1,1,1,1,1088,1408,1,0,2880,0).
%
% @(#)$Header$
% %W%
%
unit("1 pixel/pixel").
color_info(11,65535,0,[
	"magenta", 65535, 0, 65535, 65535, 0, 65535, 1,
	"red", 65535, 0, 0, 65535, 0, 0, 1,
	"green", 0, 65535, 0, 0, 65535, 0, 1,
	"blue", 0, 0, 65535, 0, 0, 65535, 1,
	"yellow", 65535, 65535, 0, 65535, 65535, 0, 1,
	"pink", 65535, 49344, 52171, 65535, 49344, 52171, 1,
	"cyan", 0, 65535, 65535, 0, 65535, 65535, 1,
	"CadetBlue", 24415, 40606, 41120, 24415, 40606, 41120, 1,
	"white", 65535, 65535, 65535, 65535, 65535, 65535, 1,
	"black", 0, 0, 0, 0, 0, 0, 1,
	"DarkSlateGray", 12079, 20303, 20303, 12079, 20303, 20303, 1
]).
script_frac("0.6").
fg_bg_colors('black','white').
dont_reencode("FFDingbests:ZapfDingbats").
page(1,"",1,'').
text('black',88,175,1,0,1,45,16,0,13,3,0,0,0,0,2,45,16,0,0,"",0,0,0,0,188,'',[
minilines(45,16,0,0,0,0,0,[
mini_line(45,13,3,0,0,0,[
str_block(0,45,13,3,0,-1,0,0,0,[
str_seg('black','Courier',0,80640,45,13,3,0,-1,0,0,0,0,0,
	"STACK")])
])
])]).
box('black','',84,172,148,196,0,1,1,2,0,0,0,0,0,'1',0,[
]).
text('black',100,35,1,0,1,162,16,10,13,3,0,0,0,0,2,162,16,0,0,"",0,0,0,0,48,'',[
minilines(162,16,0,0,0,0,0,[
mini_line(162,13,3,0,0,0,[
str_block(0,162,13,3,0,-1,0,0,0,[
str_seg('black','Courier',0,80640,162,13,3,0,-1,0,0,0,0,0,
	"ARRAYED_COLLECTION")])
])
])]).
box('black','',96,32,300,56,0,1,1,11,0,0,0,0,0,'1',0,[
]).
text('black',88,103,1,0,1,45,16,16,13,3,0,0,0,0,2,45,16,0,0,"",0,0,0,0,116,'',[
minilines(45,16,0,0,0,0,0,[
mini_line(45,13,3,0,0,0,[
str_block(0,45,13,3,0,-1,0,0,0,[
str_seg('black','Courier',0,80640,45,13,3,0,-1,0,0,0,0,0,
	"ARRAY")])
])
])]).
box('black','',84,100,148,124,0,1,1,17,0,0,0,0,0,'1',0,[
]).
text('black',216,175,1,0,1,45,16,25,13,3,0,0,0,0,2,45,16,0,0,"",0,0,0,0,188,'',[
minilines(45,16,0,0,0,0,0,[
mini_line(45,13,3,0,0,0,[
str_block(0,45,13,3,0,-1,0,0,0,[
str_seg('black','Courier',0,80640,45,13,3,0,-1,0,0,0,0,0,
	"QUEUE")])
])
])]).
box('black','',212,172,276,196,0,1,1,26,0,0,0,0,0,'1',0,[
]).
text('black',188,103,1,0,1,90,16,27,13,3,0,0,0,0,2,90,16,0,0,"",0,0,0,0,116,'',[
minilines(90,16,0,0,0,0,0,[
mini_line(90,13,3,0,0,0,[
str_block(0,90,13,3,0,-1,0,0,0,[
str_seg('black','Courier',0,80640,90,13,3,0,-1,0,0,0,0,0,
	"RING_ARRAY")])
])
])]).
box('black','',184,100,300,124,0,1,1,28,0,0,0,0,0,'1',0,[
]).
poly('black','',2,[
	242,172,242,124],1,1,1,40,0,0,0,0,0,0,0,'1',0,0,
    "0","",[
    0,8,3,0,'8','3','0'],[0,8,3,0,'8','3','0'],[
]).
poly('black','',2,[
	114,172,114,124],1,1,1,41,0,0,0,0,0,0,0,'1',0,0,
    "0","",[
    0,8,3,0,'8','3','0'],[0,8,3,0,'8','3','0'],[
]).
poly('black','',2,[
	240,100,208,56],1,1,1,43,0,0,0,0,0,0,0,'1',0,0,
    "0","",[
    0,8,3,0,'8','3','0'],[0,8,3,0,'8','3','0'],[
]).
poly('black','',2,[
	116,100,160,56],1,1,1,44,0,0,0,0,0,0,0,'1',0,0,
    "0","",[
    0,8,3,0,'8','3','0'],[0,8,3,0,'8','3','0'],[
]).
poly('black','',4,[
	108,138,108,142,120,142,120,138],0,1,1,55,0,0,0,0,0,0,0,'1',0,0,
    "0","",[
    0,8,3,0,'8','3','0'],[0,8,3,0,'8','3','0'],[
]).
poly('black','',4,[
	236,138,236,142,248,142,248,138],0,1,1,70,0,0,0,0,0,0,0,'1',0,0,
    "0","",[
    0,8,3,0,'8','3','0'],[0,8,3,0,'8','3','0'],[
]).
text('black',320,45,1,0,1,42,14,71,11,3,0,0,0,0,2,42,14,0,1,"",0,0,0,0,56,'',[
minilines(42,14,0,1,0,0,0,[
mini_line(42,11,3,0,1,0,[
str_block(0,42,11,3,0,1,0,0,0,[
str_seg('black','Courier-Oblique',2,69120,42,11,3,0,1,0,0,0,0,0,
	"Legend")])
])
])]).
poly('black','',4,[
	328,138,328,142,316,142,316,138],0,1,1,76,0,0,0,0,0,0,0,'1',0,0,
    "0","",[
    0,8,3,0,'8','3','0'],[0,8,3,0,'8','3','0'],[
]).
poly('black','',2,[
	322,156,322,124],1,1,1,79,0,0,0,0,0,0,0,'1',0,0,
    "0","",[
    0,8,3,0,'8','3','0'],[0,8,3,0,'8','3','0'],[
]).
poly('black','',2,[
	322,104,322,72],1,1,1,86,0,0,0,0,0,0,0,'1',0,0,
    "0","",[
    0,8,3,0,'8','3','0'],[0,8,3,0,'8','3','0'],[
]).
text('black',336,73,2,0,1,112,28,88,11,3,0,0,0,0,2,112,28,0,0,"",0,0,0,0,84,'',[
minilines(112,28,0,0,0,0,0,[
mini_line(77,11,3,0,0,0,[
str_block(0,77,11,3,0,-6,0,0,0,[
str_seg('black','Courier-Oblique',2,69120,77,11,3,0,-6,0,0,0,0,0,
	"Conforming ")])
]),
mini_line(112,11,3,0,0,0,[
str_block(0,112,11,3,0,0,0,0,0,[
str_seg('black','Courier-Oblique',2,69120,112,11,3,0,0,0,0,0,0,0,
	"Inheritance link")])
])
])]).
text('black',336,129,2,0,1,112,28,90,11,3,0,0,0,0,2,112,28,-1,0,"",0,0,0,0,140,'',[
minilines(112,28,-1,0,0,0,0,[
mini_line(105,11,3,-1,0,0,[
str_block(0,105,11,3,-1,-6,0,0,0,[
str_seg('black','Courier-Oblique',2,69120,105,11,3,-1,-6,0,0,0,0,0,
	"Non-Conforming ")])
]),
mini_line(112,11,3,0,0,0,[
str_block(0,112,11,3,0,0,0,0,0,[
str_seg('black','Courier-Oblique',2,69120,112,11,3,0,0,0,0,0,0,0,
	"Inheritance link")])
])
])]).
text('black',488,37,1,0,1,7,14,106,11,3,0,0,0,0,2,7,14,0,0,"",0,0,0,0,48,'',[
minilines(7,14,0,0,0,0,0,[
mini_line(7,11,3,0,0,0,[
str_block(0,7,11,3,0,-6,0,0,0,[
str_seg('black','Courier-Oblique',2,69120,7,11,3,0,-6,0,0,0,0,0,
	" ")])
])
])]).
