%TGIF 4.1.43-QPL
state(0,37,100.000,0,88,0,4,0,9,2,2,0,1,0,0,1,0,'Times-Bold',1,103680,0,0,0,10,0,0,1,1,0,16,0,0,1,1,1,1,1088,1408,1,0,2880,0).
%
% @(#)$Header$
% %W%
%
unit("1 pixel/pixel").
color_info(11,65535,0,[
	"magenta", 65535, 0, 65535, 65535, 0, 65535, 1,
	"red", 65535, 0, 0, 65535, 0, 0, 1,
	"green", 0, 65535, 0, 0, 65535, 0, 1,
	"blue", 0, 0, 65535, 0, 0, 65535, 1,
	"yellow", 65535, 65535, 0, 65535, 65535, 0, 1,
	"pink", 65535, 49344, 52171, 65535, 49344, 52171, 1,
	"cyan", 0, 65535, 65535, 0, 65535, 65535, 1,
	"CadetBlue", 24415, 40606, 41120, 24415, 40606, 41120, 1,
	"white", 65535, 65535, 65535, 65535, 65535, 65535, 1,
	"black", 0, 0, 0, 0, 0, 0, 1,
	"DarkSlateGray", 12079, 20303, 20303, 12079, 20303, 20303, 1
]).
script_frac("0.6").
fg_bg_colors('black','white').
dont_reencode("FFDingbests:ZapfDingbats").
page(1,"",1,'').
box('blue','',66,128,886,635,0,1,1,22354,5,0,0,0,0,'1',0,[
]).
text('black',701,259,1,1,1,30,22,7363,17,5,0,0,0,0,2,32,22,0,0,"",0,1,0,0,277,'',[
	701,259,685,259,717,281,923.077,0,0,1000,-2,0,684,258,718,282],[
minilines(32,22,0,0,1,0,0,[
mini_line(32,17,5,0,0,0,[
str_block(0,32,17,5,0,0,0,0,0,[
str_seg('black','Times-Italic',2,103680,32,17,5,0,0,0,0,0,0,0,
	"Call")])
])
])]).
box('black','',678,258,721,282,0,1,1,7362,0,0,0,0,0,'1',0,[
]).
text('black',122,141,1,1,1,76,22,7361,17,5,0,0,0,0,2,82,22,0,0,"",0,1,0,0,159,'',[
	122,141,81,141,163,163,923.077,0,0,1000,-2,0,80,140,164,164],[
minilines(82,22,0,0,1,0,0,[
mini_line(82,17,5,0,0,0,[
str_block(0,82,17,5,0,0,0,0,0,[
str_seg('black','Times-Italic',2,103680,82,17,5,0,0,0,0,0,0,0,
	"Expression")])
])
])]).
poly('black','',2,[
	89,162,89,589],1,1,1,7336,1,0,0,0,0,0,0,'1',0,0,
    "0","",[
    0,8,3,0,'8','3','0'],[0,8,3,0,'8','3','0'],[
]).
text('black',186,189,1,1,1,109,22,7396,17,5,0,0,0,0,2,119,22,0,1,"",0,1,0,0,207,'',[
	186,189,127,189,246,211,923.077,0,0,1000,-2,0,126,188,248,212],[
minilines(119,22,0,1,1,0,0,[
mini_line(119,17,5,0,1,0,[
str_block(0,119,17,5,0,1,0,0,0,[
str_seg('black','Times-Italic',2,103680,119,17,5,0,1,0,0,0,0,0,
	"Unary_operator")])
])
])]).
box('black','',124,188,249,212,0,1,1,7397,0,0,0,0,0,'1',0,[
]).
arc('black','',0,1,1,0,89,172,105,188,105,172,89,188,0,32,32,5760,5760,7408,0,0,8,3,0,0,0,'1','8','3',0,[
]).
arc('black','',0,1,1,0,108,172,124,188,124,172,140,188,1,32,32,5760,-5760,7409,0,0,8,3,0,0,0,'1','8','3',0,[
]).
poly('black','',2,[
	124,172,105,172],1,1,1,7417,1,0,0,0,0,0,0,'1',0,0,
    "0","",[
    0,8,3,0,'8','3','0'],[0,8,3,0,'8','3','0'],[
]).
poly('black','',2,[
	105,205,123,205],1,1,1,7420,1,0,0,0,0,0,0,'1',0,0,
    "0","",[
    0,8,3,0,'8','3','0'],[0,8,3,0,'8','3','0'],[
]).
text('black',198,340,1,1,1,127,22,22394,17,5,0,0,0,0,2,137,22,0,0,"",0,1,0,0,358,'',[
	198,340,130,340,267,362,923.077,0,0,1000,-2,0,129,339,268,363],[
minilines(137,22,0,0,1,0,0,[
mini_line(137,17,5,0,0,0,[
str_block(0,137,17,5,0,0,0,0,0,[
str_seg('black','Times-Italic',2,103680,137,17,5,0,0,0,0,0,0,0,
	"Create_expression")])
])
])]).
box('black','',124,339,269,363,0,1,1,22395,0,0,0,0,0,'1',0,[
]).
poly('black','',2,[
	105,319,180,319],1,1,1,22396,1,0,0,0,0,0,0,'1',0,0,
    "0","",[
    0,8,3,0,'8','3','0'],[0,8,3,0,'8','3','0'],[
]).
arc('black','',0,1,1,0,89,287,105,303,105,319,89,303,1,32,32,-5760,-5760,22397,0,0,8,3,0,0,0,'1','8','3',0,[
]).
poly('black','',2,[
	141,238,215,238],1,1,1,7562,1,0,0,0,0,0,0,'1',0,0,
    "0","",[
    0,8,3,0,'8','3','0'],[0,8,3,0,'8','3','0'],[
]).
poly('black','',2,[
	105,238,140,238],1,1,1,22503,1,0,0,0,0,0,0,'1',0,0,
    "0","",[
    0,8,3,0,'8','3','0'],[0,8,3,0,'8','3','0'],[
]).
arc('black','',0,1,1,0,89,206,105,222,105,238,89,222,1,32,32,-5760,-5760,22505,0,0,8,3,0,0,0,'1','8','3',0,[
]).
text('black',590,259,1,1,1,129,22,7552,17,5,0,0,0,0,2,139,22,0,0,"",0,1,0,0,277,'',[
	590,259,521,259,660,281,923.077,0,0,1000,-2,0,520,258,661,282],[
minilines(139,22,0,0,1,0,0,[
mini_line(139,17,5,0,0,0,[
str_block(0,139,17,5,0,0,0,0,0,[
str_seg('black','Times-Italic',2,103680,139,17,5,0,0,0,0,0,0,0,
	"Manifest_notation")])
])
])]).
box('black','',514,258,663,282,0,1,1,7553,0,0,0,0,0,'1',0,[
]).
text('black',232,259,1,1,1,43,22,22496,17,5,0,0,0,0,2,47,22,0,1,"",0,1,0,0,277,'',[
	232,259,209,259,256,281,923.077,0,0,1000,-2,0,208,258,258,282],[
minilines(47,22,0,1,1,0,0,[
mini_line(47,17,5,0,1,0,[
str_block(0,47,17,5,0,1,0,0,0,[
str_seg('black','Times-Italic',2,103680,47,17,5,0,1,0,0,0,0,0,
	"Result")])
])
])]).
box('black','',203,258,260,282,0,1,1,22497,0,0,0,0,0,'1',0,[
]).
text('black',157,259,1,1,1,52,22,22501,17,5,0,0,0,0,2,56,22,0,1,"",0,1,0,0,277,'',[
	157,259,129,259,185,281,923.077,0,0,1000,-2,0,128,258,187,282],[
minilines(56,22,0,1,1,0,0,[
mini_line(56,17,5,0,1,0,[
str_block(0,56,17,5,0,1,0,0,0,[
str_seg('black','Times-Italic',2,103680,56,17,5,0,1,0,0,0,0,0,
	"Current")])
])
])]).
box('black','',124,258,188,282,0,1,1,22502,0,0,0,0,0,'1',0,[
]).
poly('black','',2,[
	156,282,156,301],1,1,1,22504,1,0,0,0,0,0,0,'1',0,0,
    "0","",[
    0,8,3,0,'8','3','0'],[0,8,3,0,'8','3','0'],[
]).
poly('black','',2,[
	231,282,231,301],1,1,1,22599,1,0,0,0,0,0,0,'1',0,0,
    "0","",[
    0,8,3,0,'8','3','0'],[0,8,3,0,'8','3','0'],[
]).
text('black',464,262,1,1,1,45,16,22604,12,4,0,0,0,0,2,45,16,0,0,"",0,0,0,0,274,'',[
minilines(45,16,0,0,1,0,0,[
mini_line(45,12,4,0,0,0,[
str_block(0,45,12,4,0,-1,0,0,0,[
str_seg('black','Courier-Bold',1,80640,45,12,4,0,-1,0,0,0,0,0,
	"False")])
])
])]).
rcbox('black','',429,254,499,286,0,1,1,0,16,22605,0,0,0,0,'1',0,[
]).
poly('black','',2,[
	464,286,464,301],1,1,1,22617,1,0,0,0,0,0,0,'1',0,0,
    "0","",[
    0,8,3,0,'8','3','0'],[0,8,3,0,'8','3','0'],[
]).
text('black',380,262,1,1,1,36,16,22611,12,4,0,0,0,0,2,36,16,0,0,"",0,0,0,0,274,'',[
minilines(36,16,0,0,1,0,0,[
mini_line(36,12,4,0,0,0,[
str_block(0,36,12,4,0,-1,0,0,0,[
str_seg('black','Courier-Bold',1,80640,36,12,4,0,-1,0,0,0,0,0,
	"True")])
])
])]).
rcbox('black','',347,254,414,286,0,1,1,0,16,22612,0,0,0,0,'1',0,[
]).
poly('black','',2,[
	380,286,380,301],1,1,1,22615,1,0,0,0,0,0,0,'1',0,0,
    "0","",[
    0,8,3,0,'8','3','0'],[0,8,3,0,'8','3','0'],[
]).
text('black',304,259,1,1,1,33,22,22630,17,5,0,0,0,0,2,35,22,0,0,"",0,1,0,0,277,'',[
	304,259,287,259,322,281,923.077,0,0,1000,-2,0,286,258,323,282],[
minilines(35,22,0,0,1,0,0,[
mini_line(35,17,5,0,0,0,[
str_block(0,35,17,5,0,0,0,0,0,[
str_seg('black','Times-Italic',2,103680,35,17,5,0,0,0,0,0,0,0,
	"Void")])
])
])]).
box('black','',275,258,332,282,0,1,1,22631,0,0,0,0,0,'1',0,[
]).
poly('black','',2,[
	303,282,303,301],1,1,1,22632,1,0,0,0,0,0,0,'1',0,0,
    "0","",[
    0,8,3,0,'8','3','0'],[0,8,3,0,'8','3','0'],[
]).
poly('black','',2,[
	588,282,588,301],1,1,1,22635,1,0,0,0,0,0,0,'1',0,0,
    "0","",[
    0,8,3,0,'8','3','0'],[0,8,3,0,'8','3','0'],[
]).
arc('black','',0,1,1,0,348,238,364,254,364,238,380,254,1,32,32,5760,-5760,22666,0,0,8,3,0,0,0,'1','8','3',0,[
]).
arc('black','',0,1,1,0,432,238,448,254,448,238,464,254,1,32,32,5760,-5760,22690,0,0,8,3,0,0,0,'1','8','3',0,[
]).
arc('black','',0,1,1,0,270,238,286,254,286,238,302,254,1,32,32,5760,-5760,22692,0,0,8,3,0,0,0,'1','8','3',0,[
]).
poly('black','',2,[
	302,254,302,258],0,1,1,22694,1,0,0,0,0,0,0,'1',0,0,
    "0","",[
    0,8,3,0,'8','3','0'],[0,8,3,0,'8','3','0'],[
]).
arc('black','',0,1,1,0,199,238,215,254,215,238,231,254,1,32,32,5760,-5760,22700,0,0,8,3,0,0,0,'1','8','3',0,[
]).
poly('black','',2,[
	231,254,231,258],0,1,1,22701,1,0,0,0,0,0,0,'1',0,0,
    "0","",[
    0,8,3,0,'8','3','0'],[0,8,3,0,'8','3','0'],[
]).
arc('black','',0,1,1,0,667,238,683,254,683,238,699,254,1,32,32,5760,-5760,22702,0,0,8,3,0,0,0,'1','8','3',0,[
]).
poly('black','',2,[
	699,254,699,258],0,1,1,22703,1,0,0,0,0,0,0,'1',0,0,
    "0","",[
    0,8,3,0,'8','3','0'],[0,8,3,0,'8','3','0'],[
]).
arc('black','',0,1,1,0,556,238,572,254,572,238,588,254,1,32,32,5760,-5760,22704,0,0,8,3,0,0,0,'1','8','3',0,[
]).
poly('black','',2,[
	588,254,588,258],0,1,1,22705,1,0,0,0,0,0,0,'1',0,0,
    "0","",[
    0,8,3,0,'8','3','0'],[0,8,3,0,'8','3','0'],[
]).
poly('black','',2,[
	215,238,286,238],1,1,1,22710,1,0,0,0,0,0,0,'1',0,0,
    "0","",[
    0,8,3,0,'8','3','0'],[0,8,3,0,'8','3','0'],[
]).
poly('black','',2,[
	287,238,364,238],1,1,1,22712,1,0,0,0,0,0,0,'1',0,0,
    "0","",[
    0,8,3,0,'8','3','0'],[0,8,3,0,'8','3','0'],[
]).
poly('black','',2,[
	366,238,448,238],1,1,1,22714,1,0,0,0,0,0,0,'1',0,0,
    "0","",[
    0,8,3,0,'8','3','0'],[0,8,3,0,'8','3','0'],[
]).
poly('black','',2,[
	449,238,572,238],1,1,1,22716,1,0,0,0,0,0,0,'1',0,0,
    "0","",[
    0,8,3,0,'8','3','0'],[0,8,3,0,'8','3','0'],[
]).
poly('black','',2,[
	196,363,196,382],1,1,1,22721,1,0,0,0,0,0,0,'1',0,0,
    "0","",[
    0,8,3,0,'8','3','0'],[0,8,3,0,'8','3','0'],[
]).
arc('black','',0,1,1,0,124,238,140,254,140,238,156,254,1,32,32,5760,-5760,22724,0,0,8,3,0,0,0,'1','8','3',0,[
]).
poly('black','',2,[
	156,254,156,258],0,1,1,22725,1,0,0,0,0,0,0,'1',0,0,
    "0","",[
    0,8,3,0,'8','3','0'],[0,8,3,0,'8','3','0'],[
]).
poly('black','',2,[
	699,282,699,301],1,1,1,22727,1,0,0,0,0,0,0,'1',0,0,
    "0","",[
    0,8,3,0,'8','3','0'],[0,8,3,0,'8','3','0'],[
]).
arc('black','',0,1,1,0,164,319,180,335,180,319,196,335,1,32,32,5760,-5760,22731,0,0,8,3,0,0,0,'1','8','3',0,[
]).
poly('black','',2,[
	196,335,196,339],0,1,1,22732,1,0,0,0,0,0,0,'1',0,0,
    "0","",[
    0,8,3,0,'8','3','0'],[0,8,3,0,'8','3','0'],[
]).
poly('black','',2,[
	575,238,683,238],1,1,1,22734,1,0,0,0,0,0,0,'1',0,0,
    "0","",[
    0,8,3,0,'8','3','0'],[0,8,3,0,'8','3','0'],[
]).
text('black',472,340,1,1,1,104,22,22741,17,5,0,0,0,0,2,112,22,0,0,"",0,1,0,0,358,'',[
	472,340,416,340,528,362,923.077,0,0,1000,-2,0,415,339,529,363],[
minilines(112,22,0,0,1,0,0,[
mini_line(112,17,5,0,0,0,[
str_block(0,112,17,5,0,0,0,0,0,[
str_seg('black','Times-Italic',2,103680,112,17,5,0,0,0,0,0,0,0,
	"Agent_creation")])
])
])]).
box('black','',410,339,530,363,0,1,1,22742,0,0,0,0,0,'1',0,[
]).
poly('black','',2,[
	470,363,470,382],1,1,1,22743,1,0,0,0,0,0,0,'1',0,0,
    "0","",[
    0,8,3,0,'8','3','0'],[0,8,3,0,'8','3','0'],[
]).
arc('black','',0,1,1,0,438,319,454,335,454,319,470,335,1,32,32,5760,-5760,22744,0,0,8,3,0,0,0,'1','8','3',0,[
]).
poly('black','',2,[
	470,335,470,339],0,1,1,22745,1,0,0,0,0,0,0,'1',0,0,
    "0","",[
    0,8,3,0,'8','3','0'],[0,8,3,0,'8','3','0'],[
]).
poly('black','',2,[
	180,319,362,319],1,1,1,22750,1,0,0,0,0,0,0,'1',0,0,
    "0","",[
    0,8,3,0,'8','3','0'],[0,8,3,0,'8','3','0'],[
]).
text('black',171,393,1,1,1,76,22,7424,17,5,0,0,0,0,2,82,22,0,0,"",0,1,0,0,411,'',[
	171,393,130,393,212,415,923.077,0,0,1000,-2,0,129,392,213,416],[
minilines(82,22,0,0,1,0,0,[
mini_line(82,17,5,0,0,0,[
str_block(0,82,17,5,0,0,0,0,0,[
str_seg('black','Times-Italic',2,103680,82,17,5,0,0,0,0,0,0,0,
	"Expression")])
])
])]).
box('black','',124,392,215,416,0,1,1,7425,0,0,0,0,0,'1',0,[
]).
poly('black','',2,[
	105,404,123,404],1,1,1,7430,1,0,0,0,0,0,0,'1',0,0,
    "0","",[
    0,8,3,0,'8','3','0'],[0,8,3,0,'8','3','0'],[
]).
arc('black','',0,1,1,0,89,372,105,388,105,404,89,388,1,32,32,-5760,-5760,7431,0,0,8,3,0,0,0,'1','8','3',0,[
]).
text('black',307,393,1,1,1,112,22,7434,17,5,0,0,0,0,2,122,22,0,1,"",0,1,0,0,411,'',[
	307,393,246,393,368,415,923.077,0,0,1000,-2,0,245,392,370,416],[
minilines(122,22,0,1,1,0,0,[
mini_line(122,17,5,0,1,0,[
str_block(0,122,17,5,0,1,0,0,0,[
str_seg('black','Times-Italic',2,103680,122,17,5,0,1,0,0,0,0,0,
	"Binary_operator")])
])
])]).
box('black','',244,392,368,416,0,1,1,7435,0,0,0,0,0,'1',0,[
]).
poly('black','',2,[
	215,403,243,403],1,1,1,7440,1,0,0,0,0,0,0,'1',0,0,
    "0","",[
    0,8,3,0,'8','3','0'],[0,8,3,0,'8','3','0'],[
]).
poly('black','',2,[
	368,403,396,403],1,1,1,7442,1,0,0,0,0,0,0,'1',0,0,
    "0","",[
    0,8,3,0,'8','3','0'],[0,8,3,0,'8','3','0'],[
]).
text('black',444,393,1,1,1,76,22,7445,17,5,0,0,0,0,2,82,22,0,0,"",0,1,0,0,411,'',[
	444,393,403,393,485,415,923.077,0,0,1000,-2,0,402,392,486,416],[
minilines(82,22,0,0,1,0,0,[
mini_line(82,17,5,0,0,0,[
str_block(0,82,17,5,0,0,0,0,0,[
str_seg('black','Times-Italic',2,103680,82,17,5,0,0,0,0,0,0,0,
	"Expression")])
])
])]).
box('black','',397,392,488,416,0,1,1,7446,0,0,0,0,0,'1',0,[
]).
poly('black','',2,[
	488,403,507,403],1,1,1,7618,1,0,0,0,0,0,0,'1',0,0,
    "0","",[
    0,8,3,0,'8','3','0'],[0,8,3,0,'8','3','0'],[
]).
text('black',181,434,1,1,1,76,22,7457,17,5,0,0,0,0,2,82,22,0,0,"",0,1,0,0,452,'',[
	181,434,140,434,222,456,923.077,0,0,1000,-2,0,139,433,223,457],[
minilines(82,22,0,0,1,0,0,[
mini_line(82,17,5,0,0,0,[
str_block(0,82,17,5,0,0,0,0,0,[
str_seg('black','Times-Italic',2,103680,82,17,5,0,0,0,0,0,0,0,
	"Expression")])
])
])]).
box('black','',134,433,225,457,0,1,1,7458,0,0,0,0,0,'1',0,[
]).
poly('black','',2,[
	105,444,133,444],1,1,1,7459,1,0,0,0,0,0,0,'1',0,0,
    "0","",[
    0,8,3,0,'8','3','0'],[0,8,3,0,'8','3','0'],[
]).
arc('black','',0,1,1,0,89,412,105,428,105,444,89,428,1,32,32,-5760,-5760,7460,0,0,8,3,0,0,0,'1','8','3',0,[
]).
poly('black','',2,[
	225,444,253,444],1,1,1,7463,1,0,0,0,0,0,0,'1',0,0,
    "0","",[
    0,8,3,0,'8','3','0'],[0,8,3,0,'8','3','0'],[
]).
poly('black','',2,[
	316,444,344,444],1,1,1,7464,1,0,0,0,0,0,0,'1',0,0,
    "0","",[
    0,8,3,0,'8','3','0'],[0,8,3,0,'8','3','0'],[
]).
text('black',392,434,1,1,1,76,22,7465,17,5,0,0,0,0,2,82,22,0,0,"",0,1,0,0,452,'',[
	392,434,351,434,433,456,923.077,0,0,1000,-2,0,350,433,434,457],[
minilines(82,22,0,0,1,0,0,[
mini_line(82,17,5,0,0,0,[
str_block(0,82,17,5,0,0,0,0,0,[
str_seg('black','Times-Italic',2,103680,82,17,5,0,0,0,0,0,0,0,
	"Expression")])
])
])]).
box('black','',345,433,436,457,0,1,1,7466,0,0,0,0,0,'1',0,[
]).
text('black',284,437,1,1,1,9,16,7471,12,4,0,0,0,0,2,9,16,0,0,"",0,0,0,0,449,'',[
minilines(9,16,0,0,1,0,0,[
mini_line(9,12,4,0,0,0,[
str_block(0,9,12,4,0,-1,0,0,0,[
str_seg('black','Courier-Bold',1,80640,9,12,4,0,-1,0,0,0,0,0,
	"=")])
])
])]).
rcbox('black','',252,429,316,461,0,1,1,0,16,7472,0,0,0,0,'1',0,[
]).
poly('black','',2,[
	436,444,455,444],1,1,1,7620,1,0,0,0,0,0,0,'1',0,0,
    "0","",[
    0,8,3,0,'8','3','0'],[0,8,3,0,'8','3','0'],[
]).
text('black',181,474,1,1,1,76,22,7484,17,5,0,0,0,0,2,82,22,0,0,"",0,1,0,0,492,'',[
	181,474,140,474,222,496,923.077,0,0,1000,-2,0,139,473,223,497],[
minilines(82,22,0,0,1,0,0,[
mini_line(82,17,5,0,0,0,[
str_block(0,82,17,5,0,0,0,0,0,[
str_seg('black','Times-Italic',2,103680,82,17,5,0,0,0,0,0,0,0,
	"Expression")])
])
])]).
box('black','',134,473,225,497,0,1,1,7485,0,0,0,0,0,'1',0,[
]).
poly('black','',2,[
	105,484,133,484],1,1,1,7486,1,0,0,0,0,0,0,'1',0,0,
    "0","",[
    0,8,3,0,'8','3','0'],[0,8,3,0,'8','3','0'],[
]).
arc('black','',0,1,1,0,89,452,105,468,105,484,89,468,1,32,32,-5760,-5760,7487,0,0,8,3,0,0,0,'1','8','3',0,[
]).
poly('black','',2,[
	225,484,253,484],1,1,1,7488,1,0,0,0,0,0,0,'1',0,0,
    "0","",[
    0,8,3,0,'8','3','0'],[0,8,3,0,'8','3','0'],[
]).
poly('black','',2,[
	316,484,344,484],1,1,1,7489,1,0,0,0,0,0,0,'1',0,0,
    "0","",[
    0,8,3,0,'8','3','0'],[0,8,3,0,'8','3','0'],[
]).
text('black',392,474,1,1,1,76,22,7490,17,5,0,0,0,0,2,82,22,0,0,"",0,1,0,0,492,'',[
	392,474,351,474,433,496,923.077,0,0,1000,-2,0,350,473,434,497],[
minilines(82,22,0,0,1,0,0,[
mini_line(82,17,5,0,0,0,[
str_block(0,82,17,5,0,0,0,0,0,[
str_seg('black','Times-Italic',2,103680,82,17,5,0,0,0,0,0,0,0,
	"Expression")])
])
])]).
box('black','',345,473,436,497,0,1,1,7491,0,0,0,0,0,'1',0,[
]).
text('black',284,477,1,1,1,18,16,7492,12,4,0,0,0,0,2,18,16,0,0,"",0,0,0,0,489,'',[
minilines(18,16,0,0,1,0,0,[
mini_line(18,12,4,0,0,0,[
str_block(0,18,12,4,0,-1,0,0,0,[
str_seg('black','Courier-Bold',1,80640,18,12,4,0,-1,0,0,0,0,0,
	"/=")])
])
])]).
rcbox('black','',252,469,316,501,0,1,1,0,16,7493,0,0,0,0,'1',0,[
]).
poly('black','',2,[
	436,484,455,484],1,1,1,7621,1,0,0,0,0,0,0,'1',0,0,
    "0","",[
    0,8,3,0,'8','3','0'],[0,8,3,0,'8','3','0'],[
]).
text('black',181,514,1,1,1,59,22,7505,17,5,0,0,0,0,2,63,22,0,0,"",0,1,0,0,532,'',[
	181,514,150,514,213,536,923.077,0,0,1000,-2,0,149,513,214,537],[
minilines(63,22,0,0,1,0,0,[
mini_line(63,17,5,0,0,0,[
str_block(0,63,17,5,0,0,0,0,0,[
str_seg('black','Times-Italic',2,103680,63,17,5,0,0,0,0,0,0,0,
	"Writable")])
])
])]).
box('black','',134,513,225,537,0,1,1,7506,0,0,0,0,0,'1',0,[
]).
poly('black','',2,[
	105,524,133,524],1,1,1,7507,1,0,0,0,0,0,0,'1',0,0,
    "0","",[
    0,8,3,0,'8','3','0'],[0,8,3,0,'8','3','0'],[
]).
arc('black','',0,1,1,0,89,492,105,508,105,524,89,508,1,32,32,-5760,-5760,7508,0,0,8,3,0,0,0,'1','8','3',0,[
]).
poly('black','',2,[
	225,524,253,524],1,1,1,7509,1,0,0,0,0,0,0,'1',0,0,
    "0","",[
    0,8,3,0,'8','3','0'],[0,8,3,0,'8','3','0'],[
]).
poly('black','',2,[
	316,524,344,524],1,1,1,7510,1,0,0,0,0,0,0,'1',0,0,
    "0","",[
    0,8,3,0,'8','3','0'],[0,8,3,0,'8','3','0'],[
]).
text('black',392,514,1,1,1,76,22,7511,17,5,0,0,0,0,2,82,22,0,0,"",0,1,0,0,532,'',[
	392,514,351,514,433,536,923.077,0,0,1000,-2,0,350,513,434,537],[
minilines(82,22,0,0,1,0,0,[
mini_line(82,17,5,0,0,0,[
str_block(0,82,17,5,0,0,0,0,0,[
str_seg('black','Times-Italic',2,103680,82,17,5,0,0,0,0,0,0,0,
	"Expression")])
])
])]).
box('black','',345,513,436,537,0,1,1,7512,0,0,0,0,0,'1',0,[
]).
text('black',284,517,1,1,1,27,16,7513,12,4,0,0,0,0,2,27,16,0,0,"",0,0,0,0,529,'',[
minilines(27,16,0,0,1,0,0,[
mini_line(27,12,4,0,0,0,[
str_block(0,27,12,4,0,-1,0,0,0,[
str_seg('black','Courier-Bold',1,80640,27,12,4,0,-1,0,0,0,0,0,
	"?:=")])
])
])]).
rcbox('black','',252,509,316,541,0,1,1,0,16,7514,0,0,0,0,'1',0,[
]).
poly('black','',2,[
	436,524,455,524],1,1,1,7622,1,0,0,0,0,0,0,'1',0,0,
    "0","",[
    0,8,3,0,'8','3','0'],[0,8,3,0,'8','3','0'],[
]).
text('black',201,554,1,1,1,33,22,7528,17,5,0,0,0,0,2,35,22,0,0,"",0,1,0,0,572,'',[
	201,554,184,554,219,576,923.077,0,0,1000,-2,0,183,553,220,577],[
minilines(35,22,0,0,1,0,0,[
mini_line(35,17,5,0,0,0,[
str_block(0,35,17,5,0,0,0,0,0,[
str_seg('black','Times-Italic',2,103680,35,17,5,0,0,0,0,0,0,0,
	"Type")])
])
])]).
box('black','',178,553,221,577,0,1,1,7529,0,0,0,0,0,'1',0,[
]).
poly('black','',2,[
	105,564,133,564],1,1,1,7530,1,0,0,0,0,0,0,'1',0,0,
    "0","",[
    0,8,3,0,'8','3','0'],[0,8,3,0,'8','3','0'],[
]).
arc('black','',0,1,1,0,89,532,105,548,105,564,89,548,1,32,32,-5760,-5760,7531,0,0,8,3,0,0,0,'1','8','3',0,[
]).
poly('black','',2,[
	266,564,285,564],1,1,1,7532,1,0,0,0,0,0,0,'1',0,0,
    "0","",[
    0,8,3,0,'8','3','0'],[0,8,3,0,'8','3','0'],[
]).
poly('black','',2,[
	325,564,344,564],1,1,1,7533,1,0,0,0,0,0,0,'1',0,0,
    "0","",[
    0,8,3,0,'8','3','0'],[0,8,3,0,'8','3','0'],[
]).
text('black',392,554,1,1,1,76,22,7534,17,5,0,0,0,0,2,82,22,0,0,"",0,1,0,0,572,'',[
	392,554,351,554,433,576,923.077,0,0,1000,-2,0,350,553,434,577],[
minilines(82,22,0,0,1,0,0,[
mini_line(82,17,5,0,0,0,[
str_block(0,82,17,5,0,0,0,0,0,[
str_seg('black','Times-Italic',2,103680,82,17,5,0,0,0,0,0,0,0,
	"Expression")])
])
])]).
box('black','',345,553,436,577,0,1,1,7535,0,0,0,0,0,'1',0,[
]).
text('black',305,557,1,1,1,27,16,7536,12,4,0,0,0,0,2,27,16,0,0,"",0,0,0,0,569,'',[
minilines(27,16,0,0,1,0,0,[
mini_line(27,12,4,0,0,0,[
str_block(0,27,12,4,0,-1,0,0,0,[
str_seg('black','Courier-Bold',1,80640,27,12,4,0,-1,0,0,0,0,0,
	"?:=")])
])
])]).
rcbox('black','',285,549,325,581,0,1,1,0,16,7537,0,0,0,0,'1',0,[
]).
text('black',150,557,1,1,1,9,16,7587,12,4,0,0,0,0,2,9,16,0,0,"",0,0,0,0,569,'',[
minilines(9,16,0,0,1,0,0,[
mini_line(9,12,4,0,0,0,[
str_block(0,9,12,4,0,-2,0,0,0,[
str_seg('black','Courier-Bold',1,80640,9,12,4,0,-2,0,0,0,0,0,
	"{")])
])
])]).
rcbox('black','',133,549,166,581,0,1,1,0,16,7588,0,0,0,0,'1',0,[
]).
text('black',249,557,1,1,1,9,16,7592,12,4,0,0,0,0,2,9,16,0,0,"",0,0,0,0,569,'',[
minilines(9,16,0,0,1,0,0,[
mini_line(9,12,4,0,0,0,[
str_block(0,9,12,4,0,-3,0,0,0,[
str_seg('black','Courier-Bold',1,80640,9,12,4,0,-3,0,0,0,0,0,
	"}")])
])
])]).
rcbox('black','',233,549,265,581,0,1,1,0,16,7593,0,0,0,0,'1',0,[
]).
poly('black','',2,[
	166,564,178,564],0,1,1,7608,1,0,0,0,0,0,0,'1',0,0,
    "0","",[
    0,8,3,0,'8','3','0'],[0,8,3,0,'8','3','0'],[
]).
poly('black','',2,[
	221,564,233,564],0,1,1,7613,1,0,0,0,0,0,0,'1',0,0,
    "0","",[
    0,8,3,0,'8','3','0'],[0,8,3,0,'8','3','0'],[
]).
poly('black','',2,[
	436,564,455,564],1,1,1,7623,1,0,0,0,0,0,0,'1',0,0,
    "0","",[
    0,8,3,0,'8','3','0'],[0,8,3,0,'8','3','0'],[
]).
text('black',151,597,1,1,1,9,16,7359,12,4,0,0,0,0,2,9,16,0,0,"",0,0,0,0,609,'',[
minilines(9,16,0,0,1,0,0,[
mini_line(9,12,4,0,0,0,[
str_block(0,9,12,4,0,-2,0,0,0,[
str_seg('black','Courier-Bold',1,80640,9,12,4,0,-2,0,0,0,0,0,
	"(")])
])
])]).
rcbox('black','',133,589,170,621,0,1,1,0,16,7358,0,0,0,0,'1',0,[
]).
text('black',244,594,1,1,1,76,22,7354,17,5,0,0,0,0,2,82,22,0,0,"",0,1,0,0,612,'',[
	244,594,203,594,285,616,923.077,0,0,1000,-2,0,202,593,286,617],[
minilines(82,22,0,0,1,0,0,[
mini_line(82,17,5,0,0,0,[
str_block(0,82,17,5,0,0,0,0,0,[
str_seg('black','Times-Italic',2,103680,82,17,5,0,0,0,0,0,0,0,
	"Expression")])
])
])]).
box('black','',198,593,287,617,0,1,1,7353,0,0,0,0,0,'1',0,[
]).
poly('black','',2,[
	105,605,133,605],1,1,1,7350,1,0,0,0,0,0,0,'1',0,0,
    "0","",[
    0,8,3,0,'8','3','0'],[0,8,3,0,'8','3','0'],[
]).
poly('black','',2,[
	170,605,198,605],1,1,1,7349,1,0,0,0,0,0,0,'1',0,0,
    "0","",[
    0,8,3,0,'8','3','0'],[0,8,3,0,'8','3','0'],[
]).
poly('black','',2,[
	287,605,315,605],1,1,1,7344,1,0,0,0,0,0,0,'1',0,0,
    "0","",[
    0,8,3,0,'8','3','0'],[0,8,3,0,'8','3','0'],[
]).
arc('black','',0,1,1,0,89,573,105,589,105,605,89,589,1,32,32,-5760,-5760,7339,0,0,8,3,0,0,0,'1','8','3',0,[
]).
text('black',334,597,1,1,1,9,16,7542,12,4,0,0,0,0,2,9,16,0,0,"",0,0,0,0,609,'',[
minilines(9,16,0,0,1,0,0,[
mini_line(9,12,4,0,0,0,[
str_block(0,9,12,4,0,-3,0,0,0,[
str_seg('black','Courier-Bold',1,80640,9,12,4,0,-3,0,0,0,0,0,
	")")])
])
])]).
rcbox('black','',316,589,353,621,0,1,1,0,16,7543,0,0,0,0,'1',0,[
]).
poly('black','',2,[
	353,605,381,605],1,1,1,7546,1,0,0,0,0,0,0,'1',0,0,
    "0","",[
    0,8,3,0,'8','3','0'],[0,8,3,0,'8','3','0'],[
]).
text('black',641,340,1,1,1,173,22,22918,17,5,0,0,0,0,2,187,22,0,0,"",0,1,0,0,358,'',[
	641,340,548,340,735,362,923.077,0,0,1000,-2,0,547,339,736,363],[
minilines(187,22,0,0,1,0,0,[
mini_line(187,17,5,0,0,0,[
str_block(0,187,17,5,0,0,0,0,0,[
str_seg('black','Times-Italic',2,103680,187,17,5,0,0,0,0,0,0,0,
	"Open_target_or_operand")])
])
])]).
box('black','',545,339,734,363,0,1,1,22919,0,0,0,0,0,'1',0,[
]).
poly('black','',2,[
	639,363,639,382],1,1,1,22920,1,0,0,0,0,0,0,'1',0,0,
    "0","",[
    0,8,3,0,'8','3','0'],[0,8,3,0,'8','3','0'],[
]).
arc('black','',0,1,1,0,607,319,623,335,623,319,639,335,1,32,32,5760,-5760,22921,0,0,8,3,0,0,0,'1','8','3',0,[
]).
poly('black','',2,[
	639,335,639,339],0,1,1,22922,1,0,0,0,0,0,0,'1',0,0,
    "0","",[
    0,8,3,0,'8','3','0'],[0,8,3,0,'8','3','0'],[
]).
poly('black','',2,[
	455,319,623,319],1,1,1,22926,1,0,0,0,0,0,0,'1',0,0,
    "0","",[
    0,8,3,0,'8','3','0'],[0,8,3,0,'8','3','0'],[
]).
arc('black','',0,1,1,0,89,173,105,189,105,205,89,189,1,32,32,-5760,-5760,23449,0,0,8,3,0,0,0,'1','8','3',0,[
]).
text('black',810,259,1,1,1,127,22,23462,17,5,0,0,0,0,2,137,22,0,0,"",0,1,0,0,277,'',[
	810,259,742,259,879,281,923.077,0,0,1000,-2,0,741,258,880,282],[
minilines(137,22,0,0,1,0,0,[
mini_line(137,17,5,0,0,0,[
str_block(0,137,17,5,0,0,0,0,0,[
str_seg('black','Times-Italic',2,103680,137,17,5,0,0,0,0,0,0,0,
	"Create_expression")])
])
])]).
box('black','',736,258,881,282,0,1,1,23463,0,0,0,0,0,'1',0,[
]).
poly('black','',2,[
	808,282,808,301],1,1,1,23464,1,0,0,0,0,0,0,'1',0,0,
    "0","",[
    0,8,3,0,'8','3','0'],[0,8,3,0,'8','3','0'],[
]).
arc('black','',0,1,1,0,776,238,792,254,792,238,808,254,1,32,32,5760,-5760,23465,0,0,8,3,0,0,0,'1','8','3',0,[
]).
poly('black','',2,[
	808,254,808,258],0,1,1,23466,1,0,0,0,0,0,0,'1',0,0,
    "0","",[
    0,8,3,0,'8','3','0'],[0,8,3,0,'8','3','0'],[
]).
poly('black','',2,[
	683,238,792,238],1,1,1,23469,1,0,0,0,0,0,0,'1',0,0,
    "0","",[
    0,8,3,0,'8','3','0'],[0,8,3,0,'8','3','0'],[
]).
text('black',340,340,1,1,1,100,22,23483,17,5,0,0,0,0,2,108,22,0,0,"",0,1,0,0,358,'',[
	340,340,286,340,394,362,923.077,0,0,1000,-2,0,285,339,395,363],[
minilines(108,22,0,0,1,0,0,[
mini_line(108,17,5,0,0,0,[
str_block(0,108,17,5,0,0,0,0,0,[
str_seg('black','Times-Italic',2,103680,108,17,5,0,0,0,0,0,0,0,
	"Precursor_call")])
])
])]).
box('black','',284,339,395,363,0,1,1,23484,0,0,0,0,0,'1',0,[
]).
poly('black','',2,[
	378,363,378,382],1,1,1,23485,1,0,0,0,0,0,0,'1',0,0,
    "0","",[
    0,8,3,0,'8','3','0'],[0,8,3,0,'8','3','0'],[
]).
arc('black','',0,1,1,0,346,319,362,335,362,319,378,335,1,32,32,5760,-5760,23486,0,0,8,3,0,0,0,'1','8','3',0,[
]).
poly('black','',2,[
	378,335,378,339],0,1,1,23487,1,0,0,0,0,0,0,'1',0,0,
    "0","",[
    0,8,3,0,'8','3','0'],[0,8,3,0,'8','3','0'],[
]).
poly('black','',2,[
	363,319,454,319],1,1,1,23495,1,0,0,0,0,0,0,'1',0,0,
    "0","",[
    0,8,3,0,'8','3','0'],[0,8,3,0,'8','3','0'],[
]).
