%TGIF 4.1.43-QPL
state(0,37,100.000,0,0,0,4,0,9,2,2,0,1,1,0,1,0,'Times-Italic',2,103680,0,0,0,10,0,0,1,1,0,16,0,0,1,1,1,1,1088,1408,1,0,2880,0).
%
% @(#)$Header$
% %W%
%
unit("1 pixel/pixel").
color_info(11,65535,0,[
	"magenta", 65535, 0, 65535, 65535, 0, 65535, 1,
	"red", 65535, 0, 0, 65535, 0, 0, 1,
	"green", 0, 65535, 0, 0, 65535, 0, 1,
	"blue", 0, 0, 65535, 0, 0, 65535, 1,
	"yellow", 65535, 65535, 0, 65535, 65535, 0, 1,
	"pink", 65535, 49344, 52171, 65535, 49344, 52171, 1,
	"cyan", 0, 65535, 65535, 0, 65535, 65535, 1,
	"CadetBlue", 24415, 40606, 41120, 24415, 40606, 41120, 1,
	"white", 65535, 65535, 65535, 65535, 65535, 65535, 1,
	"black", 0, 0, 0, 0, 0, 0, 1,
	"DarkSlateGray", 12079, 20303, 20303, 12079, 20303, 20303, 1
]).
script_frac("0.6").
fg_bg_colors('black','white').
dont_reencode("FFDingbests:ZapfDingbats").
page(1,"",1,'').
box('blue','',20,29,840,357,0,1,1,22350,5,0,0,0,0,'1',0,[
]).
group([
arc('black','',0,1,1,0,86,77,102,93,102,109,86,93,1,32,32,-5760,-5760,2138,0,0,8,3,0,0,0,'1','8','3',0,[
]),
poly('black','',2,[
	230,141,102,141],1,1,1,2140,1,0,0,0,0,0,0,'1',0,0,
    "0","",[
    0,8,3,0,'8','3','0'],[0,8,3,0,'8','3','0'],[
]),
arc('black','',0,1,1,0,213,109,229,125,229,109,245,125,1,32,32,5760,-5760,2141,0,0,8,3,0,0,0,'1','8','3',0,[
]),
arc('black','',0,1,1,0,213,109,229,125,229,141,245,125,0,32,32,-5760,5760,2142,0,0,8,3,0,0,0,'1','8','3',0,[
]),
arc('black','',0,1,1,0,86,141,102,157,102,141,86,157,0,32,32,5760,5760,2144,0,0,8,3,0,0,0,'1','8','3',0,[
]),
poly('black','',2,[
	86,81,86,333],1,1,1,2145,1,0,0,0,0,0,0,'1',0,0,
    "0","",[
    0,8,3,0,'8','3','0'],[0,8,3,0,'8','3','0'],[
]),
text('black',46,48,1,0,1,114,22,2146,17,5,0,0,0,0,2,114,22,0,0,"",0,0,0,0,65,'',[
minilines(114,22,0,0,0,0,0,[
mini_line(114,17,5,0,0,0,[
str_block(0,114,17,5,0,0,0,0,0,[
str_seg('black','Times-Italic',2,103680,114,17,5,0,0,0,0,0,0,0,
	"Feature_clause")])
])
])]),
arc('black','',0,1,1,0,86,141,102,157,102,173,86,157,1,32,32,-5760,-5760,2150,0,0,8,3,0,0,0,'1','8','3',0,[
]),
poly('black','',2,[
	250,205,102,205],1,1,1,2152,1,0,0,0,0,0,0,'1',0,0,
    "0","",[
    0,8,3,0,'8','3','0'],[0,8,3,0,'8','3','0'],[
]),
arc('black','',0,1,1,0,234,173,250,189,250,173,266,189,1,32,32,5760,-5760,2153,0,0,8,3,0,0,0,'1','8','3',0,[
]),
arc('black','',0,1,1,0,234,173,250,189,250,205,266,189,0,32,32,-5760,5760,2154,0,0,8,3,0,0,0,'1','8','3',0,[
]),
arc('black','',0,1,1,0,86,205,102,221,102,205,86,221,0,32,32,5760,5760,2156,0,0,8,3,0,0,0,'1','8','3',0,[
]),
arc('black','',0,1,1,0,347,269,363,285,363,301,379,285,0,32,32,-5760,5760,2160,0,0,8,3,0,0,0,'1','8','3',0,[
]),
poly('black','',2,[
	363,301,138,301],1,1,1,2161,1,0,0,0,0,0,0,'1',0,0,
    "0","",[
    0,8,3,0,'8','3','0'],[0,8,3,0,'8','3','0'],[
]),
arc('black','',0,1,1,0,126,237,142,253,142,237,126,253,0,32,32,5760,5760,2162,0,0,8,3,0,0,0,'1','8','3',0,[
]),
arc('black','',0,1,1,0,347,237,363,253,363,237,379,253,1,32,32,5760,-5760,2163,0,0,8,3,0,0,0,'1','8','3',0,[
]),
poly('black','',2,[
	343,237,367,237],1,1,1,2164,1,0,0,0,0,0,0,'1',0,0,
    "0","",[
    0,8,3,0,'8','3','0'],[0,8,3,0,'8','3','0'],[
]),
arc('black','',0,1,1,0,126,269,142,285,142,301,126,285,1,32,32,-5760,-5760,2165,0,0,8,3,0,0,0,'1','8','3',0,[
]),
text('black',126,261,1,1,1,9,16,2166,12,4,0,0,0,0,2,9,16,0,0,"",0,0,0,0,273,'',[
minilines(9,16,0,0,1,0,0,[
mini_line(9,12,4,0,0,0,[
str_block(0,9,12,4,0,-4,0,0,0,[
str_seg('black','Courier-Bold',1,80640,9,12,4,0,-4,0,0,0,0,0,
	";")])
])
])]),
rcbox('black','',106,253,146,285,0,1,1,0,16,2167,0,0,0,0,'1',0,[
]),
poly('black','',2,[
	379,253,379,285],1,1,1,2168,1,0,0,0,0,0,0,'1',0,0,
    "0","",[
    0,8,3,0,'8','3','0'],[0,8,3,0,'8','3','0'],[
]),
arc('black','',0,1,1,0,86,205,102,221,102,237,86,221,1,32,32,-5760,-5760,2172,0,0,8,3,0,0,0,'1','8','3',0,[
]),
poly('black','',2,[
	142,301,98,301],1,1,1,2173,1,0,0,0,0,0,0,'1',0,0,
    "0","",[
    0,8,3,0,'8','3','0'],[0,8,3,0,'8','3','0'],[
]),
arc('black','',0,1,1,0,86,301,102,317,102,301,86,317,0,32,32,5760,5760,2174,0,0,8,3,0,0,0,'1','8','3',0,[
]),
poly('black','',2,[
	102,109,130,109],1,1,1,3904,1,0,0,0,0,0,0,'1',0,0,
    "0","",[
    0,8,3,0,'8','3','0'],[0,8,3,0,'8','3','0'],[
]),
text('black',165,98,1,1,1,53,22,2149,17,5,0,0,0,0,2,53,22,0,0,"",0,0,0,0,115,'',[
minilines(53,22,0,0,1,0,0,[
mini_line(53,17,5,0,0,0,[
str_block(0,53,17,5,0,-1,0,0,0,[
str_seg('black','Times-Italic',2,103680,53,17,5,0,-1,0,0,0,0,0,
	"Clients")])
])
])]),
box('black','',130,96,201,120,0,1,1,2148,0,0,0,0,0,'1',0,[
]),
poly('black','',2,[
	201,109,229,109],1,1,1,3910,1,0,0,0,0,0,0,'1',0,0,
    "0","",[
    0,8,3,0,'8','3','0'],[0,8,3,0,'8','3','0'],[
]),
poly('black','',2,[
	102,173,130,173],1,1,1,3915,1,0,0,0,0,0,0,'1',0,0,
    "0","",[
    0,8,3,0,'8','3','0'],[0,8,3,0,'8','3','0'],[
]),
poly('black','',2,[
	222,173,250,173],1,1,1,3916,1,0,0,0,0,0,0,'1',0,0,
    "0","",[
    0,8,3,0,'8','3','0'],[0,8,3,0,'8','3','0'],[
]),
text('black',174,162,1,1,1,74,22,2157,17,5,0,0,0,0,2,74,22,0,1,"",0,0,0,0,179,'',[
minilines(74,22,0,1,1,0,0,[
mini_line(74,17,5,0,1,0,[
str_block(0,74,17,5,0,1,0,0,0,[
str_seg('black','Times-Italic',2,103680,74,17,5,0,1,0,0,0,0,0,
	"Comment")])
])
])]),
box('black','',126,160,222,184,0,1,1,2158,0,0,0,0,0,'1',0,[
]),
poly('black','',2,[
	102,237,158,237],1,1,1,3922,1,0,0,0,0,0,0,'1',0,0,
    "0","",[
    0,8,3,0,'8','3','0'],[0,8,3,0,'8','3','0'],[
]),
text('black',250,226,1,1,1,152,22,2171,17,5,0,0,0,0,2,152,22,0,0,"",0,0,0,0,243,'',[
minilines(152,22,0,0,1,0,0,[
mini_line(152,17,5,0,0,0,[
str_block(0,152,17,5,0,0,0,0,0,[
str_seg('black','Times-Italic',2,103680,152,17,5,0,0,0,0,0,0,0,
	"Feature_declaration")])
])
])]),
box('black','',158,224,343,248,0,1,1,2170,0,0,0,0,0,'1',0,[
])
],
22673,0,0,[
]).
