%TGIF 4.1.43-QPL
state(0,37,100.000,0,0,0,4,0,9,2,2,0,1,1,0,1,0,'Times-Italic',2,103680,0,0,0,10,0,0,1,1,0,16,0,0,1,1,1,1,1088,1408,1,0,2880,0).
%
% @(#)$Header$
% %W%
%
unit("1 pixel/pixel").
color_info(11,65535,0,[
	"magenta", 65535, 0, 65535, 65535, 0, 65535, 1,
	"red", 65535, 0, 0, 65535, 0, 0, 1,
	"green", 0, 65535, 0, 0, 65535, 0, 1,
	"blue", 0, 0, 65535, 0, 0, 65535, 1,
	"yellow", 65535, 65535, 0, 65535, 65535, 0, 1,
	"pink", 65535, 49344, 52171, 65535, 49344, 52171, 1,
	"cyan", 0, 65535, 65535, 0, 65535, 65535, 1,
	"CadetBlue", 24415, 40606, 41120, 24415, 40606, 41120, 1,
	"white", 65535, 65535, 65535, 65535, 65535, 65535, 1,
	"black", 0, 0, 0, 0, 0, 0, 1,
	"DarkSlateGray", 12079, 20303, 20303, 12079, 20303, 20303, 1
]).
script_frac("0.6").
fg_bg_colors('black','white').
dont_reencode("FFDingbests:ZapfDingbats").
page(1,"",1,'').
box('blue','',20,29,840,344,0,1,1,22350,5,0,0,0,0,'1',0,[
]).
text('black',37,41,1,0,1,129,22,0,17,5,0,0,0,0,2,129,22,0,0,"",0,0,0,0,58,'',[
minilines(129,22,0,0,0,0,0,[
mini_line(129,17,5,0,0,0,[
str_block(0,129,17,5,0,0,0,0,0,[
str_seg('black','Times-Italic',2,103680,129,17,5,0,0,0,0,0,0,0,
	"New_export_item")])
])
])]).
text('black',179,158,1,1,1,27,16,42,12,4,0,0,0,0,2,27,16,0,0,"",0,0,0,0,170,'',[
minilines(27,16,0,0,1,0,0,[
mini_line(27,12,4,0,0,0,[
str_block(0,27,12,4,0,-2,0,0,0,[
str_seg('black','Courier-Bold',1,80640,27,12,4,0,-2,0,0,0,0,0,
	"all")])
])
])]).
rcbox('black','',153,150,205,182,0,1,1,0,16,41,0,0,0,0,'1',0,[
]).
poly('black','',2,[
	85,74,85,122],1,1,1,113,1,0,0,0,0,0,0,'1',0,0,
    "0","",[
    0,8,3,0,'8','3','0'],[0,8,3,0,'8','3','0'],[
]).
poly('black','',2,[
	369,294,101,294],1,1,1,352,1,0,0,0,0,0,0,'1',0,0,
    "0","",[
    0,8,3,0,'8','3','0'],[0,8,3,0,'8','3','0'],[
]).
poly('black','',2,[
	129,166,153,166],1,1,1,416,1,0,0,0,0,0,0,'1',0,0,
    "0","",[
    0,8,3,0,'8','3','0'],[0,8,3,0,'8','3','0'],[
]).
poly('black','',2,[
	129,230,153,230],1,1,1,419,1,0,0,0,0,0,0,'1',0,0,
    "0","",[
    0,8,3,0,'8','3','0'],[0,8,3,0,'8','3','0'],[
]).
poly('black','',2,[
	205,166,312,166],1,1,1,429,1,0,0,0,0,0,0,'1',0,0,
    "0","",[
    0,8,3,0,'8','3','0'],[0,8,3,0,'8','3','0'],[
]).
poly('black','',2,[
	284,230,312,230],1,1,1,430,1,0,0,0,0,0,0,'1',0,0,
    "0","",[
    0,8,3,0,'8','3','0'],[0,8,3,0,'8','3','0'],[
]).
poly('black','',2,[
	344,198,372,198],1,1,1,433,1,0,0,0,0,0,0,'1',0,0,
    "0","",[
    0,8,3,0,'8','3','0'],[0,8,3,0,'8','3','0'],[
]).
arc('black','',0,1,1,0,356,198,370,212,368,198,384,214,1,28,28,6272,-6784,435,0,0,8,3,0,0,0,'1','8','3',0,[
]).
poly('black','',2,[
	384,214,384,278],1,1,1,437,1,0,0,0,0,0,0,'1',0,0,
    "0","",[
    0,8,3,0,'8','3','0'],[0,8,3,0,'8','3','0'],[
]).
arc('black','',0,1,1,0,356,266,370,280,368,294,384,278,0,28,28,-6272,6784,441,0,0,8,3,0,0,0,'1','8','3',0,[
]).
arc('black','',0,1,1,0,85,294,99,308,101,294,85,310,0,28,28,5248,6784,445,0,0,8,3,0,0,0,'1','8','3',0,[
]).
arc('black','',0,1,1,0,85,166,101,182,101,198,85,182,1,32,32,-5760,-5760,521,0,0,8,3,0,0,0,'1','8','3',0,[
]).
arc('black','',0,1,1,0,296,166,312,182,312,166,328,182,1,32,32,5760,-5760,525,0,0,8,3,0,0,0,'1','8','3',0,[
]).
arc('black','',0,1,1,0,328,166,344,182,344,198,328,182,1,32,32,-5760,-5760,527,0,0,8,3,0,0,0,'1','8','3',0,[
]).
arc('black','',0,1,1,0,113,198,129,214,129,230,113,214,1,32,32,-5760,-5760,534,0,0,8,3,0,0,0,'1','8','3',0,[
]).
arc('black','',0,1,1,0,81,198,97,214,97,198,113,214,1,32,32,5760,-5760,536,0,0,8,3,0,0,0,'1','8','3',0,[
]).
arc('black','',0,1,1,0,81,166,97,182,97,198,113,182,0,32,32,-5760,5760,540,0,0,8,3,0,0,0,'1','8','3',0,[
]).
arc('black','',0,1,1,0,113,166,129,182,129,166,113,182,0,32,32,5760,5760,542,0,0,8,3,0,0,0,'1','8','3',0,[
]).
arc('black','',0,1,1,0,296,198,312,214,312,230,328,214,0,32,32,-5760,5760,545,0,0,8,3,0,0,0,'1','8','3',0,[
]).
arc('black','',0,1,1,0,328,198,344,214,344,198,328,214,0,32,32,5760,5760,547,0,0,8,3,0,0,0,'1','8','3',0,[
]).
text('black',87,123,1,1,1,53,22,1717,17,5,0,0,0,0,2,53,22,0,0,"",0,0,0,0,140,'',[
minilines(53,22,0,0,1,0,0,[
mini_line(53,17,5,0,0,0,[
str_block(0,53,17,5,0,-1,0,0,0,[
str_seg('black','Times-Italic',2,103680,53,17,5,0,-1,0,0,0,0,0,
	"Clients")])
])
])]).
box('black','',49,121,125,145,0,1,1,1718,0,0,0,0,0,'1',0,[
]).
poly('black','',2,[
	85,146,85,326],1,1,1,1808,1,0,0,0,0,0,0,'1',0,0,
    "0","",[
    0,8,3,0,'8','3','0'],[0,8,3,0,'8','3','0'],[
]).
text('black',218,223,1,1,1,109,22,1832,17,5,0,0,0,0,2,109,22,0,0,"",0,0,0,0,240,'',[
minilines(109,22,0,0,1,0,0,[
mini_line(109,17,5,0,0,0,[
str_block(0,109,17,5,0,0,0,0,0,[
str_seg('black','Times-Italic',2,103680,109,17,5,0,0,0,0,0,0,0,
	"Feature_name")])
])
])]).
box('black','',153,221,284,245,0,1,1,1833,0,0,0,0,0,'1',0,[
]).
arc('black','',0,1,1,0,272,238,286,252,284,238,300,254,1,28,28,6272,-6784,1842,0,0,8,3,0,0,0,'1','8','3',0,[
]).
arc('black','',0,1,1,0,272,238,286,252,284,266,300,250,0,28,28,-6272,6784,1844,0,0,8,3,0,0,0,'1','8','3',0,[
]).
text('black',129,262,1,1,1,9,16,1848,12,4,0,0,0,0,2,9,16,0,0,"",0,0,0,0,274,'',[
minilines(9,16,0,0,1,0,0,[
mini_line(9,12,4,0,0,0,[
str_block(0,9,12,4,0,-4,0,0,0,[
str_seg('black','Courier-Bold',1,80640,9,12,4,0,-4,0,0,0,0,0,
	",")])
])
])]).
rcbox('black','',109,254,149,286,0,1,1,0,16,1849,0,0,0,0,'1',0,[
]).
poly('black','',2,[
	285,266,149,266],1,1,1,1851,1,0,0,0,0,0,0,'1',0,0,
    "0","",[
    0,8,3,0,'8','3','0'],[0,8,3,0,'8','3','0'],[
]).
poly('black','',2,[
	133,238,153,238],1,1,1,1855,1,0,0,0,0,0,0,'1',0,0,
    "0","",[
    0,8,3,0,'8','3','0'],[0,8,3,0,'8','3','0'],[
]).
arc('black','',0,1,1,0,121,238,137,254,137,238,121,254,0,32,32,5760,5760,1856,0,0,8,3,0,0,0,'1','8','3',0,[
]).
