%TGIF 4.1.43-QPL
state(0,37,100.000,0,0,0,4,0,9,2,2,0,1,0,0,1,0,'Times-Bold',1,103680,0,0,0,10,0,0,1,1,0,16,0,0,1,1,1,1,1088,1408,1,0,2880,0).
%
% @(#)$Header$
% %W%
%
unit("1 pixel/pixel").
color_info(11,65535,0,[
	"magenta", 65535, 0, 65535, 65535, 0, 65535, 1,
	"red", 65535, 0, 0, 65535, 0, 0, 1,
	"green", 0, 65535, 0, 0, 65535, 0, 1,
	"blue", 0, 0, 65535, 0, 0, 65535, 1,
	"yellow", 65535, 65535, 0, 65535, 65535, 0, 1,
	"pink", 65535, 49344, 52171, 65535, 49344, 52171, 1,
	"cyan", 0, 65535, 65535, 0, 65535, 65535, 1,
	"CadetBlue", 24415, 40606, 41120, 24415, 40606, 41120, 1,
	"white", 65535, 65535, 65535, 65535, 65535, 65535, 1,
	"black", 0, 0, 0, 0, 0, 0, 1,
	"DarkSlateGray", 12079, 20303, 20303, 12079, 20303, 20303, 1
]).
script_frac("0.6").
fg_bg_colors('black','white').
dont_reencode("FFDingbests:ZapfDingbats").
page(1,"",1,'').
box('blue','',66,128,886,269,0,1,1,22354,5,0,0,0,0,'1',0,[
]).
text('black',167,138,1,1,1,173,22,7361,17,5,0,0,0,0,2,187,22,0,0,"",0,1,0,0,156,'',[
	167,138,74,138,261,160,923.077,0,0,1000,-2,0,73,137,262,161],[
minilines(187,22,0,0,1,0,0,[
mini_line(187,17,5,0,0,0,[
str_block(0,187,17,5,0,0,0,0,0,[
str_seg('black','Times-Italic',2,103680,187,17,5,0,0,0,0,0,0,0,
	"Open_target_or_operand")])
])
])]).
poly('black','',2,[
	92,164,92,222],1,1,1,7336,1,0,0,0,0,0,0,'1',0,0,
    "0","",[
    0,8,3,0,'8','3','0'],[0,8,3,0,'8','3','0'],[
]).
arc('black','',0,1,1,0,92,160,108,176,108,192,92,176,1,32,32,-5760,-5760,22505,0,0,8,3,0,0,0,'1','8','3',0,[
]).
poly('black','',2,[
	178,191,197,191],1,1,1,22988,1,0,0,0,0,0,0,'1',0,0,
    "0","",[
    0,8,3,0,'8','3','0'],[0,8,3,0,'8','3','0'],[
]).
text('black',159,184,1,1,1,9,16,22994,12,4,0,0,0,0,2,9,16,0,0,"",0,0,0,0,196,'',[
minilines(9,16,0,0,1,0,0,[
mini_line(9,12,4,0,0,0,[
str_block(0,9,12,4,0,-1,0,0,0,[
str_seg('black','Courier-Bold',1,80640,9,12,4,0,-1,0,0,0,0,0,
	"?")])
])
])]).
rcbox('black','',142,176,178,208,0,1,1,0,16,22995,0,0,0,0,'1',0,[
]).
poly('black','',2,[
	108,192,142,192],1,1,1,23003,1,0,0,0,0,0,0,'1',0,0,
    "0","",[
    0,8,3,0,'8','3','0'],[0,8,3,0,'8','3','0'],[
]).
arc('black','',0,1,1,0,92,206,108,222,108,238,92,222,1,32,32,-5760,-5760,23118,0,0,8,3,0,0,0,'1','8','3',0,[
]).
text('black',210,227,1,1,1,33,22,23119,17,5,0,0,0,0,2,35,22,0,0,"",0,1,0,0,245,'',[
	210,227,193,227,228,249,923.077,0,0,1000,-2,0,192,226,229,250],[
minilines(35,22,0,0,1,0,0,[
mini_line(35,17,5,0,0,0,[
str_block(0,35,17,5,0,0,0,0,0,[
str_seg('black','Times-Italic',2,103680,35,17,5,0,0,0,0,0,0,0,
	"Type")])
])
])]).
box('black','',187,226,230,250,0,1,1,23120,0,0,0,0,0,'1',0,[
]).
poly('black','',2,[
	275,237,294,237],1,1,1,23121,1,0,0,0,0,0,0,'1',0,0,
    "0","",[
    0,8,3,0,'8','3','0'],[0,8,3,0,'8','3','0'],[
]).
text('black',159,230,1,1,1,9,16,23122,12,4,0,0,0,0,2,9,16,0,0,"",0,0,0,0,242,'',[
minilines(9,16,0,0,1,0,0,[
mini_line(9,12,4,0,0,0,[
str_block(0,9,12,4,0,-2,0,0,0,[
str_seg('black','Courier-Bold',1,80640,9,12,4,0,-2,0,0,0,0,0,
	"{")])
])
])]).
rcbox('black','',142,222,175,254,0,1,1,0,16,23123,0,0,0,0,'1',0,[
]).
text('black',258,230,1,1,1,9,16,23124,12,4,0,0,0,0,2,9,16,0,0,"",0,0,0,0,242,'',[
minilines(9,16,0,0,1,0,0,[
mini_line(9,12,4,0,0,0,[
str_block(0,9,12,4,0,-3,0,0,0,[
str_seg('black','Courier-Bold',1,80640,9,12,4,0,-3,0,0,0,0,0,
	"}")])
])
])]).
rcbox('black','',242,222,274,254,0,1,1,0,16,23125,0,0,0,0,'1',0,[
]).
poly('black','',2,[
	175,237,187,237],0,1,1,23126,1,0,0,0,0,0,0,'1',0,0,
    "0","",[
    0,8,3,0,'8','3','0'],[0,8,3,0,'8','3','0'],[
]).
poly('black','',2,[
	230,237,242,237],0,1,1,23127,1,0,0,0,0,0,0,'1',0,0,
    "0","",[
    0,8,3,0,'8','3','0'],[0,8,3,0,'8','3','0'],[
]).
poly('black','',2,[
	108,238,142,238],1,1,1,23128,1,0,0,0,0,0,0,'1',0,0,
    "0","",[
    0,8,3,0,'8','3','0'],[0,8,3,0,'8','3','0'],[
]).
