%TGIF 4.1.43-QPL
state(0,37,100.000,0,0,0,4,0,9,2,2,0,1,1,0,1,0,'Times-Italic',2,103680,0,0,0,10,0,0,1,1,0,16,0,0,1,1,1,1,1088,1408,1,0,2880,0).
%
% @(#)$Header$
% %W%
%
unit("1 pixel/pixel").
color_info(11,65535,0,[
	"magenta", 65535, 0, 65535, 65535, 0, 65535, 1,
	"red", 65535, 0, 0, 65535, 0, 0, 1,
	"green", 0, 65535, 0, 0, 65535, 0, 1,
	"blue", 0, 0, 65535, 0, 0, 65535, 1,
	"yellow", 65535, 65535, 0, 65535, 65535, 0, 1,
	"pink", 65535, 49344, 52171, 65535, 49344, 52171, 1,
	"cyan", 0, 65535, 65535, 0, 65535, 65535, 1,
	"CadetBlue", 24415, 40606, 41120, 24415, 40606, 41120, 1,
	"white", 65535, 65535, 65535, 65535, 65535, 65535, 1,
	"black", 0, 0, 0, 0, 0, 0, 1,
	"DarkSlateGray", 12079, 20303, 20303, 12079, 20303, 20303, 1
]).
script_frac("0.6").
fg_bg_colors('black','white').
dont_reencode("FFDingbests:ZapfDingbats").
page(1,"",1,'').
text('black',146,80,1,0,1,119,22,4983,17,5,0,0,0,0,2,119,22,0,1,"",0,0,0,0,97,'',[
minilines(119,22,0,1,0,0,0,[
mini_line(119,17,5,0,1,0,[
str_block(0,119,17,5,0,1,0,0,0,[
str_seg('black','Times-Italic',2,103680,119,17,5,0,1,0,0,0,0,0,
	"Unary_operator")])
])
])]).
text('black',222,161,1,1,1,9,16,4984,12,4,0,0,0,0,2,9,16,0,0,"",0,0,0,0,173,'',[
minilines(9,16,0,0,1,0,0,[
mini_line(9,12,4,0,0,0,[
str_block(0,9,12,4,0,-1,0,0,0,[
str_seg('black','Courier-Bold',1,80640,9,12,4,0,-1,0,0,0,0,0,
	"+")])
])
])]).
rcbox('black','',202,153,242,185,0,1,1,0,16,4985,0,0,0,0,'1',0,[
]).
text('black',274,161,1,1,1,9,16,4986,12,4,0,0,0,0,2,9,16,0,0,"",0,0,0,0,173,'',[
minilines(9,16,0,0,1,0,0,[
mini_line(9,12,4,0,0,0,[
str_block(0,9,12,4,0,-2,0,0,0,[
str_seg('black','Courier-Bold',1,80640,9,12,4,0,-2,0,0,0,0,0,
	"-")])
])
])]).
rcbox('black','',254,153,294,185,0,1,1,0,16,4987,0,0,0,0,'1',0,[
]).
text('black',326,161,1,1,1,27,16,4988,12,4,0,0,0,0,2,27,16,0,0,"",0,0,0,0,173,'',[
minilines(27,16,0,0,1,0,0,[
mini_line(27,12,4,0,0,0,[
str_block(0,27,12,4,0,-1,0,0,0,[
str_seg('black','Courier-Bold',1,80640,27,12,4,0,-1,0,0,0,0,0,
	"not")])
])
])]).
rcbox('black','',306,153,346,185,0,1,1,0,16,4989,0,0,0,0,'1',0,[
]).
poly('black','',2,[
	182,105,182,121],1,1,1,4996,1,0,0,0,0,0,0,'1',0,0,
    "0","",[
    0,8,3,0,'8','3','0'],[0,8,3,0,'8','3','0'],[
]).
arc('black','',0,1,1,0,182,105,198,121,198,137,182,121,1,32,32,-5760,-5760,4997,0,0,8,3,0,0,0,'1','8','3',0,[
]).
poly('black','',2,[
	198,137,306,137],1,1,1,4998,1,0,0,0,0,0,0,'1',0,0,
    "0","",[
    0,8,3,0,'8','3','0'],[0,8,3,0,'8','3','0'],[
]).
arc('black','',0,1,1,0,190,137,204,151,202,137,218,153,1,28,28,6272,-6784,4999,0,0,8,3,0,0,0,'1','8','3',0,[
]).
arc('black','',0,1,1,0,242,137,256,151,254,137,270,153,1,28,28,6272,-6784,5000,0,0,8,3,0,0,0,'1','8','3',0,[
]).
arc('black','',0,1,1,0,222,169,238,185,238,201,222,185,1,32,32,-5760,-5760,5001,0,0,8,3,0,0,0,'1','8','3',0,[
]).
poly('black','',2,[
	238,201,258,201],1,1,1,5002,1,0,0,0,0,0,0,'1',0,0,
    "0","",[
    0,8,3,0,'8','3','0'],[0,8,3,0,'8','3','0'],[
]).
arc('black','',0,1,1,0,274,169,290,185,290,201,274,185,1,32,32,-5760,-5760,5003,0,0,8,3,0,0,0,'1','8','3',0,[
]).
poly('black','',2,[
	290,201,310,201],1,1,1,5004,1,0,0,0,0,0,0,'1',0,0,
    "0","",[
    0,8,3,0,'8','3','0'],[0,8,3,0,'8','3','0'],[
]).
arc('black','',0,1,1,0,294,137,308,151,306,137,322,153,1,28,28,6272,-6784,5005,0,0,8,3,0,0,0,'1','8','3',0,[
]).
arc('black','',0,1,1,0,322,169,338,185,338,201,322,185,1,32,32,-5760,-5760,5009,0,0,8,3,0,0,0,'1','8','3',0,[
]).
poly('black','',2,[
	338,201,358,201],1,1,1,5010,1,0,0,0,0,0,0,'1',0,0,
    "0","",[
    0,8,3,0,'8','3','0'],[0,8,3,0,'8','3','0'],[
]).
box('blue','',125,66,945,218,0,1,1,22352,5,0,0,0,0,'1',0,[
]).
