%TGIF 4.1.43-QPL
state(0,37,100.000,64,0,0,4,0,9,2,2,0,1,1,0,1,0,'Times-Italic',2,103680,0,0,0,10,0,0,1,1,0,16,0,0,1,1,1,1,1088,1408,1,0,2880,0).
%
% @(#)$Header$
% %W%
%
unit("1 pixel/pixel").
color_info(11,65535,0,[
	"magenta", 65535, 0, 65535, 65535, 0, 65535, 1,
	"red", 65535, 0, 0, 65535, 0, 0, 1,
	"green", 0, 65535, 0, 0, 65535, 0, 1,
	"blue", 0, 0, 65535, 0, 0, 65535, 1,
	"yellow", 65535, 65535, 0, 65535, 65535, 0, 1,
	"pink", 65535, 49344, 52171, 65535, 49344, 52171, 1,
	"cyan", 0, 65535, 65535, 0, 65535, 65535, 1,
	"CadetBlue", 24415, 40606, 41120, 24415, 40606, 41120, 1,
	"white", 65535, 65535, 65535, 65535, 65535, 65535, 1,
	"black", 0, 0, 0, 0, 0, 0, 1,
	"DarkSlateGray", 12079, 20303, 20303, 12079, 20303, 20303, 1
]).
script_frac("0.6").
fg_bg_colors('black','white').
dont_reencode("FFDingbests:ZapfDingbats").
page(1,"",1,'').
box('blue','',125,66,945,209,0,1,1,22352,5,0,0,0,0,'1',0,[
]).
poly('black','',2,[
	166,108,166,134],1,1,1,2145,1,0,0,0,0,0,0,'1',0,0,
    "0","",[
    0,8,3,0,'8','3','0'],[0,8,3,0,'8','3','0'],[
]).
text('black',142,79,1,0,1,137,22,2146,17,5,0,0,0,0,2,137,22,0,0,"",0,0,0,0,96,'',[
minilines(137,22,0,0,0,0,0,[
mini_line(137,17,5,0,0,0,[
str_block(0,137,17,5,0,0,0,0,0,[
str_seg('black','Times-Italic',2,103680,137,17,5,0,0,0,0,0,0,0,
	"Create_expression")])
])
])]).
rcbox('black','',210,134,286,166,0,1,1,0,16,4513,0,0,0,0,'1',0,[
]).
text('black',248,142,1,1,1,54,16,4529,12,4,0,0,0,0,2,54,16,0,0,"",0,0,0,0,154,'',[
minilines(54,16,0,0,1,0,0,[
mini_line(54,12,4,0,0,0,[
str_block(0,54,12,4,0,-1,0,0,0,[
str_seg('black','Courier-Bold',1,80640,54,12,4,0,-1,0,0,0,0,0,
	"create")])
])
])]).
arc('black','',0,1,1,0,166,118,182,134,182,150,166,134,1,32,32,-5760,-5760,4535,0,0,8,3,0,0,0,'1','8','3',0,[
]).
poly('black','',2,[
	182,150,210,150],1,1,1,4536,1,0,0,0,0,0,0,'1',0,0,
    "0","",[
    0,8,3,0,'8','3','0'],[0,8,3,0,'8','3','0'],[
]).
poly('black','',2,[
	286,150,314,150],1,1,1,4627,1,0,0,0,0,0,0,'1',0,0,
    "0","",[
    0,8,3,0,'8','3','0'],[0,8,3,0,'8','3','0'],[
]).
group([
text('black',333,142,1,1,1,9,16,4568,12,4,0,0,0,0,2,9,16,0,0,"",0,0,0,0,154,'',[
minilines(9,16,0,0,1,0,0,[
mini_line(9,12,4,0,0,0,[
str_block(0,9,12,4,0,-2,0,0,0,[
str_seg('black','Courier-Bold',1,80640,9,12,4,0,-2,0,0,0,0,0,
	"{")])
])
])]),
rcbox('black','',315,134,351,166,0,1,1,0,16,4569,0,0,0,0,'1',0,[
]),
poly('black','',2,[
	351,150,379,150],1,1,1,4570,1,0,0,0,0,0,0,'1',0,0,
    "0","",[
    0,8,3,0,'8','3','0'],[0,8,3,0,'8','3','0'],[
]),
text('black',403,138,1,1,1,35,22,4571,17,5,0,0,0,0,2,35,22,0,0,"",0,0,0,0,155,'',[
minilines(35,22,0,0,1,0,0,[
mini_line(35,17,5,0,0,0,[
str_block(0,35,17,5,0,0,0,0,0,[
str_seg('black','Times-Italic',2,103680,35,17,5,0,0,0,0,0,0,0,
	"Type")])
])
])]),
box('black','',379,138,427,162,0,1,1,4572,0,0,0,0,0,'1',0,[
]),
text('black',473,142,1,1,1,9,16,4603,12,4,0,0,0,0,2,9,16,0,0,"",0,0,0,0,154,'',[
minilines(9,16,0,0,1,0,0,[
mini_line(9,12,4,0,0,0,[
str_block(0,9,12,4,0,-3,0,0,0,[
str_seg('black','Courier-Bold',1,80640,9,12,4,0,-3,0,0,0,0,0,
	"}")])
])
])]),
rcbox('black','',455,134,491,166,0,1,1,0,16,4604,0,0,0,0,'1',0,[
]),
poly('black','',2,[
	427,150,455,150],1,1,1,4608,1,0,0,0,0,0,0,'1',0,0,
    "0","",[
    0,8,3,0,'8','3','0'],[0,8,3,0,'8','3','0'],[
])
],
22361,0,0,[
]).
group([
poly('black','',2,[
	491,150,519,150],1,1,1,4543,1,0,0,0,0,0,0,'1',0,0,
    "0","",[
    0,8,3,0,'8','3','0'],[0,8,3,0,'8','3','0'],[
]),
text('black',539,142,1,1,1,9,16,4548,12,4,0,0,0,0,2,9,16,0,0,"",0,0,0,0,154,'',[
minilines(9,16,0,0,1,0,0,[
mini_line(9,12,4,0,0,0,[
str_block(0,9,12,4,0,-4,0,0,0,[
str_seg('black','Courier-Bold',1,80640,9,12,4,0,-4,0,0,0,0,0,
	".")])
])
])]),
rcbox('black','',519,134,559,166,0,1,1,0,16,4549,0,0,0,0,'1',0,[
]),
arc('black','',0,1,1,0,511,150,527,166,527,182,511,166,1,32,32,-5760,-5760,4552,0,0,8,3,0,0,0,'1','8','3',0,[
]),
arc('black','',0,1,1,0,479,150,495,166,495,150,511,166,1,32,32,5760,-5760,4553,0,0,8,3,0,0,0,'1','8','3',0,[
]),
text('black',663,138,1,1,1,122,22,4556,17,5,0,0,0,0,2,122,22,0,0,"",0,0,0,0,155,'',[
minilines(122,22,0,0,1,0,0,[
mini_line(122,17,5,0,0,0,[
str_block(0,122,17,5,0,0,0,0,0,[
str_seg('black','Times-Italic',2,103680,122,17,5,0,0,0,0,0,0,0,
	"Unqualified call")])
])
])]),
box('black','',587,138,739,162,0,1,1,4557,0,0,0,0,0,'1',0,[
]),
poly('black','',2,[
	559,150,587,150],1,1,1,4562,1,0,0,0,0,0,0,'1',0,0,
    "0","",[
    0,8,3,0,'8','3','0'],[0,8,3,0,'8','3','0'],[
]),
arc('black','',0,1,1,0,747,150,763,166,763,182,779,166,0,32,32,-5760,5760,4611,0,0,8,3,0,0,0,'1','8','3',0,[
]),
arc('black','',0,1,1,0,779,150,795,166,795,150,779,166,0,32,32,5760,5760,4612,0,0,8,3,0,0,0,'1','8','3',0,[
]),
poly('black','',2,[
	739,150,807,150],1,1,1,4614,1,0,0,0,0,0,0,'1',0,0,
    "0","",[
    0,8,3,0,'8','3','0'],[0,8,3,0,'8','3','0'],[
]),
poly('black','',2,[
	527,182,767,182],1,1,1,4616,1,0,0,0,0,0,0,'1',0,0,
    "0","",[
    0,8,3,0,'8','3','0'],[0,8,3,0,'8','3','0'],[
])
],
22374,0,0,[
]).
