%TGIF 4.1.43-QPL
state(0,37,100.000,96,0,1,4,0,9,2,2,0,1,1,0,1,0,'Times-Italic',2,103680,0,0,0,10,0,1,1,1,0,16,0,0,1,1,1,1,1088,1408,1,0,2880,0).
%
% @(#)$Header$
% %W%
%
unit("1 pixel/pixel").
color_info(11,65535,0,[
	"magenta", 65535, 0, 65535, 65535, 0, 65535, 1,
	"red", 65535, 0, 0, 65535, 0, 0, 1,
	"green", 0, 65535, 0, 0, 65535, 0, 1,
	"blue", 0, 0, 65535, 0, 0, 65535, 1,
	"yellow", 65535, 65535, 0, 65535, 65535, 0, 1,
	"pink", 65535, 49344, 52171, 65535, 49344, 52171, 1,
	"cyan", 0, 65535, 65535, 0, 65535, 65535, 1,
	"CadetBlue", 24415, 40606, 41120, 24415, 40606, 41120, 1,
	"white", 65535, 65535, 65535, 65535, 65535, 65535, 1,
	"black", 0, 0, 0, 0, 0, 0, 1,
	"DarkSlateGray", 12079, 20303, 20303, 12079, 20303, 20303, 1
]).
script_frac("0.6").
fg_bg_colors('black','white').
dont_reencode("FFDingbests:ZapfDingbats").
page(1,"",1,'').
box('blue','',120,30,940,183,0,1,1,22350,5,0,0,0,0,'1',0,[
]).
text('black',140,41,1,0,1,74,22,4033,17,5,0,0,0,0,2,74,22,0,1,"",0,0,0,0,58,'',[
minilines(74,22,0,1,0,0,0,[
mini_line(74,17,5,0,1,0,[
str_block(0,74,17,5,0,1,0,0,0,[
str_seg('black','Times-Italic',2,103680,74,17,5,0,1,0,0,0,0,0,
	"Comment")])
])
])]).
group([
poly('black','',2,[
	230,102,282,102],1,1,1,4034,1,0,0,0,0,0,0,'1',0,0,
    "0","",[
    0,8,3,0,'8','3','0'],[0,8,3,0,'8','3','0'],[
]),
arc('black','',0,1,1,0,174,102,190,118,190,102,174,118,0,32,32,5760,5760,4035,0,0,8,3,0,0,0,'1','8','3',0,[
]),
poly('black','',2,[
	369,101,417,101],1,1,1,4036,1,0,0,0,0,0,0,'1',0,0,
    "0","",[
    0,8,3,0,'8','3','0'],[0,8,3,0,'8','3','0'],[
]),
arc('black','',0,1,1,0,174,121,190,137,190,153,174,137,1,32,32,-5760,-5760,4037,0,0,8,3,0,0,0,'1','8','3',0,[
]),
text('black',283,142,1,1,1,75,22,4038,17,5,0,0,0,0,2,75,22,0,0,"",0,0,0,0,159,'',[
minilines(75,22,0,0,1,0,0,[
mini_line(75,17,5,0,0,0,[
str_block(0,75,17,5,0,0,0,0,0,[
str_seg('black','Times-Italic',2,103680,75,17,5,0,0,0,0,0,0,0,
	"New_Line")])
])
])]),
rcbox('black','',230,136,337,168,0,1,1,0,16,4039,0,0,0,0,'1',0,[
]),
text('black',315,91,1,1,1,43,22,4040,17,5,0,0,0,0,2,43,22,0,1,"",0,0,0,0,108,'',[
minilines(43,22,0,1,1,0,0,[
mini_line(43,17,5,0,1,0,[
str_block(0,43,17,5,0,1,0,0,0,[
str_seg('black','Times-Italic',2,103680,43,17,5,0,1,0,0,0,0,0,
	"String")])
])
])]),
box('black','',282,89,349,113,0,1,1,4041,0,0,0,0,0,'1',0,[
]),
text('black',210,94,1,1,1,18,16,4042,12,4,0,0,0,0,2,18,16,0,0,"",0,0,0,0,106,'',[
minilines(18,16,0,0,1,0,0,[
mini_line(18,12,4,0,0,0,[
str_block(0,18,12,4,0,-2,0,0,0,[
str_seg('black','Courier-Bold',1,80640,18,12,4,0,-2,0,0,0,0,0,
	"--")])
])
])]),
rcbox('black','',190,86,230,118,0,1,1,0,16,4043,0,0,0,0,'1',0,[
]),
arc('black','',0,1,1,0,353,121,369,137,369,153,385,137,0,32,32,-5760,5760,4044,0,0,8,3,0,0,0,'1','8','3',0,[
]),
arc('black','',0,1,1,0,353,101,369,117,369,101,385,117,1,32,32,5760,-5760,4045,0,0,8,3,0,0,0,'1','8','3',0,[
]),
poly('black','',2,[
	349,101,373,101],1,1,1,4046,1,0,0,0,0,0,0,'1',0,0,
    "0","",[
    0,8,3,0,'8','3','0'],[0,8,3,0,'8','3','0'],[
]),
poly('black','',2,[
	385,117,385,137],1,1,1,4047,1,0,0,0,0,0,0,'1',0,0,
    "0","",[
    0,8,3,0,'8','3','0'],[0,8,3,0,'8','3','0'],[
]),
poly('black','',2,[
	369,153,337,153],1,1,1,4048,1,0,0,0,0,0,0,'1',0,0,
    "0","",[
    0,8,3,0,'8','3','0'],[0,8,3,0,'8','3','0'],[
]),
poly('black','',2,[
	174,137,174,117],1,1,1,4049,1,0,0,0,0,0,0,'1',0,0,
    "0","",[
    0,8,3,0,'8','3','0'],[0,8,3,0,'8','3','0'],[
]),
poly('black','',2,[
	230,153,190,153],1,1,1,4050,1,0,0,0,0,0,0,'1',0,0,
    "0","",[
    0,8,3,0,'8','3','0'],[0,8,3,0,'8','3','0'],[
]),
poly('black','',2,[
	163,102,190,102],1,1,1,4051,1,0,0,0,0,0,0,'1',0,0,
    "0","",[
    0,8,3,0,'8','3','0'],[0,8,3,0,'8','3','0'],[
]),
arc('black','',0,1,1,0,149,70,165,86,165,102,149,86,1,32,32,-5760,-5760,23359,0,0,8,3,0,0,0,'1','8','3',0,[
]),
poly('black','',2,[
	149,66,149,86],1,1,1,23361,1,0,0,0,0,0,0,'1',0,0,
    "0","",[
    0,8,3,0,'8','3','0'],[0,8,3,0,'8','3','0'],[
])
],
23383,0,0,[
]).
