%TGIF 4.1.43-QPL
state(0,37,100.000,51,0,0,4,0,9,2,2,0,1,1,0,1,0,'Times-Italic',2,103680,0,0,0,10,0,0,1,1,0,16,0,0,1,1,1,1,1088,1408,1,0,2880,0).
%
% @(#)$Header$
% %W%
%
unit("1 pixel/pixel").
color_info(11,65535,0,[
	"magenta", 65535, 0, 65535, 65535, 0, 65535, 1,
	"red", 65535, 0, 0, 65535, 0, 0, 1,
	"green", 0, 65535, 0, 0, 65535, 0, 1,
	"blue", 0, 0, 65535, 0, 0, 65535, 1,
	"yellow", 65535, 65535, 0, 65535, 65535, 0, 1,
	"pink", 65535, 49344, 52171, 65535, 49344, 52171, 1,
	"cyan", 0, 65535, 65535, 0, 65535, 65535, 1,
	"CadetBlue", 24415, 40606, 41120, 24415, 40606, 41120, 1,
	"white", 65535, 65535, 65535, 65535, 65535, 65535, 1,
	"black", 0, 0, 0, 0, 0, 0, 1,
	"DarkSlateGray", 12079, 20303, 20303, 12079, 20303, 20303, 1
]).
script_frac("0.6").
fg_bg_colors('black','white').
dont_reencode("FFDingbests:ZapfDingbats").
page(1,"",1,'').
box('blue','',108,45,928,539,0,1,1,22350,5,0,0,0,0,'1',0,[
]).
group([
text('black',322,124,1,1,1,54,16,1121,12,4,0,0,0,0,2,54,16,0,0,"",0,0,0,0,136,'',[
minilines(54,16,0,0,1,0,0,[
mini_line(54,12,4,0,0,0,[
str_block(0,54,12,4,0,0,0,0,0,[
str_seg('black','Courier-Bold',1,80640,54,12,4,0,0,0,0,0,0,0,
	"frozen")])
])
])]),
rcbox('black','',280,116,365,148,0,1,1,0,16,1120,0,0,0,0,'1',0,[
]),
text('black',152,172,1,1,1,9,16,1305,12,4,0,0,0,0,2,9,16,0,0,"",0,0,0,0,184,'',[
minilines(9,16,0,0,1,0,0,[
mini_line(9,12,4,0,0,0,[
str_block(0,9,12,4,0,-4,0,0,0,[
str_seg('black','Courier-Bold',1,80640,9,12,4,0,-4,0,0,0,0,0,
	",")])
])
])]),
rcbox('black','',132,164,172,196,0,1,1,0,16,1304,0,0,0,0,'1',0,[
]),
poly('black','',2,[
	152,220,152,196],1,1,1,1683,1,0,0,0,0,0,0,'1',0,0,
    "0","",[
    0,8,3,0,'8','3','0'],[0,8,3,0,'8','3','0'],[
]),
arc('black','',0,1,1,0,212,100,228,116,228,132,212,116,1,32,32,-5760,-5760,2552,0,0,8,3,0,0,0,'1','8','3',0,[
]),
poly('black','',2,[
	228,132,280,132],1,1,1,2553,1,0,0,0,0,0,0,'1',0,0,
    "0","",[
    0,8,3,0,'8','3','0'],[0,8,3,0,'8','3','0'],[
]),
poly('black','',2,[
	385,164,228,164],1,1,1,2554,1,0,0,0,0,0,0,'1',0,0,
    "0","",[
    0,8,3,0,'8','3','0'],[0,8,3,0,'8','3','0'],[
]),
arc('black','',0,1,1,0,369,132,385,148,385,132,401,148,1,32,32,5760,-5760,2555,0,0,8,3,0,0,0,'1','8','3',0,[
]),
arc('black','',0,1,1,0,369,132,385,148,385,164,401,148,0,32,32,-5760,5760,2556,0,0,8,3,0,0,0,'1','8','3',0,[
]),
poly('black','',2,[
	365,132,389,132],1,1,1,2557,1,0,0,0,0,0,0,'1',0,0,
    "0","",[
    0,8,3,0,'8','3','0'],[0,8,3,0,'8','3','0'],[
]),
arc('black','',0,1,1,0,212,164,228,180,228,164,212,180,0,32,32,5760,5760,2558,0,0,8,3,0,0,0,'1','8','3',0,[
]),
text('black',172,59,1,0,1,152,22,2559,17,5,0,0,0,0,2,152,22,0,0,"",0,0,0,0,76,'',[
minilines(152,22,0,0,0,0,0,[
mini_line(152,17,5,0,0,0,[
str_block(0,152,17,5,0,0,0,0,0,[
str_seg('black','Times-Italic',2,103680,152,17,5,0,0,0,0,0,0,0,
	"Feature_declaration")])
])
])]),
arc('black','',0,1,1,0,152,204,168,220,168,236,152,220,1,32,32,-5760,-5760,2563,0,0,8,3,0,0,0,'1','8','3',0,[
]),
poly('black','',2,[
	200,236,168,236],1,1,1,2565,1,0,0,0,0,0,0,'1',0,0,
    "0","",[
    0,8,3,0,'8','3','0'],[0,8,3,0,'8','3','0'],[
]),
arc('black','',0,1,1,0,180,204,196,220,196,236,212,220,0,32,32,-5760,5760,2567,0,0,8,3,0,0,0,'1','8','3',0,[
]),
poly('black','',2,[
	212,80,212,196],1,1,1,2574,1,0,0,0,0,0,0,'1',0,0,
    "0","",[
    0,8,3,0,'8','3','0'],[0,8,3,0,'8','3','0'],[
]),
text('black',250,197,1,1,1,109,22,2586,17,5,0,0,0,0,2,109,22,0,0,"",0,0,0,0,214,'',[
minilines(109,22,0,0,1,0,0,[
mini_line(109,17,5,0,0,0,[
str_block(0,109,17,5,0,0,0,0,0,[
str_seg('black','Times-Italic',2,103680,109,17,5,0,0,0,0,0,0,0,
	"Feature_name")])
])
])]),
box('black','',179,195,322,219,0,1,1,2585,0,0,0,0,0,'1',0,[
]),
poly('black','',2,[
	152,164,152,116],1,1,1,2593,1,0,0,0,0,0,0,'1',0,0,
    "0","",[
    0,8,3,0,'8','3','0'],[0,8,3,0,'8','3','0'],[
]),
arc('black','',0,1,1,0,152,104,168,120,168,104,152,120,0,32,32,5760,5760,2597,0,0,8,3,0,0,0,'1','8','3',0,[
]),
poly('black','',2,[
	168,104,196,104],1,1,1,2599,1,0,0,0,0,0,0,'1',0,0,
    "0","",[
    0,8,3,0,'8','3','0'],[0,8,3,0,'8','3','0'],[
]),
arc('black','',0,1,1,0,180,104,196,120,196,104,212,120,1,32,32,5760,-5760,2602,0,0,8,3,0,0,0,'1','8','3',0,[
]),
poly('black','',2,[
	212,224,212,512],1,1,1,2606,1,0,0,0,0,0,0,'1',0,0,
    "0","",[
    0,8,3,0,'8','3','0'],[0,8,3,0,'8','3','0'],[
]),
text('black',414,236,1,1,1,171,22,2618,17,5,0,0,0,0,2,171,22,0,1,"",0,0,0,0,253,'',[
minilines(171,22,0,1,1,0,0,[
mini_line(171,17,5,0,1,0,[
str_block(0,171,17,5,0,1,0,0,0,[
str_seg('black','Times-Italic',2,103680,171,17,5,0,1,0,0,0,0,0,
	"Entity_declaration_list")])
])
])]),
box('black','',304,236,524,260,0,1,1,2619,0,0,0,0,0,'1',0,[
]),
text('black',266,240,1,1,1,9,16,2620,12,4,0,0,0,0,2,9,16,0,0,"",0,0,0,0,252,'',[
minilines(9,16,0,0,1,0,0,[
mini_line(9,12,4,0,0,0,[
str_block(0,9,12,4,0,-2,0,0,0,[
str_seg('black','Courier-Bold',1,80640,9,12,4,0,-2,0,0,0,0,0,
	"(")])
])
])]),
rcbox('black','',248,232,284,264,0,1,1,0,16,2621,0,0,0,0,'1',0,[
]),
text('black',562,240,1,1,1,9,16,2622,12,4,0,0,0,0,2,9,16,0,0,"",0,0,0,0,252,'',[
minilines(9,16,0,0,1,0,0,[
mini_line(9,12,4,0,0,0,[
str_block(0,9,12,4,0,-3,0,0,0,[
str_seg('black','Courier-Bold',1,80640,9,12,4,0,-3,0,0,0,0,0,
	")")])
])
])]),
rcbox('black','',544,232,580,264,0,1,1,0,16,2623,0,0,0,0,'1',0,[
]),
poly('black','',2,[
	284,248,304,248],1,1,1,2624,1,0,0,0,0,0,0,'1',0,0,
    "0","",[
    0,8,3,0,'8','3','0'],[0,8,3,0,'8','3','0'],[
]),
poly('black','',2,[
	524,248,544,248],1,1,1,2632,1,0,0,0,0,0,0,'1',0,0,
    "0","",[
    0,8,3,0,'8','3','0'],[0,8,3,0,'8','3','0'],[
]),
arc('black','',0,1,1,0,212,216,228,232,228,248,212,232,1,32,32,-5760,-5760,2634,0,0,8,3,0,0,0,'1','8','3',0,[
]),
poly('black','',2,[
	228,248,248,248],1,1,1,2636,1,0,0,0,0,0,0,'1',0,0,
    "0","",[
    0,8,3,0,'8','3','0'],[0,8,3,0,'8','3','0'],[
]),
arc('black','',0,1,1,0,532,248,548,264,548,280,564,264,0,32,32,-5760,5760,2650,0,0,8,3,0,0,0,'1','8','3',0,[
]),
poly('black','',2,[
	552,280,228,280],1,1,1,2651,1,0,0,0,0,0,0,'1',0,0,
    "0","",[
    0,8,3,0,'8','3','0'],[0,8,3,0,'8','3','0'],[
]),
arc('black','',0,1,1,0,212,280,228,296,228,280,212,296,0,32,32,5760,5760,2652,0,0,8,3,0,0,0,'1','8','3',0,[
]),
text('black',298,308,1,1,1,9,16,2697,12,4,0,0,0,0,2,9,16,0,0,"",0,0,0,0,320,'',[
minilines(9,16,0,0,1,0,0,[
mini_line(9,12,4,0,0,0,[
str_block(0,9,12,4,0,-4,0,0,0,[
str_seg('black','Courier-Bold',1,80640,9,12,4,0,-4,0,0,0,0,0,
	":")])
])
])]),
rcbox('black','',280,300,316,332,0,1,1,0,16,2698,0,0,0,0,'1',0,[
]),
poly('black','',2,[
	316,316,344,316],1,1,1,2699,1,0,0,0,0,0,0,'1',0,0,
    "0","",[
    0,8,3,0,'8','3','0'],[0,8,3,0,'8','3','0'],[
]),
arc('black','',0,1,1,0,212,284,228,300,228,316,212,300,1,32,32,-5760,-5760,2700,0,0,8,3,0,0,0,'1','8','3',0,[
]),
poly('black','',2,[
	228,316,280,316],1,1,1,2701,1,0,0,0,0,0,0,'1',0,0,
    "0","",[
    0,8,3,0,'8','3','0'],[0,8,3,0,'8','3','0'],[
]),
text('black',370,305,1,1,1,35,22,2703,17,5,0,0,0,0,2,35,22,0,0,"",0,0,0,0,322,'',[
minilines(35,22,0,0,1,0,0,[
mini_line(35,17,5,0,0,0,[
str_block(0,35,17,5,0,0,0,0,0,[
str_seg('black','Times-Italic',2,103680,35,17,5,0,0,0,0,0,0,0,
	"Type")])
])
])]),
box('black','',344,303,397,327,0,1,1,2704,0,0,0,0,0,'1',0,[
]),
arc('black','',0,1,1,0,409,316,425,332,425,316,441,332,1,32,32,5760,-5760,2705,0,0,8,3,0,0,0,'1','8','3',0,[
]),
poly('black','',2,[
	401,316,429,316],1,1,1,2706,1,0,0,0,0,0,0,'1',0,0,
    "0","",[
    0,8,3,0,'8','3','0'],[0,8,3,0,'8','3','0'],[
]),
arc('black','',0,1,1,0,409,316,425,332,425,348,441,332,0,32,32,-5760,5760,2721,0,0,8,3,0,0,0,'1','8','3',0,[
]),
poly('black','',2,[
	425,348,228,348],1,1,1,2722,1,0,0,0,0,0,0,'1',0,0,
    "0","",[
    0,8,3,0,'8','3','0'],[0,8,3,0,'8','3','0'],[
]),
arc('black','',0,1,1,0,212,348,228,364,228,348,212,364,0,32,32,5760,5760,2723,0,0,8,3,0,0,0,'1','8','3',0,[
]),
arc('black','',0,1,1,0,212,368,228,384,228,400,212,384,1,32,32,-5760,-5760,2727,0,0,8,3,0,0,0,'1','8','3',0,[
]),
poly('black','',2,[
	228,400,248,400],1,1,1,2729,1,0,0,0,0,0,0,'1',0,0,
    "0","",[
    0,8,3,0,'8','3','0'],[0,8,3,0,'8','3','0'],[
]),
text('black',272,392,1,1,1,18,16,2732,12,4,0,0,0,0,2,18,16,0,0,"",0,0,0,0,404,'',[
minilines(18,16,0,0,1,0,0,[
mini_line(18,12,4,0,0,0,[
str_block(0,18,12,4,0,-1,0,0,0,[
str_seg('black','Courier-Bold',1,80640,18,12,4,0,-1,0,0,0,0,0,
	"is")])
])
])]),
rcbox('black','',248,384,296,416,0,1,1,0,16,2733,0,0,0,0,'1',0,[
]),
text('black',388,357,1,1,1,58,22,2736,17,5,0,0,0,0,2,58,22,0,0,"",0,0,0,0,374,'',[
minilines(58,22,0,0,1,0,0,[
mini_line(58,17,5,0,0,0,[
str_block(0,58,17,5,0,0,0,0,0,[
str_seg('black','Times-Italic',2,103680,58,17,5,0,0,0,0,0,0,0,
	"Routine")])
])
])]),
box('black','',348,355,428,379,0,1,1,2737,0,0,0,0,0,'1',0,[
]),
text('black',433,389,1,1,1,141,22,2741,17,5,0,0,0,0,2,141,22,0,1,"",0,0,0,0,406,'',[
minilines(141,22,0,1,1,0,0,[
mini_line(141,17,5,0,1,0,[
str_block(0,141,17,5,0,1,0,0,0,[
str_seg('black','Times-Italic',2,103680,141,17,5,0,1,0,0,0,0,0,
	"Manifest_constant")])
])
])]),
box('black','',348,387,519,411,0,1,1,2742,0,0,0,0,0,'1',0,[
]),
text('black',388,424,1,1,1,54,16,2745,12,4,0,0,0,0,2,54,16,0,0,"",0,0,0,0,436,'',[
minilines(54,16,0,0,1,0,0,[
mini_line(54,12,4,0,0,0,[
str_block(0,54,12,4,0,-1,0,0,0,[
str_seg('black','Courier-Bold',1,80640,54,12,4,0,-1,0,0,0,0,0,
	"unique")])
])
])]),
rcbox('black','',348,416,429,448,0,1,1,0,16,2746,0,0,0,0,'1',0,[
]),
poly('black','',2,[
	296,400,316,400],1,1,1,2758,1,0,0,0,0,0,0,'1',0,0,
    "0","",[
    0,8,3,0,'8','3','0'],[0,8,3,0,'8','3','0'],[
]),
arc('black','',0,1,1,0,300,368,316,384,316,400,332,384,0,32,32,-5760,5760,2760,0,0,8,3,0,0,0,'1','8','3',0,[
]),
arc('black','',0,1,1,0,332,368,348,384,348,368,332,384,0,32,32,5760,5760,2762,0,0,8,3,0,0,0,'1','8','3',0,[
]),
poly('black','',2,[
	320,400,348,400],1,1,1,2764,1,0,0,0,0,0,0,'1',0,0,
    "0","",[
    0,8,3,0,'8','3','0'],[0,8,3,0,'8','3','0'],[
]),
arc('black','',0,1,1,0,300,400,316,416,316,400,332,416,1,32,32,5760,-5760,2767,0,0,8,3,0,0,0,'1','8','3',0,[
]),
arc('black','',0,1,1,0,332,400,348,416,348,432,332,416,1,32,32,-5760,-5760,2769,0,0,8,3,0,0,0,'1','8','3',0,[
]),
poly('black','',2,[
	428,368,544,368],1,1,1,2771,1,0,0,0,0,0,0,'1',0,0,
    "0","",[
    0,8,3,0,'8','3','0'],[0,8,3,0,'8','3','0'],[
]),
poly('black','',2,[
	519,400,544,400],1,1,1,2772,1,0,0,0,0,0,0,'1',0,0,
    "0","",[
    0,8,3,0,'8','3','0'],[0,8,3,0,'8','3','0'],[
]),
poly('black','',2,[
	429,432,544,432],1,1,1,2773,1,0,0,0,0,0,0,'1',0,0,
    "0","",[
    0,8,3,0,'8','3','0'],[0,8,3,0,'8','3','0'],[
]),
arc('black','',0,1,1,0,524,368,540,384,540,368,556,384,1,32,32,5760,-5760,2778,0,0,8,3,0,0,0,'1','8','3',0,[
]),
arc('black','',0,1,1,0,524,400,540,416,540,400,556,416,1,32,32,5760,-5760,2779,0,0,8,3,0,0,0,'1','8','3',0,[
]),
arc('black','',0,1,1,0,524,432,540,448,540,432,556,448,1,32,32,5760,-5760,2780,0,0,8,3,0,0,0,'1','8','3',0,[
]),
poly('black','',2,[
	556,384,556,444],1,1,1,2783,1,0,0,0,0,0,0,'1',0,0,
    "0","",[
    0,8,3,0,'8','3','0'],[0,8,3,0,'8','3','0'],[
]),
arc('black','',0,1,1,0,524,432,540,448,540,464,556,448,0,32,32,-5760,5760,2789,0,0,8,3,0,0,0,'1','8','3',0,[
]),
poly('black','',2,[
	541,464,228,464],1,1,1,2793,1,0,0,0,0,0,0,'1',0,0,
    "0","",[
    0,8,3,0,'8','3','0'],[0,8,3,0,'8','3','0'],[
]),
arc('black','',0,1,1,0,212,464,228,480,228,464,212,480,0,32,32,5760,5760,2798,0,0,8,3,0,0,0,'1','8','3',0,[
])
],
22673,0,0,[
]).
