%TGIF 4.1.40
state(0,37,100.000,0,0,1,4,1,9,2,0,4,1,1,0,1,1,'NewCenturySchlbk-Roman',0,195840,0,0,1,5,0,0,1,1,0,16,0,0,1,1,1,1,1088,1408,1,0,2880,0).
%
% @(#)$Header$
% %W%
%
unit("1 pixel/pixel").
color_info(11,65535,0,[
	"magenta", 65535, 0, 65535, 65535, 0, 65535, 1,
	"red", 65535, 0, 0, 65535, 0, 0, 1,
	"green", 0, 65535, 0, 0, 65535, 0, 1,
	"blue", 0, 0, 65535, 0, 0, 65535, 1,
	"yellow", 65535, 65535, 0, 65535, 65535, 0, 1,
	"pink", 65535, 48830, 52942, 65535, 49344, 52171, 1,
	"cyan", 0, 65535, 65535, 0, 65535, 65535, 1,
	"CadetBlue", 25443, 40606, 40092, 24415, 40606, 41120, 1,
	"white", 65535, 65535, 65535, 65535, 65535, 65535, 1,
	"black", 0, 0, 0, 0, 0, 0, 1,
	"DarkSlateGray", 12593, 19789, 21074, 12079, 20303, 20303, 1
]).
script_frac("0.6").
fg_bg_colors('black','white').
page(1,"",1,'').
text('magenta',759,316,1,1,1,60,33,13200,26,7,0,0,0,0,2,60,33,0,0,"",0,0,0,0,342,'',[
minilines(60,33,0,0,1,0,0,[
mini_line(60,26,7,0,0,0,[
str_block(0,60,26,7,0,-4,0,0,0,[
str_seg('black','Courier-Bold',1,195840,60,26,7,0,-4,0,0,0,0,0,
	"2.0")])
])
])]).
text('magenta',759,355,1,1,1,60,33,13201,26,7,0,0,0,0,2,60,33,0,0,"",0,0,0,0,381,'',[
minilines(60,33,0,0,1,0,0,[
mini_line(60,26,7,0,0,0,[
str_block(0,60,26,7,0,-4,0,0,0,[
str_seg('black','Courier-Bold',1,195840,60,26,7,0,-4,0,0,0,0,0,
	"2.0")])
])
])]).
box('black','',697,311,825,391,0,2,1,13202,0,0,0,0,0,'2',0,[
]).
poly('black','',2,[
	697,351,825,351],0,2,1,13203,1,1,0,0,0,0,0,'2',0,0,
    "0","",[
    0,10,4,0,'10','4','0'],[0,10,4,0,'10','4','0'],[
]).
text('magenta',673,314,1,0,1,20,33,13204,26,7,0,0,0,0,2,20,33,0,0,"",0,0,0,0,340,'',[
minilines(20,33,0,0,0,0,0,[
mini_line(20,26,7,0,0,0,[
str_block(0,20,26,7,0,-1,0,0,0,[
str_seg('black','Courier-Bold',1,195840,20,26,7,0,-1,0,0,0,0,0,
	"X")])
])
])]).
text('magenta',673,353,1,0,1,20,33,13205,26,7,0,0,0,0,2,20,33,0,0,"",0,0,0,0,379,'',[
minilines(20,33,0,0,0,0,0,[
mini_line(20,26,7,0,0,0,[
str_block(0,20,26,7,0,0,0,0,0,[
str_seg('black','Courier-Bold',1,195840,20,26,7,0,0,0,0,0,0,0,
	"y")])
])
])]).
text('magenta',752,292,1,1,1,88,20,13206,15,5,0,0,0,0,2,88,20,0,0,"",0,0,0,0,307,'',[
minilines(88,20,0,0,1,0,0,[
mini_line(88,15,5,0,0,0,[
str_block(0,88,15,5,0,-1,0,0,0,[
str_seg('black','Courier-Bold',1,115200,88,15,5,0,-1,0,0,0,0,0,
	"un POINT")])
])
])]).
box('black','',697,287,807,311,0,2,1,13207,0,0,0,0,0,'2',0,[
]).
text('magenta',507,266,1,1,1,80,33,13209,26,7,0,0,0,0,2,80,33,-1,0,"",0,0,0,0,292,'',[
minilines(80,33,-1,0,1,0,0,[
mini_line(80,26,7,-1,0,0,[
str_block(0,80,26,7,-1,0,0,0,0,[
str_seg('black','Courier-Bold',1,195840,80,26,7,-1,0,0,0,0,0,0,
	"Void")])
])
])]).
oval('black','',496,236,515,256,1,5,0,13215,0,0,0,0,0,'5',0,[
]).
oval('black','',496,196,515,216,1,5,0,13216,0,0,0,0,0,'5',0,[
]).
text('magenta',421,187,1,1,1,40,33,13218,26,7,0,0,0,0,2,40,33,0,0,"",0,0,0,0,213,'',[
minilines(40,33,0,0,1,0,0,[
mini_line(40,26,7,0,0,0,[
str_block(0,40,26,7,0,-3,0,0,0,[
str_seg('black','Courier-Bold',1,195840,40,26,7,0,-3,0,0,0,0,0,
	"P1")])
])
])]).
text('magenta',421,227,1,1,1,40,33,13219,26,7,0,0,0,0,2,40,33,0,0,"",0,0,0,0,253,'',[
minilines(40,33,0,0,1,0,0,[
mini_line(40,26,7,0,0,0,[
str_block(0,40,26,7,0,-4,0,0,0,[
str_seg('black','Courier-Bold',1,195840,40,26,7,0,-4,0,0,0,0,0,
	"P2")])
])
])]).
text('magenta',421,267,1,1,1,40,33,13220,26,7,0,0,0,0,2,40,33,0,0,"",0,0,0,0,293,'',[
minilines(40,33,0,0,1,0,0,[
mini_line(40,26,7,0,0,0,[
str_block(0,40,26,7,0,-3,0,0,0,[
str_seg('black','Courier-Bold',1,195840,40,26,7,0,-3,0,0,0,0,0,
	"P3")])
])
])]).
text('magenta',759,196,1,1,1,60,33,13222,26,7,0,0,0,0,2,60,33,0,0,"",0,0,0,0,222,'',[
minilines(60,33,0,0,1,0,0,[
mini_line(60,26,7,0,0,0,[
str_block(0,60,26,7,0,-4,0,0,0,[
str_seg('black','Courier-Bold',1,195840,60,26,7,0,-4,0,0,0,0,0,
	"1.0")])
])
])]).
text('magenta',759,235,1,1,1,60,33,13223,26,7,0,0,0,0,2,60,33,0,0,"",0,0,0,0,261,'',[
minilines(60,33,0,0,1,0,0,[
mini_line(60,26,7,0,0,0,[
str_block(0,60,26,7,0,-4,0,0,0,[
str_seg('black','Courier-Bold',1,195840,60,26,7,0,-4,0,0,0,0,0,
	"1.0")])
])
])]).
box('black','',697,191,825,271,0,2,1,13224,0,0,0,0,0,'2',0,[
]).
poly('black','',2,[
	697,231,825,231],0,2,1,13225,1,1,0,0,0,0,0,'2',0,0,
    "0","",[
    0,10,4,0,'10','4','0'],[0,10,4,0,'10','4','0'],[
]).
text('magenta',673,194,1,0,1,20,33,13226,26,7,0,0,0,0,2,20,33,0,0,"",0,0,0,0,220,'',[
minilines(20,33,0,0,0,0,0,[
mini_line(20,26,7,0,0,0,[
str_block(0,20,26,7,0,-1,0,0,0,[
str_seg('black','Courier-Bold',1,195840,20,26,7,0,-1,0,0,0,0,0,
	"X")])
])
])]).
text('magenta',673,233,1,0,1,20,33,13227,26,7,0,0,0,0,2,20,33,0,0,"",0,0,0,0,259,'',[
minilines(20,33,0,0,0,0,0,[
mini_line(20,26,7,0,0,0,[
str_block(0,20,26,7,0,0,0,0,0,[
str_seg('black','Courier-Bold',1,195840,20,26,7,0,0,0,0,0,0,0,
	"y")])
])
])]).
text('magenta',752,172,1,1,1,88,20,13228,15,5,0,0,0,0,2,88,20,0,0,"",0,0,0,0,187,'',[
minilines(88,20,0,0,1,0,0,[
mini_line(88,15,5,0,0,0,[
str_block(0,88,15,5,0,-1,0,0,0,[
str_seg('black','Courier-Bold',1,115200,88,15,5,0,-1,0,0,0,0,0,
	"un POINT")])
])
])]).
box('black','',697,167,807,191,0,2,1,13229,0,0,0,0,0,'2',0,[
]).
box('black','',200,242,328,282,0,2,1,13235,0,0,0,0,0,'2',0,[
]).
text('magenta',189,246,1,2,1,40,33,13236,26,7,0,0,0,0,2,40,33,0,0,"",0,0,0,0,272,'',[
minilines(40,33,0,0,2,0,0,[
mini_line(40,26,7,0,0,0,[
str_block(0,40,26,7,0,-4,0,0,0,[
str_seg('black','Courier-Bold',1,195840,40,26,7,0,-4,0,0,0,0,0,
	"t2")])
])
])]).
oval('black','',251,250,270,270,1,5,0,13237,0,0,0,0,0,'5',0,[
]).
poly('black','',2,[
	262,260,382,260],1,5,1,13238,1,0,0,0,0,0,0,'5',0,0,
    "0","",[
    0,18,7,0,'18','7','0'],[0,18,7,0,'18','7','0'],[
]).
poly('black','',3,[
	505,250,605,250,665,305],1,5,1,13239,1,0,0,0,0,0,0,'5',0,0,
    "4","",[
    0,18,7,0,'18','7','0'],[0,18,7,0,'18','7','0'],[
]).
poly('black','',2,[
	505,205,660,205],1,5,1,13240,1,0,0,0,0,0,0,'5',0,0,
    "0","",[
    0,18,7,0,'18','7','0'],[0,18,7,0,'18','7','0'],[
]).
box('black','',200,352,328,392,0,2,1,13265,0,0,0,0,0,'2',0,[
]).
text('magenta',189,356,1,2,1,40,33,13266,26,7,0,0,0,0,2,40,33,0,0,"",0,0,0,0,382,'',[
minilines(40,33,0,0,2,0,0,[
mini_line(40,26,7,0,0,0,[
str_block(0,40,26,7,0,-3,0,0,0,[
str_seg('black','Courier-Bold',1,195840,40,26,7,0,-3,0,0,0,0,0,
	"t1")])
])
])]).
text('magenta',759,681,1,1,1,60,33,13270,26,7,0,0,0,0,2,60,33,0,0,"",0,0,0,0,707,'',[
minilines(60,33,0,0,1,0,0,[
mini_line(60,26,7,0,0,0,[
str_block(0,60,26,7,0,-4,0,0,0,[
str_seg('black','Courier-Bold',1,195840,60,26,7,0,-4,0,0,0,0,0,
	"2.0")])
])
])]).
text('magenta',759,720,1,1,1,60,33,13271,26,7,0,0,0,0,2,60,33,0,0,"",0,0,0,0,746,'',[
minilines(60,33,0,0,1,0,0,[
mini_line(60,26,7,0,0,0,[
str_block(0,60,26,7,0,-4,0,0,0,[
str_seg('black','Courier-Bold',1,195840,60,26,7,0,-4,0,0,0,0,0,
	"2.0")])
])
])]).
box('black','',697,676,825,756,0,2,1,13272,0,0,0,0,0,'2',0,[
]).
poly('black','',2,[
	697,716,825,716],0,2,1,13273,1,1,0,0,0,0,0,'2',0,0,
    "0","",[
    0,10,4,0,'10','4','0'],[0,10,4,0,'10','4','0'],[
]).
text('magenta',673,679,1,0,1,20,33,13274,26,7,0,0,0,0,2,20,33,0,0,"",0,0,0,0,705,'',[
minilines(20,33,0,0,0,0,0,[
mini_line(20,26,7,0,0,0,[
str_block(0,20,26,7,0,-1,0,0,0,[
str_seg('black','Courier-Bold',1,195840,20,26,7,0,-1,0,0,0,0,0,
	"X")])
])
])]).
text('magenta',673,718,1,0,1,20,33,13275,26,7,0,0,0,0,2,20,33,0,0,"",0,0,0,0,744,'',[
minilines(20,33,0,0,0,0,0,[
mini_line(20,26,7,0,0,0,[
str_block(0,20,26,7,0,0,0,0,0,[
str_seg('black','Courier-Bold',1,195840,20,26,7,0,0,0,0,0,0,0,
	"y")])
])
])]).
text('magenta',752,657,1,1,1,88,20,13276,15,5,0,0,0,0,2,88,20,0,0,"",0,0,0,0,672,'',[
minilines(88,20,0,0,1,0,0,[
mini_line(88,15,5,0,0,0,[
str_block(0,88,15,5,0,-1,0,0,0,[
str_seg('black','Courier-Bold',1,115200,88,15,5,0,-1,0,0,0,0,0,
	"un POINT")])
])
])]).
box('black','',697,652,807,676,0,2,1,13277,0,0,0,0,0,'2',0,[
]).
text('magenta',507,631,1,1,1,80,33,13278,26,7,0,0,0,0,2,80,33,-1,0,"",0,0,0,0,657,'',[
minilines(80,33,-1,0,1,0,0,[
mini_line(80,26,7,-1,0,0,[
str_block(0,80,26,7,-1,0,0,0,0,[
str_seg('black','Courier-Bold',1,195840,80,26,7,-1,0,0,0,0,0,0,
	"Void")])
])
])]).
oval('black','',496,601,515,621,1,5,0,13284,0,0,0,0,0,'5',0,[
]).
oval('black','',496,561,515,581,1,5,0,13285,0,0,0,0,0,'5',0,[
]).
text('magenta',421,552,1,1,1,40,33,13287,26,7,0,0,0,0,2,40,33,0,0,"",0,0,0,0,578,'',[
minilines(40,33,0,0,1,0,0,[
mini_line(40,26,7,0,0,0,[
str_block(0,40,26,7,0,-3,0,0,0,[
str_seg('black','Courier-Bold',1,195840,40,26,7,0,-3,0,0,0,0,0,
	"P1")])
])
])]).
text('magenta',421,592,1,1,1,40,33,13288,26,7,0,0,0,0,2,40,33,0,0,"",0,0,0,0,618,'',[
minilines(40,33,0,0,1,0,0,[
mini_line(40,26,7,0,0,0,[
str_block(0,40,26,7,0,-4,0,0,0,[
str_seg('black','Courier-Bold',1,195840,40,26,7,0,-4,0,0,0,0,0,
	"P2")])
])
])]).
text('magenta',421,632,1,1,1,40,33,13289,26,7,0,0,0,0,2,40,33,0,0,"",0,0,0,0,658,'',[
minilines(40,33,0,0,1,0,0,[
mini_line(40,26,7,0,0,0,[
str_block(0,40,26,7,0,-3,0,0,0,[
str_seg('black','Courier-Bold',1,195840,40,26,7,0,-3,0,0,0,0,0,
	"P3")])
])
])]).
text('magenta',759,561,1,1,1,60,33,13290,26,7,0,0,0,0,2,60,33,0,0,"",0,0,0,0,587,'',[
minilines(60,33,0,0,1,0,0,[
mini_line(60,26,7,0,0,0,[
str_block(0,60,26,7,0,-4,0,0,0,[
str_seg('black','Courier-Bold',1,195840,60,26,7,0,-4,0,0,0,0,0,
	"1.0")])
])
])]).
text('magenta',759,600,1,1,1,60,33,13291,26,7,0,0,0,0,2,60,33,0,0,"",0,0,0,0,626,'',[
minilines(60,33,0,0,1,0,0,[
mini_line(60,26,7,0,0,0,[
str_block(0,60,26,7,0,-4,0,0,0,[
str_seg('black','Courier-Bold',1,195840,60,26,7,0,-4,0,0,0,0,0,
	"1.0")])
])
])]).
box('black','',697,556,825,636,0,2,1,13292,0,0,0,0,0,'2',0,[
]).
poly('black','',2,[
	697,596,825,596],0,2,1,13293,1,1,0,0,0,0,0,'2',0,0,
    "0","",[
    0,10,4,0,'10','4','0'],[0,10,4,0,'10','4','0'],[
]).
text('magenta',673,559,1,0,1,20,33,13294,26,7,0,0,0,0,2,20,33,0,0,"",0,0,0,0,585,'',[
minilines(20,33,0,0,0,0,0,[
mini_line(20,26,7,0,0,0,[
str_block(0,20,26,7,0,-1,0,0,0,[
str_seg('black','Courier-Bold',1,195840,20,26,7,0,-1,0,0,0,0,0,
	"X")])
])
])]).
text('magenta',673,598,1,0,1,20,33,13295,26,7,0,0,0,0,2,20,33,0,0,"",0,0,0,0,624,'',[
minilines(20,33,0,0,0,0,0,[
mini_line(20,26,7,0,0,0,[
str_block(0,20,26,7,0,0,0,0,0,[
str_seg('black','Courier-Bold',1,195840,20,26,7,0,0,0,0,0,0,0,
	"y")])
])
])]).
text('magenta',752,537,1,1,1,88,20,13296,15,5,0,0,0,0,2,88,20,0,0,"",0,0,0,0,552,'',[
minilines(88,20,0,0,1,0,0,[
mini_line(88,15,5,0,0,0,[
str_block(0,88,15,5,0,-1,0,0,0,[
str_seg('black','Courier-Bold',1,115200,88,15,5,0,-1,0,0,0,0,0,
	"un POINT")])
])
])]).
box('black','',697,532,807,556,0,2,1,13297,0,0,0,0,0,'2',0,[
]).
box('black','',200,607,328,647,0,2,1,13298,0,0,0,0,0,'2',0,[
]).
text('magenta',189,611,1,2,1,40,33,13299,26,7,0,0,0,0,2,40,33,0,0,"",0,0,0,0,637,'',[
minilines(40,33,0,0,2,0,0,[
mini_line(40,26,7,0,0,0,[
str_block(0,40,26,7,0,-4,0,0,0,[
str_seg('black','Courier-Bold',1,195840,40,26,7,0,-4,0,0,0,0,0,
	"t2")])
])
])]).
oval('black','',251,615,270,635,1,5,0,13300,0,0,0,0,0,'5',0,[
]).
poly('black','',2,[
	262,625,382,625],1,5,1,13301,1,0,0,0,0,0,0,'5',0,0,
    "0","",[
    0,18,7,0,'18','7','0'],[0,18,7,0,'18','7','0'],[
]).
poly('black','',3,[
	505,615,605,615,665,670],1,5,1,13302,1,0,0,0,0,0,0,'5',0,0,
    "4","",[
    0,18,7,0,'18','7','0'],[0,18,7,0,'18','7','0'],[
]).
poly('black','',2,[
	505,570,660,570],1,5,1,13303,1,0,0,0,0,0,0,'5',0,0,
    "0","",[
    0,18,7,0,'18','7','0'],[0,18,7,0,'18','7','0'],[
]).
poly('black','',2,[
	230,804,358,804],0,5,2,13304,1,2,0,0,0,0,0,'5',0,0,
    "0","",[
    0,18,7,0,'18','7','0'],[0,18,7,0,'18','7','0'],[
]).
text('magenta',421,712,1,1,1,40,33,13317,26,7,0,0,0,0,2,40,33,0,0,"",0,0,0,0,738,'',[
minilines(40,33,0,0,1,0,0,[
mini_line(40,26,7,0,0,0,[
str_block(0,40,26,7,0,-3,0,0,0,[
str_seg('black','Courier-Bold',1,195840,40,26,7,0,-3,0,0,0,0,0,
	"P1")])
])
])]).
text('magenta',421,752,1,1,1,40,33,13318,26,7,0,0,0,0,2,40,33,0,0,"",0,0,0,0,778,'',[
minilines(40,33,0,0,1,0,0,[
mini_line(40,26,7,0,0,0,[
str_block(0,40,26,7,0,-4,0,0,0,[
str_seg('black','Courier-Bold',1,195840,40,26,7,0,-4,0,0,0,0,0,
	"P2")])
])
])]).
text('magenta',421,792,1,1,1,40,33,13319,26,7,0,0,0,0,2,40,33,0,0,"",0,0,0,0,818,'',[
minilines(40,33,0,0,1,0,0,[
mini_line(40,26,7,0,0,0,[
str_block(0,40,26,7,0,-3,0,0,0,[
str_seg('black','Courier-Bold',1,195840,40,26,7,0,-3,0,0,0,0,0,
	"P3")])
])
])]).
box('black','',200,717,328,757,0,2,1,13321,0,0,0,0,0,'2',0,[
]).
text('magenta',189,721,1,2,1,40,33,13322,26,7,0,0,0,0,2,40,33,0,0,"",0,0,0,0,747,'',[
minilines(40,33,0,0,2,0,0,[
mini_line(40,26,7,0,0,0,[
str_block(0,40,26,7,0,-3,0,0,0,[
str_seg('black','Courier-Bold',1,195840,40,26,7,0,-3,0,0,0,0,0,
	"t1")])
])
])]).
oval('black','',251,725,270,745,1,5,0,13323,0,0,0,0,0,'5',0,[
]).
poly('black','',2,[
	262,735,382,735],1,5,1,13324,1,0,0,0,0,0,0,'5',0,0,
    "0","",[
    0,18,7,0,'18','7','0'],[0,18,7,0,'18','7','0'],[
]).
text('magenta',507,796,1,1,1,80,33,13325,26,7,0,0,0,0,2,80,33,-1,0,"",0,0,0,0,822,'',[
minilines(80,33,-1,0,1,0,0,[
mini_line(80,26,7,-1,0,0,[
str_block(0,80,26,7,-1,0,0,0,0,[
str_seg('black','Courier-Bold',1,195840,80,26,7,-1,0,0,0,0,0,0,
	"Void")])
])
])]).
oval('black','',496,761,515,781,1,5,0,13326,0,0,0,0,0,'5',0,[
]).
oval('black','',496,721,515,741,1,5,0,13327,0,0,0,0,0,'5',0,[
]).
poly('black','',3,[
	510,770,605,770,665,745],1,5,1,13328,1,0,0,0,0,0,0,'5',0,0,
    "4","",[
    0,18,7,0,'18','7','0'],[0,18,7,0,'18','7','0'],[
]).
poly('black','',5,[
	505,735,595,725,595,670,630,610,665,595],1,5,1,13329,1,0,0,0,0,0,0,'5',0,0,
    "70","",[
    0,18,7,0,'18','7','0'],[0,18,7,0,'18','7','0'],[
]).
poly('black','',2,[
	154,490,1001,490],0,7,1,13330,1,1,0,0,0,0,0,'7',0,0,
    "0","",[
    0,22,9,0,'22','9','0'],[0,22,9,0,'22','9','0'],[
]).
text('magenta',262,356,1,1,1,80,33,13881,26,7,0,0,0,0,2,80,33,-1,0,"",0,0,0,0,382,'',[
minilines(80,33,-1,0,1,0,0,[
mini_line(80,26,7,-1,0,0,[
str_block(0,80,26,7,-1,0,0,0,0,[
str_seg('black','Courier-Bold',1,195840,80,26,7,-1,0,0,0,0,0,0,
	"Void")])
])
])]).
poly('black','',3,[
	55,445,25,495,60,550],1,5,1,13334,1,0,0,0,0,0,0,'5',0,0,
    "4","",[
    0,18,7,0,'18','7','0'],[0,18,7,0,'18','7','0'],[
]).
poly('black','',2,[
	170,444,298,444],0,5,2,13242,1,2,0,0,0,0,0,'5',0,0,
    "0","",[
    0,18,7,0,'18','7','0'],[0,18,7,0,'18','7','0'],[
]).
rcbox('black','',64,465,369,520,2,5,1,0,16,13332,0,0,0,0,'5',0,[
]).
text('magenta',219,476,1,1,1,240,33,13333,26,7,0,0,0,0,2,240,33,0,0,"",0,0,0,0,502,'',[
minilines(240,33,0,0,1,0,0,[
mini_line(240,26,7,0,0,0,[
str_block(0,240,26,7,0,0,0,0,0,[
str_seg('black','Courier-BoldOblique',3,195840,240,26,7,0,0,0,0,0,0,0,
	"t1:= t2.twin")])
])
])]).
text('magenta',95,405,1,1,1,83,39,13335,32,7,0,0,0,0,2,83,39,0,0,"",0,0,0,0,437,'',[
minilines(83,39,0,0,1,0,0,[
mini_line(83,32,7,0,0,0,[
str_block(0,83,32,7,0,-1,0,0,0,[
str_seg('black','NewCenturySchlbk-Roman',0,195840,83,32,7,0,-1,0,0,0,0,0,
	"avant")])
])
])]).
text('magenta',95,535,1,1,1,82,39,13336,32,7,0,0,0,0,2,82,39,0,0,"",0,0,0,0,567,'',[
minilines(82,39,0,0,1,0,0,[
mini_line(82,32,7,0,0,0,[
str_block(0,82,32,7,0,-2,0,0,0,[
str_seg('black','NewCenturySchlbk-Roman',0,195840,82,32,7,0,-2,0,0,0,0,0,
	"apr\350s")])
])
])]).
text('magenta',921,424,1,1,1,60,33,14855,26,7,0,0,0,0,2,60,33,0,0,"",0,0,0,0,450,'',[
minilines(60,33,0,0,1,0,0,[
mini_line(60,26,7,0,0,0,[
str_block(0,60,26,7,0,0,0,0,0,[
str_seg('black','Courier-BoldOblique',3,195840,60,26,7,0,0,0,0,0,0,0,
	"tas")])
])
])]).
text('magenta',921,519,1,1,1,60,33,14856,26,7,0,0,0,0,2,60,33,0,0,"",0,0,0,0,545,'',[
minilines(60,33,0,0,1,0,0,[
mini_line(60,26,7,0,0,0,[
str_block(0,60,26,7,0,0,0,0,0,[
str_seg('black','Courier-BoldOblique',3,195840,60,26,7,0,0,0,0,0,0,0,
	"tas")])
])
])]).
box('black','',443,184,571,264,0,2,1,14905,0,0,0,0,0,'2',0,[
]).
poly('black','',2,[
	443,224,571,224],0,2,1,14906,1,1,0,0,0,0,0,'2',0,0,
    "0","",[
    0,10,4,0,'10','4','0'],[0,10,4,0,'10','4','0'],[
]).
box('black','',443,264,571,304,0,2,1,14907,0,0,0,0,0,'2',0,[
]).
text('magenta',508,162,1,1,1,121,20,14908,15,5,0,0,0,0,2,121,20,0,0,"",0,0,0,0,177,'',[
minilines(121,20,0,0,1,0,0,[
mini_line(121,15,5,0,0,0,[
str_block(0,121,15,5,0,-1,0,0,0,[
str_seg('black','Courier-Bold',1,115200,121,15,5,0,-1,0,0,0,0,0,
	"un TRIANGLE")])
])
])]).
box('black','',443,160,573,184,0,2,1,14909,0,0,0,0,0,'2',0,[
]).
box('black','',448,549,576,629,0,2,1,14905,0,0,0,0,0,'2',0,[
]).
poly('black','',2,[
	448,589,576,589],0,2,1,14906,1,1,0,0,0,0,0,'2',0,0,
    "0","",[
    0,10,4,0,'10','4','0'],[0,10,4,0,'10','4','0'],[
]).
box('black','',448,629,576,669,0,2,1,14907,0,0,0,0,0,'2',0,[
]).
text('magenta',513,527,1,1,1,121,20,14908,15,5,0,0,0,0,2,121,20,0,0,"",0,0,0,0,542,'',[
minilines(121,20,0,0,1,0,0,[
mini_line(121,15,5,0,0,0,[
str_block(0,121,15,5,0,-1,0,0,0,[
str_seg('black','Courier-Bold',1,115200,121,15,5,0,-1,0,0,0,0,0,
	"un TRIANGLE")])
])
])]).
box('black','',448,525,578,549,0,2,1,14909,0,0,0,0,0,'2',0,[
]).
box('black','',448,709,576,789,0,2,1,15086,0,0,0,0,0,'2',0,[
]).
poly('black','',2,[
	448,749,576,749],0,2,1,15087,1,1,0,0,0,0,0,'2',0,0,
    "0","",[
    0,10,4,0,'10','4','0'],[0,10,4,0,'10','4','0'],[
]).
box('black','',448,789,576,829,0,2,1,15088,0,0,0,0,0,'2',0,[
]).
text('magenta',513,687,1,1,1,121,20,15089,15,5,0,0,0,0,2,121,20,0,0,"",0,0,0,0,702,'',[
minilines(121,20,0,0,1,0,0,[
mini_line(121,15,5,0,0,0,[
str_block(0,121,15,5,0,-1,0,0,0,[
str_seg('black','Courier-Bold',1,115200,121,15,5,0,-1,0,0,0,0,0,
	"un TRIANGLE")])
])
])]).
box('black','',448,685,578,709,0,2,1,15090,0,0,0,0,0,'2',0,[
]).
