%TGIF 4.1.40
state(0,37,100.000,0,0,0,4,1,0,3,0,4,1,0,0,1,0,'Courier',0,138240,0,0,0,10,0,0,0,1,0,16,0,0,1,1,1,0,1088,1408,1,0,2880,0).
%
% @(#)$Header$
% %W%
%
unit("1 pixel/pixel").
color_info(11,65535,0,[
	"magenta", 65535, 0, 65535, 65535, 0, 65535, 1,
	"red", 65535, 0, 0, 65535, 0, 0, 1,
	"green", 0, 65535, 0, 0, 65535, 0, 1,
	"blue", 0, 0, 65535, 0, 0, 65535, 1,
	"yellow", 65535, 65535, 0, 65535, 65535, 0, 1,
	"pink", 65535, 48830, 52942, 65535, 49344, 52171, 1,
	"cyan", 0, 65535, 65535, 0, 65535, 65535, 1,
	"CadetBlue", 25443, 40606, 40092, 24415, 40606, 41120, 1,
	"white", 65535, 65535, 65535, 65535, 65535, 65535, 1,
	"black", 0, 0, 0, 0, 0, 0, 1,
	"DarkSlateGray", 12593, 19789, 21074, 12079, 20303, 20303, 1
]).
script_frac("0.6").
fg_bg_colors('magenta','white').
page(1,"",1,'').
text('magenta',846,228,1,0,1,60,33,4128,26,7,0,0,0,0,2,60,33,0,0,"",0,0,0,0,254,'',[
minilines(60,33,0,0,0,0,0,[
mini_line(60,26,7,0,0,0,[
str_block(0,60,26,7,0,0,0,0,0,[
str_seg('magenta','Courier-BoldOblique',3,195840,60,26,7,0,0,0,0,0,0,0,
	"tas")])
])
])]).
box('magenta','',269,334,397,374,0,2,1,4129,0,0,0,0,0,'2',0,[
]).
box('magenta','',269,294,397,334,0,2,1,4131,0,0,0,0,0,'2',0,[
]).
box('magenta','',269,374,397,419,0,2,1,4132,0,0,0,0,0,'2',0,[
]).
poly('magenta','',2,[
	269,419,397,419],0,5,2,4133,1,2,0,0,0,0,0,'5',0,0,
    "0","",[
    0,18,7,0,'18','7','0'],[0,18,7,0,'18','7','0'],[
]).
poly('magenta','',6,[
	269,419,297,403,329,431,357,403,385,435,397,419],0,5,6,4134,1,0,0,0,0,0,0,'5',0,0,
    "78","",[
    0,18,7,0,'18','7','0'],[0,18,7,0,'18','7','0'],[
]).
text('magenta',262,342,1,2,1,40,33,4139,26,7,0,0,0,0,2,40,33,0,0,"",0,0,0,0,368,'',[
minilines(40,33,0,0,2,0,0,[
mini_line(40,26,7,0,0,0,[
str_block(0,40,26,7,0,-3,0,0,0,[
str_seg('magenta','Courier-Bold',1,195840,40,26,7,0,-3,0,0,0,0,0,
	"P1")])
])
])]).
text('magenta',262,302,1,2,1,40,33,4140,26,7,0,0,0,0,2,40,33,0,0,"",0,0,0,0,328,'',[
minilines(40,33,0,0,2,0,0,[
mini_line(40,26,7,0,0,0,[
str_block(0,40,26,7,0,-4,0,0,0,[
str_seg('magenta','Courier-Bold',1,195840,40,26,7,0,-4,0,0,0,0,0,
	"P2")])
])
])]).
text('magenta',290,374,1,0,1,80,33,4156,26,7,0,0,0,0,2,80,33,-1,0,"",0,0,0,0,400,'',[
minilines(80,33,-1,0,0,0,0,[
mini_line(80,26,7,-1,0,0,[
str_block(0,80,26,7,-1,0,0,0,0,[
str_seg('magenta','Courier-BoldOblique',3,195840,80,26,7,-1,0,0,0,0,0,0,
	"pile")])
])
])]).
box('magenta','',269,254,397,294,0,2,1,4130,0,0,0,0,0,'2',0,[
]).
text('magenta',262,262,1,2,1,40,33,4141,26,7,0,0,0,0,2,40,33,0,0,"",0,0,0,0,288,'',[
minilines(40,33,0,0,2,0,0,[
mini_line(40,26,7,0,0,0,[
str_block(0,40,26,7,0,-3,0,0,0,[
str_seg('magenta','Courier-Bold',1,195840,40,26,7,0,-3,0,0,0,0,0,
	"P3")])
])
])]).
box('magenta','',269,214,397,254,0,2,1,4165,0,0,0,0,0,'2',0,[
]).
text('magenta',262,218,1,2,1,40,33,4167,26,7,0,0,0,0,2,40,33,0,0,"",0,0,0,0,244,'',[
minilines(40,33,0,0,2,0,0,[
mini_line(40,26,7,0,0,0,[
str_block(0,40,26,7,0,-4,0,0,0,[
str_seg('magenta','Courier-Bold',1,195840,40,26,7,0,-4,0,0,0,0,0,
	"P4")])
])
])]).
box('magenta','',269,174,397,214,0,2,1,4181,0,0,0,0,0,'2',0,[
]).
text('magenta',332,179,1,1,1,80,33,4182,26,7,0,0,0,0,2,80,33,0,0,"",0,0,0,0,205,'',[
minilines(80,33,0,0,1,0,0,[
mini_line(80,26,7,0,0,0,[
str_block(0,80,26,7,0,-1,0,0,0,[
str_seg('magenta','Courier-Bold',1,195840,80,26,7,0,-1,0,0,0,0,0,
	"true")])
])
])]).
text('magenta',262,178,1,2,1,80,33,4183,26,7,0,0,0,0,2,80,33,0,0,"",0,0,0,0,204,'',[
minilines(80,33,0,0,2,0,0,[
mini_line(80,26,7,0,0,0,[
str_block(0,80,26,7,0,-2,0,0,0,[
str_seg('magenta','Courier-Bold',1,195840,80,26,7,0,-2,0,0,0,0,0,
	"bool")])
])
])]).
box('magenta','',269,134,397,174,0,2,1,4272,0,0,0,0,0,'2',0,[
]).
text('magenta',332,139,1,1,1,20,33,4273,26,7,0,0,0,0,2,20,33,0,0,"",0,0,0,0,165,'',[
minilines(20,33,0,0,1,0,0,[
mini_line(20,26,7,0,0,0,[
str_block(0,20,26,7,0,-4,0,0,0,[
str_seg('magenta','Courier-Bold',1,195840,20,26,7,0,-4,0,0,0,0,0,
	"7")])
])
])]).
text('magenta',262,138,1,2,1,40,33,4274,26,7,0,0,0,0,2,40,33,0,0,"",0,0,0,0,164,'',[
minilines(40,33,0,0,2,0,0,[
mini_line(40,26,7,0,0,0,[
str_block(0,40,26,7,0,0,0,0,0,[
str_seg('magenta','Courier-Bold',1,195840,40,26,7,0,0,0,0,0,0,0,
	"eq")])
])
])]).
box('magenta','',527,340,655,420,0,2,1,4142,0,0,0,0,0,'2',0,[
]).
poly('magenta','',2,[
	527,380,655,380],0,2,1,4143,1,1,0,0,0,0,0,'2',0,0,
    "0","",[
    0,10,4,0,'10','4','0'],[0,10,4,0,'10','4','0'],[
]).
text('magenta',502,350,1,0,1,20,33,4144,26,7,0,0,0,0,2,20,33,0,0,"",0,0,0,0,376,'',[
minilines(20,33,0,0,0,0,0,[
mini_line(20,26,7,0,0,0,[
str_block(0,20,26,7,0,-1,0,0,0,[
str_seg('magenta','Courier-Bold',1,195840,20,26,7,0,-1,0,0,0,0,0,
	"X")])
])
])]).
text('magenta',502,385,1,0,1,20,33,4145,26,7,0,0,0,0,2,20,33,0,0,"",0,0,0,0,411,'',[
minilines(20,33,0,0,0,0,0,[
mini_line(20,26,7,0,0,0,[
str_block(0,20,26,7,0,0,0,0,0,[
str_seg('magenta','Courier-Bold',1,195840,20,26,7,0,0,0,0,0,0,0,
	"y")])
])
])]).
text('magenta',582,321,1,1,1,88,20,4146,15,5,0,0,0,0,2,88,20,0,0,"",0,0,0,0,336,'',[
minilines(88,20,0,0,1,0,0,[
mini_line(88,15,5,0,0,0,[
str_block(0,88,15,5,0,-1,0,0,0,[
str_seg('magenta','Courier-Bold',1,115200,88,15,5,0,-1,0,0,0,0,0,
	"un POINT")])
])
])]).
box('magenta','',527,316,637,340,0,2,1,4147,0,0,0,0,0,'2',0,[
]).
text('magenta',588,344,1,1,1,60,33,4148,26,7,0,0,0,0,2,60,33,0,0,"",0,0,0,0,370,'',[
minilines(60,33,0,0,1,0,0,[
mini_line(60,26,7,0,0,0,[
str_block(0,60,26,7,0,-4,0,0,0,[
str_seg('magenta','Courier-Bold',1,195840,60,26,7,0,-4,0,0,0,0,0,
	"1.0")])
])
])]).
text('magenta',588,384,1,1,1,60,33,4149,26,7,0,0,0,0,2,60,33,0,0,"",0,0,0,0,410,'',[
minilines(60,33,0,0,1,0,0,[
mini_line(60,26,7,0,0,0,[
str_block(0,60,26,7,0,-4,0,0,0,[
str_seg('magenta','Courier-Bold',1,195840,60,26,7,0,-4,0,0,0,0,0,
	"2.0")])
])
])]).
box('magenta','',567,208,695,288,0,2,1,4328,0,0,0,0,0,'2',0,[
]).
poly('magenta','',2,[
	567,248,695,248],0,2,1,4329,1,1,0,0,0,0,0,'2',0,0,
    "0","",[
    0,10,4,0,'10','4','0'],[0,10,4,0,'10','4','0'],[
]).
text('magenta',542,218,1,0,1,20,33,4330,26,7,0,0,0,0,2,20,33,0,0,"",0,0,0,0,244,'',[
minilines(20,33,0,0,0,0,0,[
mini_line(20,26,7,0,0,0,[
str_block(0,20,26,7,0,-1,0,0,0,[
str_seg('magenta','Courier-Bold',1,195840,20,26,7,0,-1,0,0,0,0,0,
	"X")])
])
])]).
text('magenta',542,253,1,0,1,20,33,4331,26,7,0,0,0,0,2,20,33,0,0,"",0,0,0,0,279,'',[
minilines(20,33,0,0,0,0,0,[
mini_line(20,26,7,0,0,0,[
str_block(0,20,26,7,0,0,0,0,0,[
str_seg('magenta','Courier-Bold',1,195840,20,26,7,0,0,0,0,0,0,0,
	"y")])
])
])]).
text('magenta',622,189,1,1,1,88,20,4332,15,5,0,0,0,0,2,88,20,0,0,"",0,0,0,0,204,'',[
minilines(88,20,0,0,1,0,0,[
mini_line(88,15,5,0,0,0,[
str_block(0,88,15,5,0,-1,0,0,0,[
str_seg('magenta','Courier-Bold',1,115200,88,15,5,0,-1,0,0,0,0,0,
	"un POINT")])
])
])]).
box('magenta','',567,184,677,208,0,2,1,4333,0,0,0,0,0,'2',0,[
]).
text('magenta',628,212,1,1,1,60,33,4334,26,7,0,0,0,0,2,60,33,0,0,"",0,0,0,0,238,'',[
minilines(60,33,0,0,1,0,0,[
mini_line(60,26,7,0,0,0,[
str_block(0,60,26,7,0,-4,0,0,0,[
str_seg('magenta','Courier-Bold',1,195840,60,26,7,0,-4,0,0,0,0,0,
	"1.0")])
])
])]).
text('magenta',628,252,1,1,1,60,33,4335,26,7,0,0,0,0,2,60,33,0,0,"",0,0,0,0,278,'',[
minilines(60,33,0,0,1,0,0,[
mini_line(60,26,7,0,0,0,[
str_block(0,60,26,7,0,-4,0,0,0,[
str_seg('magenta','Courier-Bold',1,195840,60,26,7,0,-4,0,0,0,0,0,
	"2.0")])
])
])]).
box('magenta','',519,72,647,152,0,2,1,4337,0,0,0,0,0,'2',0,[
]).
poly('magenta','',2,[
	519,112,647,112],0,2,1,4338,1,1,0,0,0,0,0,'2',0,0,
    "0","",[
    0,10,4,0,'10','4','0'],[0,10,4,0,'10','4','0'],[
]).
text('magenta',494,82,1,0,1,20,33,4339,26,7,0,0,0,0,2,20,33,0,0,"",0,0,0,0,108,'',[
minilines(20,33,0,0,0,0,0,[
mini_line(20,26,7,0,0,0,[
str_block(0,20,26,7,0,-1,0,0,0,[
str_seg('magenta','Courier-Bold',1,195840,20,26,7,0,-1,0,0,0,0,0,
	"X")])
])
])]).
text('magenta',494,117,1,0,1,20,33,4340,26,7,0,0,0,0,2,20,33,0,0,"",0,0,0,0,143,'',[
minilines(20,33,0,0,0,0,0,[
mini_line(20,26,7,0,0,0,[
str_block(0,20,26,7,0,0,0,0,0,[
str_seg('magenta','Courier-Bold',1,195840,20,26,7,0,0,0,0,0,0,0,
	"y")])
])
])]).
text('magenta',574,53,1,1,1,88,20,4341,15,5,0,0,0,0,2,88,20,0,0,"",0,0,0,0,68,'',[
minilines(88,20,0,0,1,0,0,[
mini_line(88,15,5,0,0,0,[
str_block(0,88,15,5,0,-1,0,0,0,[
str_seg('magenta','Courier-Bold',1,115200,88,15,5,0,-1,0,0,0,0,0,
	"un POINT")])
])
])]).
box('magenta','',519,48,629,72,0,2,1,4342,0,0,0,0,0,'2',0,[
]).
text('magenta',580,76,1,1,1,60,33,4343,26,7,0,0,0,0,2,60,33,0,0,"",0,0,0,0,102,'',[
minilines(60,33,0,0,1,0,0,[
mini_line(60,26,7,0,0,0,[
str_block(0,60,26,7,0,-4,0,0,0,[
str_seg('magenta','Courier-Bold',1,195840,60,26,7,0,-4,0,0,0,0,0,
	"2.0")])
])
])]).
text('magenta',580,116,1,1,1,60,33,4344,26,7,0,0,0,0,2,60,33,0,0,"",0,0,0,0,142,'',[
minilines(60,33,0,0,1,0,0,[
mini_line(60,26,7,0,0,0,[
str_block(0,60,26,7,0,-4,0,0,0,[
str_seg('magenta','Courier-Bold',1,195840,60,26,7,0,-4,0,0,0,0,0,
	"3.0")])
])
])]).
poly('magenta','',3,[
	336,349,444,337,500,345],1,5,1,4137,1,0,0,0,0,0,0,'5',0,0,
    "4","",[
    0,18,7,0,'18','7','0'],[0,18,7,0,'18','7','0'],[
]).
oval('magenta','',320,338,339,358,1,5,0,4138,0,0,0,0,0,'5',0,[
]).
poly('magenta','',3,[
	336,313,448,297,540,253],1,5,1,4385,1,0,0,0,0,0,0,'5',0,0,
    "4","",[
    0,18,7,0,'18','7','0'],[0,18,7,0,'18','7','0'],[
]).
oval('magenta','',320,302,339,322,1,5,0,4386,0,0,0,0,0,'5',0,[
]).
poly('magenta','',3,[
	336,269,456,265,520,173],1,5,1,4388,1,0,0,0,0,0,0,'5',0,0,
    "4","",[
    0,18,7,0,'18','7','0'],[0,18,7,0,'18','7','0'],[
]).
oval('magenta','',320,258,339,278,1,5,0,4389,0,0,0,0,0,'5',0,[
]).
poly('magenta','',3,[
	336,229,436,233,496,169],1,5,1,4391,1,0,0,0,0,0,0,'5',0,0,
    "4","",[
    0,18,7,0,'18','7','0'],[0,18,7,0,'18','7','0'],[
]).
oval('magenta','',320,218,339,238,1,5,0,4392,0,0,0,0,0,'5',0,[
]).
oval('magenta','',64,16,96,51,0,5,1,4154,0,0,0,0,0,'5',0,[
]).
oval('magenta','',71,23,90,43,1,5,2,4155,0,0,0,0,0,'5',0,[
]).
