%TGIF 4.1.42-QPL
state(0,37,100.000,0,0,1,4,1,9,2,0,4,1,1,0,11,1,'NewCenturySchlbk-Roman',0,195840,0,0,1,5,0,0,1,1,0,16,0,0,1,1,1,1,1088,1408,1,0,2880,0).
%
% @(#)$Header$
% %W%
%
unit("1 pixel/pixel").
color_info(11,65535,0,[
	"magenta", 65535, 0, 65535, 65535, 0, 65535, 1,
	"red", 65535, 0, 0, 65535, 0, 0, 1,
	"green", 0, 65535, 0, 0, 65535, 0, 1,
	"blue", 0, 0, 65535, 0, 0, 65535, 1,
	"yellow", 65535, 65535, 0, 65535, 65535, 0, 1,
	"pink", 65535, 49931, 50971, 65535, 49344, 52171, 1,
	"cyan", 0, 65535, 65535, 0, 65535, 65535, 1,
	"CadetBlue", 22885, 40569, 40569, 24415, 40606, 41120, 1,
	"white", 65535, 65535, 65535, 65535, 65535, 65535, 1,
	"black", 0, 0, 0, 0, 0, 0, 1,
	"DarkSlateGray", 10402, 19764, 18724, 12079, 20303, 20303, 1
]).
script_frac("0.6").
fg_bg_colors('black','white').
dont_reencode("FFDingbests:ZapfDingbats").
page(1,"",1,'').
text('magenta',489,226,1,1,1,60,33,13222,26,7,0,0,0,0,2,60,33,0,0,"",0,0,0,0,252,'',[
minilines(60,33,0,0,1,0,0,[
mini_line(60,26,7,0,0,0,[
str_block(0,60,26,7,0,-4,0,0,0,[
str_seg('black','Courier-Bold',1,195840,60,26,7,0,-4,0,0,0,0,0,
	"1.0")])
])
])]).
text('magenta',489,265,1,1,1,60,33,13223,26,7,0,0,0,0,2,60,33,0,0,"",0,0,0,0,291,'',[
minilines(60,33,0,0,1,0,0,[
mini_line(60,26,7,0,0,0,[
str_block(0,60,26,7,0,-4,0,0,0,[
str_seg('black','Courier-Bold',1,195840,60,26,7,0,-4,0,0,0,0,0,
	"2.0")])
])
])]).
box('black','',427,221,555,301,0,2,1,13224,0,0,0,0,0,'2',0,[
]).
poly('black','',2,[
	427,261,555,261],0,2,1,13225,1,1,0,0,0,0,0,'2',0,0,
    "0","",[
    0,10,4,0,'10','4','0'],[0,10,4,0,'10','4','0'],[
]).
text('magenta',403,224,1,0,1,20,33,13226,26,7,0,0,0,0,2,20,33,0,0,"",0,0,0,0,250,'',[
minilines(20,33,0,0,0,0,0,[
mini_line(20,26,7,0,0,0,[
str_block(0,20,26,7,0,-1,0,0,0,[
str_seg('black','Courier-Bold',1,195840,20,26,7,0,-1,0,0,0,0,0,
	"X")])
])
])]).
text('magenta',403,263,1,0,1,20,33,13227,26,7,0,0,0,0,2,20,33,0,0,"",0,0,0,0,289,'',[
minilines(20,33,0,0,0,0,0,[
mini_line(20,26,7,0,0,0,[
str_block(0,20,26,7,0,0,0,0,0,[
str_seg('black','Courier-Bold',1,195840,20,26,7,0,0,0,0,0,0,0,
	"y")])
])
])]).
text('magenta',482,202,1,1,1,88,20,13228,15,5,0,0,0,0,2,88,20,0,0,"",0,0,0,0,217,'',[
minilines(88,20,0,0,1,0,0,[
mini_line(88,15,5,0,0,0,[
str_block(0,88,15,5,0,-1,0,0,0,[
str_seg('black','Courier-Bold',1,115200,88,15,5,0,-1,0,0,0,0,0,
	"un POINT")])
])
])]).
box('black','',427,197,537,221,0,2,1,13229,0,0,0,0,0,'2',0,[
]).
box('black','',200,242,328,282,0,2,1,13235,0,0,0,0,0,'2',0,[
]).
text('magenta',189,246,1,2,1,40,33,13236,26,7,0,0,0,0,2,40,33,0,0,"",0,0,0,0,272,'',[
minilines(40,33,0,0,2,0,0,[
mini_line(40,26,7,0,0,0,[
str_block(0,40,26,7,0,-4,0,0,0,[
str_seg('black','Courier-Bold',1,195840,40,26,7,0,-4,0,0,0,0,0,
	"p2")])
])
])]).
oval('black','',251,250,270,270,1,5,0,13237,0,0,0,0,0,'5',0,[
]).
poly('black','',2,[
	262,260,382,260],1,5,1,13238,1,0,0,0,0,0,0,'5',0,0,
    "0","",[
    0,18,7,0,'18','7','0'],[0,18,7,0,'18','7','0'],[
]).
box('black','',200,352,328,392,0,2,1,13265,0,0,0,0,0,'2',0,[
]).
text('magenta',189,356,1,2,1,40,33,13266,26,7,0,0,0,0,2,40,33,0,0,"",0,0,0,0,382,'',[
minilines(40,33,0,0,2,0,0,[
mini_line(40,26,7,0,0,0,[
str_block(0,40,26,7,0,-3,0,0,0,[
str_seg('black','Courier-Bold',1,195840,40,26,7,0,-3,0,0,0,0,0,
	"p1")])
])
])]).
box('black','',200,607,328,647,0,2,1,13298,0,0,0,0,0,'2',0,[
]).
text('magenta',189,611,1,2,1,40,33,13299,26,7,0,0,0,0,2,40,33,0,0,"",0,0,0,0,637,'',[
minilines(40,33,0,0,2,0,0,[
mini_line(40,26,7,0,0,0,[
str_block(0,40,26,7,0,-4,0,0,0,[
str_seg('black','Courier-Bold',1,195840,40,26,7,0,-4,0,0,0,0,0,
	"p2")])
])
])]).
oval('black','',251,615,270,635,1,5,0,13300,0,0,0,0,0,'5',0,[
]).
poly('black','',2,[
	262,625,382,625],1,5,1,13301,1,0,0,0,0,0,0,'5',0,0,
    "0","",[
    0,18,7,0,'18','7','0'],[0,18,7,0,'18','7','0'],[
]).
poly('black','',2,[
	230,804,358,804],0,5,2,13304,1,2,0,0,0,0,0,'5',0,0,
    "0","",[
    0,18,7,0,'18','7','0'],[0,18,7,0,'18','7','0'],[
]).
box('black','',200,717,328,757,0,2,1,13321,0,0,0,0,0,'2',0,[
]).
text('magenta',189,721,1,2,1,40,33,13322,26,7,0,0,0,0,2,40,33,0,0,"",0,0,0,0,747,'',[
minilines(40,33,0,0,2,0,0,[
mini_line(40,26,7,0,0,0,[
str_block(0,40,26,7,0,-3,0,0,0,[
str_seg('black','Courier-Bold',1,195840,40,26,7,0,-3,0,0,0,0,0,
	"p1")])
])
])]).
oval('black','',251,725,270,745,1,5,0,13323,0,0,0,0,0,'5',0,[
]).
poly('black','',2,[
	262,735,382,735],1,5,1,13324,1,0,0,0,0,0,0,'5',0,0,
    "0","",[
    0,18,7,0,'18','7','0'],[0,18,7,0,'18','7','0'],[
]).
poly('black','',2,[
	154,490,1001,490],0,5,11,13330,1,1,0,0,0,0,0,'5',0,0,
    "0","",[
    0,18,7,0,'18','7','0'],[0,18,7,0,'18','7','0'],[
]).
text('magenta',262,356,1,1,1,80,33,13881,26,7,0,0,0,0,2,80,33,-1,0,"",0,0,0,0,382,'',[
minilines(80,33,-1,0,1,0,0,[
mini_line(80,26,7,-1,0,0,[
str_block(0,80,26,7,-1,0,0,0,0,[
str_seg('black','Courier-Bold',1,195840,80,26,7,-1,0,0,0,0,0,0,
	"Void")])
])
])]).
poly('black','',3,[
	55,445,25,495,60,550],1,5,1,13334,1,0,0,0,0,0,0,'5',0,0,
    "4","",[
    0,18,7,0,'18','7','0'],[0,18,7,0,'18','7','0'],[
]).
poly('black','',2,[
	170,444,298,444],0,5,2,13242,1,2,0,0,0,0,0,'5',0,0,
    "0","",[
    0,18,7,0,'18','7','0'],[0,18,7,0,'18','7','0'],[
]).
rcbox('black','',64,465,369,520,2,5,1,0,16,13332,0,0,0,0,'5',0,[
]).
text('magenta',219,476,1,1,1,240,33,13333,26,7,0,0,0,0,2,240,33,-1,0,"",0,0,0,0,502,'',[
minilines(240,33,-1,0,1,0,0,[
mini_line(240,26,7,-1,0,0,[
str_block(0,240,26,7,-1,0,0,0,0,[
str_seg('black','Courier-BoldOblique',3,195840,240,26,7,-1,0,0,0,0,0,0,
	"p1:= p2.twin")])
])
])]).
text('magenta',95,405,1,1,1,83,39,13335,32,7,0,0,0,0,2,83,39,0,0,"",0,0,0,0,437,'',[
minilines(83,39,0,0,1,0,0,[
mini_line(83,32,7,0,0,0,[
str_block(0,83,32,7,0,-1,0,0,0,[
str_seg('black','NewCenturySchlbk-Roman',0,195840,83,32,7,0,-1,0,0,0,0,0,
	"avant")])
])
])]).
text('magenta',95,535,1,1,1,82,39,13336,32,7,0,0,0,0,2,82,39,0,0,"",0,0,0,0,567,'',[
minilines(82,39,0,0,1,0,0,[
mini_line(82,32,7,0,0,0,[
str_block(0,82,32,7,0,-2,0,0,0,[
str_seg('black','NewCenturySchlbk-Roman',0,195840,82,32,7,0,-2,0,0,0,0,0,
	"apr\350s")])
])
])]).
text('magenta',921,424,1,1,1,60,33,14855,26,7,0,0,0,0,2,60,33,0,0,"",0,0,0,0,450,'',[
minilines(60,33,0,0,1,0,0,[
mini_line(60,26,7,0,0,0,[
str_block(0,60,26,7,0,0,0,0,0,[
str_seg('black','Courier-BoldOblique',3,195840,60,26,7,0,0,0,0,0,0,0,
	"tas")])
])
])]).
text('magenta',921,519,1,1,1,60,33,14856,26,7,0,0,0,0,2,60,33,0,0,"",0,0,0,0,545,'',[
minilines(60,33,0,0,1,0,0,[
mini_line(60,26,7,0,0,0,[
str_block(0,60,26,7,0,0,0,0,0,[
str_seg('black','Courier-BoldOblique',3,195840,60,26,7,0,0,0,0,0,0,0,
	"tas")])
])
])]).
text('magenta',489,586,1,1,1,60,33,15485,26,7,0,0,0,0,2,60,33,0,0,"",0,0,0,0,612,'',[
minilines(60,33,0,0,1,0,0,[
mini_line(60,26,7,0,0,0,[
str_block(0,60,26,7,0,-4,0,0,0,[
str_seg('black','Courier-Bold',1,195840,60,26,7,0,-4,0,0,0,0,0,
	"1.0")])
])
])]).
text('magenta',489,625,1,1,1,60,33,15486,26,7,0,0,0,0,2,60,33,0,0,"",0,0,0,0,651,'',[
minilines(60,33,0,0,1,0,0,[
mini_line(60,26,7,0,0,0,[
str_block(0,60,26,7,0,-4,0,0,0,[
str_seg('black','Courier-Bold',1,195840,60,26,7,0,-4,0,0,0,0,0,
	"2.0")])
])
])]).
box('black','',427,581,555,661,0,2,1,15487,0,0,0,0,0,'2',0,[
]).
poly('black','',2,[
	427,621,555,621],0,2,1,15488,1,1,0,0,0,0,0,'2',0,0,
    "0","",[
    0,10,4,0,'10','4','0'],[0,10,4,0,'10','4','0'],[
]).
text('magenta',403,584,1,0,1,20,33,15489,26,7,0,0,0,0,2,20,33,0,0,"",0,0,0,0,610,'',[
minilines(20,33,0,0,0,0,0,[
mini_line(20,26,7,0,0,0,[
str_block(0,20,26,7,0,-1,0,0,0,[
str_seg('black','Courier-Bold',1,195840,20,26,7,0,-1,0,0,0,0,0,
	"X")])
])
])]).
text('magenta',403,623,1,0,1,20,33,15490,26,7,0,0,0,0,2,20,33,0,0,"",0,0,0,0,649,'',[
minilines(20,33,0,0,0,0,0,[
mini_line(20,26,7,0,0,0,[
str_block(0,20,26,7,0,0,0,0,0,[
str_seg('black','Courier-Bold',1,195840,20,26,7,0,0,0,0,0,0,0,
	"y")])
])
])]).
text('magenta',482,562,1,1,1,88,20,15491,15,5,0,0,0,0,2,88,20,0,0,"",0,0,0,0,577,'',[
minilines(88,20,0,0,1,0,0,[
mini_line(88,15,5,0,0,0,[
str_block(0,88,15,5,0,-1,0,0,0,[
str_seg('black','Courier-Bold',1,115200,88,15,5,0,-1,0,0,0,0,0,
	"un POINT")])
])
])]).
box('black','',427,557,537,581,0,2,1,15492,0,0,0,0,0,'2',0,[
]).
text('magenta',489,726,1,1,1,60,33,15493,26,7,0,0,0,0,2,60,33,0,0,"",0,0,0,0,752,'',[
minilines(60,33,0,0,1,0,0,[
mini_line(60,26,7,0,0,0,[
str_block(0,60,26,7,0,-4,0,0,0,[
str_seg('black','Courier-Bold',1,195840,60,26,7,0,-4,0,0,0,0,0,
	"1.0")])
])
])]).
text('magenta',489,765,1,1,1,60,33,15494,26,7,0,0,0,0,2,60,33,0,0,"",0,0,0,0,791,'',[
minilines(60,33,0,0,1,0,0,[
mini_line(60,26,7,0,0,0,[
str_block(0,60,26,7,0,-4,0,0,0,[
str_seg('black','Courier-Bold',1,195840,60,26,7,0,-4,0,0,0,0,0,
	"2.0")])
])
])]).
box('black','',427,721,555,801,0,2,1,15495,0,0,0,0,0,'2',0,[
]).
poly('black','',2,[
	427,761,555,761],0,2,1,15496,1,1,0,0,0,0,0,'2',0,0,
    "0","",[
    0,10,4,0,'10','4','0'],[0,10,4,0,'10','4','0'],[
]).
text('magenta',403,724,1,0,1,20,33,15497,26,7,0,0,0,0,2,20,33,0,0,"",0,0,0,0,750,'',[
minilines(20,33,0,0,0,0,0,[
mini_line(20,26,7,0,0,0,[
str_block(0,20,26,7,0,-1,0,0,0,[
str_seg('black','Courier-Bold',1,195840,20,26,7,0,-1,0,0,0,0,0,
	"X")])
])
])]).
text('magenta',403,763,1,0,1,20,33,15498,26,7,0,0,0,0,2,20,33,0,0,"",0,0,0,0,789,'',[
minilines(20,33,0,0,0,0,0,[
mini_line(20,26,7,0,0,0,[
str_block(0,20,26,7,0,0,0,0,0,[
str_seg('black','Courier-Bold',1,195840,20,26,7,0,0,0,0,0,0,0,
	"y")])
])
])]).
text('magenta',482,702,1,1,1,88,20,15499,15,5,0,0,0,0,2,88,20,0,0,"",0,0,0,0,717,'',[
minilines(88,20,0,0,1,0,0,[
mini_line(88,15,5,0,0,0,[
str_block(0,88,15,5,0,-1,0,0,0,[
str_seg('black','Courier-Bold',1,115200,88,15,5,0,-1,0,0,0,0,0,
	"un POINT")])
])
])]).
box('black','',427,697,537,721,0,2,1,15500,0,0,0,0,0,'2',0,[
]).
