<?xml version="1.0" encoding="UTF-8"?>
<dia:diagram xmlns:dia="http://www.lysator.liu.se/~alla/dia/">
  <dia:diagramdata>
    <dia:attribute name="background">
      <dia:color val="#ffffff"/>
    </dia:attribute>
    <dia:attribute name="paper">
      <dia:composite type="paper">
        <dia:attribute name="name">
          <dia:string>#A4#</dia:string>
        </dia:attribute>
        <dia:attribute name="tmargin">
          <dia:real val="2.8222"/>
        </dia:attribute>
        <dia:attribute name="bmargin">
          <dia:real val="2.8222"/>
        </dia:attribute>
        <dia:attribute name="lmargin">
          <dia:real val="2.8222"/>
        </dia:attribute>
        <dia:attribute name="rmargin">
          <dia:real val="2.8222"/>
        </dia:attribute>
        <dia:attribute name="is_portrait">
          <dia:boolean val="true"/>
        </dia:attribute>
        <dia:attribute name="scaling">
          <dia:real val="1"/>
        </dia:attribute>
        <dia:attribute name="fitto">
          <dia:boolean val="false"/>
        </dia:attribute>
      </dia:composite>
    </dia:attribute>
    <dia:attribute name="grid">
      <dia:composite type="grid">
        <dia:attribute name="width_x">
          <dia:real val="0.1"/>
        </dia:attribute>
        <dia:attribute name="width_y">
          <dia:real val="0.1"/>
        </dia:attribute>
        <dia:attribute name="visible_x">
          <dia:int val="1"/>
        </dia:attribute>
        <dia:attribute name="visible_y">
          <dia:int val="1"/>
        </dia:attribute>
      </dia:composite>
    </dia:attribute>
    <dia:attribute name="guides">
      <dia:composite type="guides">
        <dia:attribute name="hguides"/>
        <dia:attribute name="vguides"/>
      </dia:composite>
    </dia:attribute>
  </dia:diagramdata>
  <dia:layer name="Background" visible="true">
    <dia:object type="Standard - Text" version="0" id="O0">
      <dia:attribute name="obj_pos">
        <dia:point val="8.2,3.4"/>
      </dia:attribute>
      <dia:attribute name="obj_bb">
        <dia:rectangle val="5.9252,2.78286;10.4748,3.58286"/>
      </dia:attribute>
      <dia:attribute name="text">
        <dia:composite type="text">
          <dia:attribute name="string">
            <dia:string>#infix &quot;+&quot;#</dia:string>
          </dia:attribute>
          <dia:attribute name="font">
            <dia:font name="Courier"/>
          </dia:attribute>
          <dia:attribute name="height">
            <dia:real val="0.8"/>
          </dia:attribute>
          <dia:attribute name="pos">
            <dia:point val="8.2,3.4"/>
          </dia:attribute>
          <dia:attribute name="color">
            <dia:color val="#000000"/>
          </dia:attribute>
          <dia:attribute name="alignment">
            <dia:enum val="1"/>
          </dia:attribute>
        </dia:composite>
      </dia:attribute>
    </dia:object>
    <dia:object type="Standard - Text" version="0" id="O1">
      <dia:attribute name="obj_pos">
        <dia:point val="6.5,8.35"/>
      </dia:attribute>
      <dia:attribute name="obj_bb">
        <dia:rectangle val="6.2932,7.73286;6.7068,8.53286"/>
      </dia:attribute>
      <dia:attribute name="text">
        <dia:composite type="text">
          <dia:attribute name="string">
            <dia:string>#a#</dia:string>
          </dia:attribute>
          <dia:attribute name="font">
            <dia:font name="Courier"/>
          </dia:attribute>
          <dia:attribute name="height">
            <dia:real val="0.8"/>
          </dia:attribute>
          <dia:attribute name="pos">
            <dia:point val="6.5,8.35"/>
          </dia:attribute>
          <dia:attribute name="color">
            <dia:color val="#000000"/>
          </dia:attribute>
          <dia:attribute name="alignment">
            <dia:enum val="1"/>
          </dia:attribute>
        </dia:composite>
      </dia:attribute>
    </dia:object>
    <dia:object type="Standard - Text" version="0" id="O2">
      <dia:attribute name="obj_pos">
        <dia:point val="9.85,8.3"/>
      </dia:attribute>
      <dia:attribute name="obj_bb">
        <dia:rectangle val="9.1064,7.68286;10.5936,8.48286"/>
      </dia:attribute>
      <dia:attribute name="text">
        <dia:composite type="text">
          <dia:attribute name="string">
            <dia:string>#arg#</dia:string>
          </dia:attribute>
          <dia:attribute name="font">
            <dia:font name="Courier"/>
          </dia:attribute>
          <dia:attribute name="height">
            <dia:real val="0.8"/>
          </dia:attribute>
          <dia:attribute name="pos">
            <dia:point val="9.85,8.3"/>
          </dia:attribute>
          <dia:attribute name="color">
            <dia:color val="#000000"/>
          </dia:attribute>
          <dia:attribute name="alignment">
            <dia:enum val="1"/>
          </dia:attribute>
        </dia:composite>
      </dia:attribute>
    </dia:object>
    <dia:object type="Standard - Text" version="0" id="O3">
      <dia:attribute name="obj_pos">
        <dia:point val="9.85,11.25"/>
      </dia:attribute>
      <dia:attribute name="obj_bb">
        <dia:rectangle val="9.6212,10.6329;10.0788,11.4329"/>
      </dia:attribute>
      <dia:attribute name="text">
        <dia:composite type="text">
          <dia:attribute name="string">
            <dia:string>#b#</dia:string>
          </dia:attribute>
          <dia:attribute name="font">
            <dia:font name="Courier"/>
          </dia:attribute>
          <dia:attribute name="height">
            <dia:real val="0.8"/>
          </dia:attribute>
          <dia:attribute name="pos">
            <dia:point val="9.85,11.25"/>
          </dia:attribute>
          <dia:attribute name="color">
            <dia:color val="#000000"/>
          </dia:attribute>
          <dia:attribute name="alignment">
            <dia:enum val="1"/>
          </dia:attribute>
        </dia:composite>
      </dia:attribute>
    </dia:object>
    <dia:object type="Standard - PolyLine" version="0" id="O4">
      <dia:attribute name="obj_pos">
        <dia:point val="6.45,7.4"/>
      </dia:attribute>
      <dia:attribute name="obj_bb">
        <dia:rectangle val="6.38292,3.87764;9.76565,7.46708"/>
      </dia:attribute>
      <dia:attribute name="poly_points">
        <dia:point val="6.45,7.4"/>
        <dia:point val="8.2,3.9"/>
        <dia:point val="9.7,7.4"/>
      </dia:attribute>
    </dia:object>
    <dia:object type="Standard - Line" version="0" id="O5">
      <dia:attribute name="obj_pos">
        <dia:point val="9.8,8.6"/>
      </dia:attribute>
      <dia:attribute name="obj_bb">
        <dia:rectangle val="9.69863,8.54863;9.85137,10.4514"/>
      </dia:attribute>
      <dia:attribute name="conn_endpoints">
        <dia:point val="9.8,8.6"/>
        <dia:point val="9.75,10.4"/>
      </dia:attribute>
      <dia:attribute name="numcp">
        <dia:int val="1"/>
      </dia:attribute>
    </dia:object>
  </dia:layer>
</dia:diagram>
