<?xml version="1.0" encoding="UTF-8"?>
<dia:diagram xmlns:dia="http://www.lysator.liu.se/~alla/dia/">
  <dia:diagramdata>
    <dia:attribute name="background">
      <dia:color val="#ffffff"/>
    </dia:attribute>
    <dia:attribute name="paper">
      <dia:composite type="paper">
        <dia:attribute name="name">
          <dia:string>#A4#</dia:string>
        </dia:attribute>
        <dia:attribute name="tmargin">
          <dia:real val="2.8222"/>
        </dia:attribute>
        <dia:attribute name="bmargin">
          <dia:real val="2.8222"/>
        </dia:attribute>
        <dia:attribute name="lmargin">
          <dia:real val="2.8222"/>
        </dia:attribute>
        <dia:attribute name="rmargin">
          <dia:real val="2.8222"/>
        </dia:attribute>
        <dia:attribute name="is_portrait">
          <dia:boolean val="true"/>
        </dia:attribute>
        <dia:attribute name="scaling">
          <dia:real val="1"/>
        </dia:attribute>
        <dia:attribute name="fitto">
          <dia:boolean val="false"/>
        </dia:attribute>
      </dia:composite>
    </dia:attribute>
    <dia:attribute name="grid">
      <dia:composite type="grid">
        <dia:attribute name="width_x">
          <dia:real val="0.1"/>
        </dia:attribute>
        <dia:attribute name="width_y">
          <dia:real val="0.1"/>
        </dia:attribute>
        <dia:attribute name="visible_x">
          <dia:int val="1"/>
        </dia:attribute>
        <dia:attribute name="visible_y">
          <dia:int val="1"/>
        </dia:attribute>
      </dia:composite>
    </dia:attribute>
    <dia:attribute name="guides">
      <dia:composite type="guides">
        <dia:attribute name="hguides"/>
        <dia:attribute name="vguides"/>
      </dia:composite>
    </dia:attribute>
  </dia:diagramdata>
  <dia:layer name="Background" visible="true">
    <dia:object type="Standard - PolyLine" version="0" id="O0">
      <dia:attribute name="obj_pos">
        <dia:point val="6.60208,7.85236"/>
      </dia:attribute>
      <dia:attribute name="obj_bb">
        <dia:rectangle val="6.535,4.33;9.91773,7.91944"/>
      </dia:attribute>
      <dia:attribute name="poly_points">
        <dia:point val="6.60208,7.85236"/>
        <dia:point val="8.35208,4.35236"/>
        <dia:point val="9.85208,7.85236"/>
      </dia:attribute>
    </dia:object>
    <dia:object type="Standard - Text" version="0" id="O1">
      <dia:attribute name="obj_pos">
        <dia:point val="8.35,3.95"/>
      </dia:attribute>
      <dia:attribute name="obj_bb">
        <dia:rectangle val="4.72,3.33286;11.98,4.13286"/>
      </dia:attribute>
      <dia:attribute name="text">
        <dia:composite type="text">
          <dia:attribute name="string">
            <dia:string>#last_character#</dia:string>
          </dia:attribute>
          <dia:attribute name="font">
            <dia:font name="Courier"/>
          </dia:attribute>
          <dia:attribute name="height">
            <dia:real val="0.8"/>
          </dia:attribute>
          <dia:attribute name="pos">
            <dia:point val="8.35,3.95"/>
          </dia:attribute>
          <dia:attribute name="color">
            <dia:color val="#000000"/>
          </dia:attribute>
          <dia:attribute name="alignment">
            <dia:enum val="1"/>
          </dia:attribute>
        </dia:composite>
      </dia:attribute>
    </dia:object>
    <dia:object type="Standard - Text" version="0" id="O2">
      <dia:attribute name="obj_pos">
        <dia:point val="6.65,8.65"/>
      </dia:attribute>
      <dia:attribute name="obj_bb">
        <dia:rectangle val="6.1924,8.03286;7.1076,8.83286"/>
      </dia:attribute>
      <dia:attribute name="text">
        <dia:composite type="text">
          <dia:attribute name="string">
            <dia:string>#io#</dia:string>
          </dia:attribute>
          <dia:attribute name="font">
            <dia:font name="Courier"/>
          </dia:attribute>
          <dia:attribute name="height">
            <dia:real val="0.8"/>
          </dia:attribute>
          <dia:attribute name="pos">
            <dia:point val="6.65,8.65"/>
          </dia:attribute>
          <dia:attribute name="color">
            <dia:color val="#000000"/>
          </dia:attribute>
          <dia:attribute name="alignment">
            <dia:enum val="1"/>
          </dia:attribute>
        </dia:composite>
      </dia:attribute>
    </dia:object>
    <dia:object type="Standard - Text" version="0" id="O3">
      <dia:attribute name="obj_pos">
        <dia:point val="9.95,8.6"/>
      </dia:attribute>
      <dia:attribute name="obj_bb">
        <dia:rectangle val="8.9336,7.98286;10.9664,8.78286"/>
      </dia:attribute>
      <dia:attribute name="text">
        <dia:composite type="text">
          <dia:attribute name="string">
            <dia:string>#Void#</dia:string>
          </dia:attribute>
          <dia:attribute name="font">
            <dia:font name="Courier-Oblique"/>
          </dia:attribute>
          <dia:attribute name="height">
            <dia:real val="0.8"/>
          </dia:attribute>
          <dia:attribute name="pos">
            <dia:point val="9.95,8.6"/>
          </dia:attribute>
          <dia:attribute name="color">
            <dia:color val="#000000"/>
          </dia:attribute>
          <dia:attribute name="alignment">
            <dia:enum val="1"/>
          </dia:attribute>
        </dia:composite>
      </dia:attribute>
    </dia:object>
  </dia:layer>
</dia:diagram>
